<?xml version="1.0" encoding="UTF-8" standalone="no"?>
<!-- Created with Inkscape (http://www.inkscape.org/) -->

<svg
   xmlns:dc="http://purl.org/dc/elements/1.1/"
   xmlns:cc="http://creativecommons.org/ns#"
   xmlns:rdf="http://www.w3.org/1999/02/22-rdf-syntax-ns#"
   xmlns:svg="http://www.w3.org/2000/svg"
   xmlns="http://www.w3.org/2000/svg"
   xmlns:sodipodi="http://sodipodi.sourceforge.net/DTD/sodipodi-0.dtd"
   xmlns:inkscape="http://www.inkscape.org/namespaces/inkscape"
   width="210mm"
   height="297mm"
   viewBox="0 0 210 297"
   version="1.1"
   id="svg8"
   inkscape:version="0.92.3 (2405546, 2018-03-11)"
   sodipodi:docname="evolutivoA04_01.svg"
   inkscape:export-filename="/home/simoes/bitmap.png"
   inkscape:export-xdpi="96"
   inkscape:export-ydpi="96">
  <defs
     id="defs2" />
  <sodipodi:namedview
     id="base"
     pagecolor="#ffffff"
     bordercolor="#666666"
     borderopacity="1.0"
     inkscape:pageopacity="0.0"
     inkscape:pageshadow="2"
     inkscape:zoom="0.98994949"
     inkscape:cx="350.6308"
     inkscape:cy="546.95125"
     inkscape:document-units="mm"
     inkscape:current-layer="layer1"
     showgrid="false"
     inkscape:window-width="1366"
     inkscape:window-height="741"
     inkscape:window-x="0"
     inkscape:window-y="27"
     inkscape:window-maximized="1" />
  <metadata
     id="metadata5">
    <rdf:RDF>
      <cc:Work
         rdf:about="">
        <dc:format>image/svg+xml</dc:format>
        <dc:type
           rdf:resource="http://purl.org/dc/dcmitype/StillImage" />
        <dc:title />
      </cc:Work>
    </rdf:RDF>
  </metadata>
  <g
     inkscape:label="Layer 1"
     inkscape:groupmode="layer"
     id="layer1">
    <rect
       style="fill:#00ffff;stroke-width:0.26458332"
       id="rect10"
       width="41.426773"
       height="40.357697"
       x="87.397133"
       y="127.81838" />
    <ellipse
       style="fill:#00ffff;stroke-width:0.26458332"
       id="path14"
       cx="47.841244"
       cy="126.48204"
       rx="5.8799295"
       ry="5.6126599" />
    <ellipse
       style="fill:#00ffff;stroke-width:0.26458332"
       id="path16"
       cx="51.983921"
       cy="149.19995"
       rx="6.5481033"
       ry="4.8108511" />
    <ellipse
       style="fill:#00ffff;stroke-width:0.26458332"
       id="path18"
       cx="53.58754"
       cy="173.2542"
       rx="6.5481033"
       ry="5.0781207" />
    <path
       style="fill:none;stroke:#000000;stroke-width:0.26458332px;stroke-linecap:butt;stroke-linejoin:miter;stroke-opacity:1"
       d="m 51.583018,127.01658 c 1.620022,-0.27 1.614405,-0.62533 2.939965,0.53454 0.335235,0.29333 0.44545,0.80181 0.801809,1.06908 0.38381,0.28785 0.916959,0.30154 1.336347,0.53454 0.389393,0.21632 0.691338,0.56571 1.069078,0.8018 0.337863,0.21117 0.712719,0.35636 1.069078,0.53454 0.35636,0.17818 0.712719,0.35636 1.069078,0.53454 0.178181,0.0891 0.345552,0.20427 0.534541,0.26727 0.348475,0.11616 0.7206,0.15111 1.069078,0.26727 1.935943,0.64531 -0.421381,-0.077 0.801806,0.53454 0.251984,0.12599 0.549826,0.14128 0.80181,0.26727 0.287305,0.14365 0.526367,0.36927 0.801809,0.53454 0.716939,0.43016 0.443957,0.15208 1.336347,0.53454 1.801746,0.77217 0.377965,0.32262 2.405425,1.33635 0.429114,0.21455 0.890899,0.35635 1.336349,0.53454 0.890897,0.35635 1.795867,0.67937 2.672694,1.06907 1.397098,0.62094 0.820886,0.5409 2.405428,1.06908 0.348474,0.11616 0.725138,0.13829 1.069078,0.26727 0.373051,0.1399 0.702868,0.37759 1.069078,0.53454 0.258947,0.11098 0.542858,0.15629 0.801806,0.26727 0.732417,0.31389 1.398307,0.77314 2.138156,1.06908 1.046308,0.41852 2.184048,0.59683 3.207234,1.06908 3.928558,2.24488 -0.04091,0.13885 3.474506,1.60361 0.551662,0.22986 1.036653,0.61282 1.603616,0.80181 0.514104,0.17137 1.070446,0.17033 1.603618,0.26727 0.446942,0.0813 0.899554,0.14247 1.336347,0.26727 0.191545,0.0547 0.345551,0.20427 0.53454,0.26727 0.209119,0.0697 0.534538,-0.11187 0.534538,0 0,0.0891 -0.267269,-0.0891 -0.267269,0 0,0.12599 0.267269,0.14128 0.267269,0.26727 0,0.0891 -0.178178,0 -0.267269,0 -0.178181,0 -0.356359,0 -0.53454,0 -0.142777,0 -1.259853,-0.0382 -1.336347,0 -0.112691,0.0563 -0.178178,0.17818 -0.267269,0.26727"
       id="path20"
       inkscape:connector-curvature="0" />
    <path
       style="fill:none;stroke:#000000;stroke-width:0.26458332px;stroke-linecap:butt;stroke-linejoin:miter;stroke-opacity:1"
       d="m 57.195677,150.5363 c 0.354015,-0.56346 0.91376,0.14086 1.336349,0 1.935943,-0.64532 -0.42138,0.077 0.80181,-0.53454 0.07215,-0.0361 2.368761,0 2.405425,0 1.514528,0 3.029053,0 4.543581,0 0.44545,0 0.890899,0 1.336347,0 0.356359,0 0.716301,0.0504 1.069078,0 0.278897,-0.0398 0.528494,-0.19894 0.801809,-0.26727 0.08643,-0.0216 0.187587,0.0398 0.267269,0 0.112691,-0.0563 0.15458,-0.21093 0.267271,-0.26727 0.159369,-0.0797 0.365504,0.0563 0.534538,0 0.188989,-0.063 0.356359,-0.17818 0.53454,-0.26727 0.623628,-0.26727 1.215308,-0.62699 1.870885,-0.80181 2.596777,-0.69247 1.409591,-0.0378 3.474505,-0.26727 0.36508,-0.0406 0.710499,-0.18758 1.069079,-0.26727 0.443452,-0.0985 0.884853,-0.2171 1.336346,-0.26727 0.35418,-0.0393 0.714489,0.0355 1.069078,0 0.397145,-0.0397 2.459205,-0.41435 2.939966,-0.53454 0.273314,-0.0683 0.528492,-0.19894 0.801809,-0.26727 0.08643,-0.0216 0.187584,0.0399 0.267269,0 0.112691,-0.0563 0.153405,-0.21333 0.267269,-0.26727 1.585939,-0.75123 3.207234,-1.42543 4.81085,-2.13815"
       id="path22"
       inkscape:connector-curvature="0" />
    <path
       style="fill:none;stroke:#000000;stroke-width:0.26458332px;stroke-linecap:butt;stroke-linejoin:miter;stroke-opacity:1"
       d="m 59.066564,171.38332 c 0.88687,-0.15764 1.592493,-0.7439 2.405428,-1.06908 0.261575,-0.10463 0.540231,-0.16264 0.801806,-0.26727 0.184963,-0.074 0.349578,-0.19328 0.534541,-0.26727 0.261575,-0.10463 0.562903,-0.11795 0.801809,-0.26727 2.012188,-1.25761 0.819616,-1.04166 2.939963,-2.67269 0.569314,-0.43794 1.254979,-0.69954 1.870887,-1.06908 1.88886,-1.13332 -0.422635,0.0777 1.870887,-1.06908 0.356359,-0.17818 0.75034,-0.29548 1.069078,-0.53454 2.089113,-1.56683 0.144375,-0.61704 1.870887,-1.60362 0.345927,-0.19767 0.712719,-0.35636 1.069078,-0.53453 0.178179,-0.0891 0.345551,-0.20428 0.534538,-0.26727 0.169037,-0.0563 0.375171,0.0797 0.53454,0 0.112692,-0.0563 0.178179,-0.17818 0.267269,-0.26727 1.979719,-1.97972 -0.702823,0.75122 2.138156,-2.40543 0.337138,-0.3746 0.681919,-0.74644 1.069078,-1.06908 0.153038,-0.12753 0.368787,-0.15676 0.534541,-0.26727 0.370636,-0.24709 0.721241,-0.52353 1.069078,-0.8018 0.543338,-0.43468 1.040887,-0.92709 1.603616,-1.33635 2.444884,-1.7781 0.373353,-0.18668 2.138156,-1.06908 0.112691,-0.0564 0.178181,-0.17818 0.267269,-0.26727 0.267271,-0.26727 0.55291,-0.51735 0.801809,-0.80181 0.375647,-0.42931 0.703884,-0.89811 1.069078,-1.33634 0.161316,-0.19358 0.421849,-0.30916 0.53454,-0.53455 0.03984,-0.0797 -0.02817,-0.18275 0,-0.26726 0.063,-0.18899 0.204272,-0.34556 0.267269,-0.53454 0.02817,-0.0845 -0.08909,-0.26727 0,-0.26727 0.08909,0 0,0.17818 0,0.26727"
       id="path26"
       inkscape:connector-curvature="0" />
    <path
       sodipodi:type="star"
       style="fill:#00ffff;stroke-width:0.26458332"
       id="path28"
       sodipodi:sides="5"
       sodipodi:cx="167.31071"
       sodipodi:cy="111.51495"
       sodipodi:r1="13.578239"
       sodipodi:r2="6.7891192"
       sodipodi:arg1="1.7488893"
       sodipodi:arg2="2.3772078"
       inkscape:flatsided="false"
       inkscape:rounded="0"
       inkscape:randomized="0"
       d="m 164.90529,124.87843 -2.49502,-8.66477 -8.55229,-2.85686 7.46968,-5.05046 0.0742,-9.01654 7.11154,5.54342 8.59817,-2.71567 -3.07452,8.47648 5.23974,7.33816 -9.01169,-0.30466 z"
       inkscape:transform-center-x="0.74331953"
       inkscape:transform-center-y="0.56916014" />
    <path
       sodipodi:type="star"
       style="fill:#00ffff;stroke-width:0.26458332"
       id="path30"
       sodipodi:sides="5"
       sodipodi:cx="168.37981"
       sodipodi:cy="155.61443"
       sodipodi:r1="15.337172"
       sodipodi:r2="7.6685867"
       sodipodi:arg1="1.1773457"
       sodipodi:arg2="1.8056642"
       inkscape:flatsided="false"
       inkscape:rounded="0"
       inkscape:randomized="0"
       d="m 174.25974,169.77971 -7.66452,-6.70724 -9.8704,2.51141 4.01049,-9.36204 -5.43861,-8.61123 10.14314,0.92117 6.50915,-7.83345 2.25831,9.93137 9.46149,3.76989 -8.74743,5.21675 z"
       inkscape:transform-center-x="-1.1029359"
       inkscape:transform-center-y="-0.37540556" />
    <path
       style="fill:none;stroke:#000000;stroke-width:0.26458332px;stroke-linecap:butt;stroke-linejoin:miter;stroke-opacity:1"
       d="m 128.82391,143.85456 c 0.0456,-1.76653 1.29987,-0.3442 1.87089,-0.53454 0.18899,-0.063 0.37517,-0.14774 0.53454,-0.26727 0.20158,-0.15119 0.35636,-0.35636 0.53453,-0.53454 0.44545,-0.44545 0.8909,-0.8909 1.33635,-1.33635 0.26727,-0.26727 0.49424,-0.58211 0.80181,-0.80181 0.32421,-0.23157 0.73122,-0.32337 1.06908,-0.53453 0.37774,-0.23609 0.7066,-0.5429 1.06908,-0.80181 0.26138,-0.18671 0.54483,-0.34181 0.80181,-0.53454 0.45636,-0.34227 0.86901,-0.74195 1.33635,-1.06908 1.92493,-1.34745 0.74359,-0.21876 2.40542,-1.60362 0.67475,-0.56228 1.19614,-1.30859 1.87089,-1.87088 0.437,-0.36418 1.02532,-0.5507 1.33634,-1.06908 0.14495,-0.24158 0.14128,-0.54982 0.26727,-0.80181 0.0564,-0.11269 0.19738,-0.16244 0.26727,-0.26727 0.83273,-1.2491 -0.52337,0.32013 0.80181,-1.33635 0.31367,-0.39208 0.74773,-0.68345 1.06908,-1.06908 0.3652,-0.43823 0.69343,-0.90703 1.06908,-1.33634 0.57279,-0.65463 1.25438,-1.25439 1.87088,-1.87089 0.53454,-0.53454 1.06908,-1.06908 1.60362,-1.60362 0.17818,-0.17818 0.35636,-0.35636 0.53454,-0.53454 0.0891,-0.0891 0.16244,-0.19738 0.26727,-0.26726 0.16575,-0.11051 0.36879,-0.15677 0.53454,-0.26728 0.86554,-0.57703 -0.11123,0.0332 0.26727,-0.53453 0.0893,-0.13388 1.45678,-1.49349 1.60362,-1.60362 0.15936,-0.11953 0.36878,-0.15677 0.53453,-0.26727 0.86046,-0.57364 1.03419,-0.85823 1.87089,-1.33635 0.86213,-0.49265 1.82133,-0.82553 2.6727,-1.33635 0.27544,-0.16526 0.54483,-0.3418 0.8018,-0.53453 0.20159,-0.1512 0.30916,-0.42185 0.53455,-0.53455 0.0797,-0.0398 0.17817,0 0.26726,0 0.59377,-0.39373 1.18753,-0.78747 1.78129,-1.18121"
       id="path32"
       inkscape:connector-curvature="0" />
    <path
       style="fill:none;stroke:#000000;stroke-width:0.26458332px;stroke-linecap:butt;stroke-linejoin:miter;stroke-opacity:1"
       d="m 128.82391,143.85456 c 0.53454,0.80181 0.96905,1.6802 1.60362,2.40542 0.083,0.0948 0.14504,-0.23671 0.26727,-0.26726 0.25929,-0.0648 0.54252,-0.0648 0.80181,0 1.75065,0.43766 1.08235,0.71714 2.93996,1.33634 0.5141,0.17137 1.09328,0.085 1.60362,0.26727 0.75042,0.26801 1.38773,0.80107 2.13816,1.06908 0.51034,0.18227 1.07558,0.14541 1.60361,0.26727 1.12016,0.2585 2.37844,0.70372 3.4745,1.06908 0.26728,0.0891 0.52556,0.21202 0.80181,0.26727 0.26208,0.0524 0.53454,0 0.80181,0 0.76874,0 1.37187,-0.0201 2.13816,0.26727 0.37305,0.13989 0.71272,0.35636 1.06908,0.53454 0.35636,0.17818 0.72315,0.33686 1.06907,0.53453 0.2789,0.15937 0.51451,0.39089 0.80181,0.53455 2.33971,1.16985 0.36383,0.0362 2.40543,0.8018 0.37305,0.1399 0.68598,0.42509 1.06908,0.53454 1.51996,0 0.17596,-0.11953 1.33634,0.26727 0.20912,0.0697 0.53454,-0.11187 0.53454,0 0,0.0891 -0.35636,0 -0.26726,0 0.17817,0 0.38628,-0.0988 0.53453,0 0.16576,0.1105 0.12641,0.39368 0.26727,0.53454 0.14087,0.14086 0.39368,0.12641 0.53454,0.26727 0.063,0.063 -0.0797,0.22743 0,0.26727 0.15937,0.0797 0.37517,-0.0797 0.53454,0 0.45076,0.22538 0.64975,0.78953 1.06908,1.06908 0.0741,0.0494 0.17818,0 0.26727,0 0.17818,0 0.3655,-0.0563 0.53454,0 0.11953,0.0398 0.15458,0.21092 0.26727,0.26727 0.0797,0.0398 0.17826,-0.004 0.26727,0 0.48107,0.0205 0.96178,0.0486 1.44267,0.0729"
       id="path34"
       inkscape:connector-curvature="0" />
    <path
       style="fill:none;stroke:#000000;stroke-width:0.26458332px;stroke-linecap:butt;stroke-linejoin:miter;stroke-opacity:1"
       d="m 91.673446,107.77317 c 0,0.97999 0,1.95998 0,2.93997 0,0.53454 -0.03808,1.07044 0,1.60362 0.05118,0.71643 0.222467,1.42128 0.267272,2.13815 0.04446,0.71133 -0.05078,1.42725 0,2.13816 0.03861,0.54053 0.213346,1.06439 0.267268,1.60361 0.03546,0.3546 0,0.71272 0,1.06908 0,0.17818 0.05635,0.70358 0,0.53454 -0.11616,-0.34848 -0.151111,-0.7206 -0.267268,-1.06908 -0.063,-0.18898 -0.188799,-0.35143 -0.267272,-0.53454 -0.188987,-0.44097 -0.382823,-0.8812 -0.534538,-1.33634 -0.11616,-0.34848 -0.178181,-0.71272 -0.267269,-1.06908 -0.377446,-1.50979 -0.19523,-0.70889 -0.53454,-2.40543"
       id="path36"
       inkscape:connector-curvature="0" />
    <path
       style="fill:none;stroke:#000000;stroke-width:0.26458332px;stroke-linecap:butt;stroke-linejoin:miter;stroke-opacity:1"
       d="m 91.673446,107.77317 c 0,-0.97999 -0.175305,-1.97578 0,-2.93996 0.03187,-0.17531 0.356359,0 0.53454,0 0.623629,0 1.247257,0 1.870888,0 0.267268,0 0.548253,-0.0845 0.801806,0 0.119528,0.0398 0.178181,0.17818 0.267272,0.26727 0.178178,0.17818 0.356359,0.35636 0.534537,0.53454 0.178181,0.17818 0.394764,0.32487 0.534541,0.53454 0.1105,0.16575 0.156765,0.36878 0.267269,0.53453 0.06989,0.10484 0.178178,0.17819 0.267268,0.26728 0.08909,0.17817 0.164778,0.36371 0.267269,0.53453 0.08096,0.13494 0.740715,1.03088 0.801809,1.33635 0.107559,0.53779 -0.083,1.41022 -0.267268,1.87089 -0.04679,0.11698 -0.178181,0.17818 -0.267269,0.26727 -0.08909,0.0891 -0.15458,0.21092 -0.267272,0.26727 -0.213815,0.10691 -0.587991,-0.10691 -0.801806,0 -0.225383,0.11269 -0.324877,0.39476 -0.534541,0.53454 -0.165753,0.1105 -0.356359,0.17818 -0.534537,0.26726 -0.178181,0.0891 -0.345551,0.20428 -0.534541,0.26728 -0.169037,0.0563 -0.365503,-0.0564 -0.534537,0 -0.18899,0.063 -0.345552,0.20427 -0.534541,0.26726 -0.08452,0.0282 -0.187584,-0.0398 -0.267269,0 -0.225382,0.1127 -0.309157,0.42185 -0.53454,0.53454 -0.07968,0.0399 -0.187584,-0.0398 -0.267269,0 -0.112691,0.0563 -0.162438,0.19738 -0.267269,0.26727 -0.165753,0.1105 -0.356359,0.17818 -0.53454,0.26727 -0.387982,0.19399 -1.126831,0.53454 -0.801807,0.53454 0.199211,0 0.345549,-0.20427 0.534538,-0.26727 0.08452,-0.0282 0.178181,0 0.267269,0 0.267272,0 0.53454,0 0.801809,0 0.655495,0 1.423003,-0.0626 1.870887,0.53454 0.192731,0.25698 0.375169,0.52291 0.534538,0.80181 0.01463,0.0256 0.435041,1.15296 0.801809,1.33635 0.251984,0.12599 0.560232,0.12232 0.80181,0.26727 0.216074,0.12964 0.356359,0.35636 0.534537,0.53453 0.178181,0.17819 0.35636,0.35636 0.534541,0.53455 0.08909,0.0891 0.178178,0.17817 0.267268,0.26726 0.08909,0.0891 0.227428,0.14775 0.267269,0.26727 0.143653,0.43096 0.107765,0.91101 0.267272,1.33635 0.54021,1.44056 0.332592,0.36525 0.801806,1.06908 0.647232,0.97084 -0.07826,0.189 0.534541,0.80181"
       id="path38"
       inkscape:connector-curvature="0" />
    <path
       style="fill:none;stroke:#000000;stroke-width:0.26458332px;stroke-linecap:butt;stroke-linejoin:miter;stroke-opacity:1"
       d="m 106.106,119.8003 c 0.17818,0.35636 0.38657,0.69915 0.53454,1.06908 0.0331,0.0827 -0.0891,0.26727 0,0.26727 0.0891,0 0,-0.17817 0,-0.26727 0,-0.0891 0,-0.17817 0,-0.26727 0,-0.8909 0,-1.7818 0,-2.67269 0,-4.09814 0,-8.19627 0,-12.2944 0.52899,1.3816 1.2111,2.68946 1.87089,4.00904 0.26727,0.53454 0.61282,1.03665 0.80181,1.60362 0.0845,0.25355 -0.0524,0.53973 0,0.80181 0.0391,0.19534 0.20427,0.34555 0.26727,0.53454 0.11616,0.34847 0.14173,0.72386 0.26727,1.06907 0.23186,0.63764 0.58725,1.22722 0.8018,1.87089 0.0563,0.16904 -0.0563,0.3655 0,0.53454 0.0797,0.23905 0.42185,0.30916 0.53454,0.53454 0.126,0.25198 0.14128,0.54982 0.26727,0.80181 0.0563,0.11269 0.15458,0.21092 0.26727,0.26727 0.40064,0.20032 0.40117,-0.46759 0.80181,-0.26727 0.66053,0.33026 -0.0923,0.26727 0.53454,0.26727 0.0891,0 0.17818,0 0.26727,0 0.0891,0 0.25467,-0.0882 0.26727,0 0.0882,0.61736 0,1.24725 0,1.87088 0,1.24726 0,2.49452 0,3.74178 0,0.17818 0,0.35636 0,0.53454 0,0.17818 0.0432,0.36168 0,0.53454 -0.0483,0.19326 -0.15677,0.36878 -0.26727,0.53453 -0.0699,0.10484 -0.26727,0.14128 -0.26727,0.26727 0,0.0891 0.18759,0.0399 0.26727,0 0.11269,-0.0563 0.15458,-0.21092 0.26727,-0.26727 0.0797,-0.0398 0.18758,0.0399 0.26727,0 0.11269,-0.0563 0.17818,-0.17818 0.26727,-0.26727 0.0891,-0.0891 0.25164,-0.14225 0.26727,-0.26726 0.085,-0.68028 0,-1.63251 0,-2.40543 0,-0.35636 0,-0.71272 0,-1.06908 0,-0.35636 0.0699,-0.71964 0,-1.06908 -0.0494,-0.24709 -0.48512,-0.28745 -0.53454,-0.53454 -0.0699,-0.34943 0,-0.71271 0,-1.06907 0,-0.0891 0.0398,-0.18759 0,-0.26727 -0.0563,-0.11269 -0.25336,-0.14205 -0.26727,-0.26727 -0.0787,-0.70836 0,-1.42544 0,-2.13816 0,-0.35636 0.0442,-0.71547 0,-1.06908 -0.41022,-3.28175 -0.0751,1.27014 -0.53454,-2.40542 -0.0331,-0.26521 0,-0.53454 0,-0.80181 0,-0.53454 0,-1.06908 0,-1.60362 0,-0.17818 0.0293,-0.35878 0,-0.53454 -0.0604,-0.36233 -0.26727,-0.70175 -0.26727,-1.06908 0,-0.51484 0.53561,-0.002 0.80181,-0.53454 0.0398,-0.0797 -0.0398,-0.18758 0,-0.26726 0.0563,-0.1127 0.21092,-0.15458 0.26727,-0.26727 0.0483,-0.0967 0,-1.15046 0,-1.33635 0,-0.0891 0,-0.17818 0,-0.26727 0,-0.0891 -0.0891,-0.26727 0,-0.26727 0.0891,0 0.063,0.20427 0,0.26727 -0.063,0.063 -0.17818,0 -0.26727,0 -0.0891,0 -0.17818,0 -0.26727,0"
       id="path40"
       inkscape:connector-curvature="0" />
    <path
       style="fill:none;stroke:#000000;stroke-width:0.26458332px;stroke-linecap:butt;stroke-linejoin:miter;stroke-opacity:1"
       d="m 87.397131,168.17608 c 0.267272,2.22725 0.8641,4.43938 0.801812,6.68174 -0.02895,1.04237 -0.674251,1.97484 -1.069078,2.93997 -1.08943,2.66305 -1.668558,3.77095 -3.474503,6.1472 -0.918001,1.20789 -2.066859,2.23377 -2.939965,3.4745 -0.826715,1.17481 -1.350899,2.54017 -2.138156,3.74178 -2.502467,3.81955 -2.418789,3.30662 -4.810853,6.14719 -0.815607,0.96854 -1.571622,1.98705 -2.405425,2.93997 -0.414832,0.47409 -0.91259,0.87021 -1.336347,1.33635 -0.468056,0.51486 -0.868294,1.08875 -1.336349,1.60361 -1.142725,1.257 -1.609707,1.56415 -2.939963,2.6727 -0.53454,0.44545 -1.040889,0.92709 -1.603618,1.33635 -0.44545,0.26727 -0.890897,0.53453 -1.336347,0.80181 -0.35636,0.0891 -0.75015,0.085 -1.069078,0.26726 -2.802856,1.60164 0.899779,0.23462 -1.603619,1.06908"
       id="path44"
       inkscape:connector-curvature="0" />
    <path
       style="fill:none;stroke:#000000;stroke-width:0.26458332px;stroke-linecap:butt;stroke-linejoin:miter;stroke-opacity:1"
       d="m 128.82391,168.17608 c 0,2.04907 -0.21084,4.10901 0,6.14721 0.0492,0.47516 1.35049,2.4759 1.60362,2.93996 0.28618,0.52466 0.50068,1.08739 0.80181,1.60362 0.3237,0.55492 0.70066,1.07731 1.06907,1.60361 0.25545,0.36493 0.58549,0.67969 0.80181,1.06908 0.233,0.41939 0.26842,0.93716 0.53454,1.33635 0.27955,0.41933 0.75967,0.67127 1.06908,1.06908 0.31893,0.41005 0.50391,0.91077 0.80181,1.33634 0.5002,0.71457 1.92797,2.31928 2.40542,2.93997 0.46727,0.60745 0.8272,1.29809 1.33635,1.87089 0.21341,0.24008 0.55504,0.3289 0.80181,0.53454 1.3886,1.15717 0.18166,0.48317 1.60362,1.33634 0.17082,0.1025 0.34957,0.19329 0.53454,0.26727 0.26157,0.10463 0.56023,0.12233 0.80181,0.26727 0.21607,0.12965 0.33295,0.38335 0.53454,0.53454 0.15936,0.11953 0.37516,0.14774 0.53453,0.26727 0.40318,0.30238 0.65898,0.77615 1.06908,1.06908 0.42272,0.30194 0.91363,0.49987 1.33635,0.80181 0.20505,0.14646 0.35636,0.35636 0.53454,0.53454 0.82883,0.82883 1.15665,1.25744 2.13815,1.87088 0.33787,0.21117 0.71272,0.35636 1.06908,0.53454 0.35636,0.17818 0.69603,0.39465 1.06908,0.53454 0.34394,0.12898 0.7206,0.15111 1.06908,0.26727 0.37797,0.12599 0.6911,0.40855 1.06908,0.53454 0.0845,0.0282 0.19314,-0.0494 0.26727,0 0.20966,0.13978 0.32487,0.39476 0.53454,0.53454 0.14825,0.0988 0.39199,-0.10691 0.53453,0 0.30239,0.22678 0.61825,0.4714 0.80181,0.80181 0.036,0.0647 0.48111,1.71055 0.80181,2.13815 0.15119,0.20159 0.38335,0.33296 0.53454,0.53454 0.23905,0.31874 0.32955,0.72744 0.53454,1.06908 0.16526,0.27544 0.37517,0.52291 0.53454,0.80181 0.19767,0.34593 0.31353,0.73757 0.53454,1.06908 0.13977,0.20966 0.39476,0.32487 0.53454,0.53454 0.221,0.3315 0.32955,0.72743 0.53454,1.06908 0.12964,0.21607 0.35636,0.35635 0.53453,0.53453"
       id="path46"
       inkscape:connector-curvature="0" />
    <path
       style="fill:none;stroke:#000000;stroke-width:0.26458332px;stroke-linecap:butt;stroke-linejoin:miter;stroke-opacity:1"
       d="m 101.56242,211.47375 c -1.30813,0.65406 -0.67066,0.53454 -1.870887,0.53454 -0.178181,0 -0.365504,-0.0563 -0.534541,0 -0.239051,0.0797 -0.315753,0.40952 -0.534537,0.53454 -1.88758,1.07861 -1.210826,0.38539 -2.672697,1.60361 -0.19358,0.16132 -0.356359,0.35636 -0.534537,0.53454 -0.08909,0.0891 -0.210924,0.15458 -0.267269,0.26727 -0.03984,0.0797 0,0.17818 0,0.26727 0,0.26727 -0.05242,0.53973 0,0.80181 0.06109,0.30547 0.720846,1.20141 0.801806,1.33635 0.569942,0.9499 -0.1139,0.15336 0.801809,1.06908 0.08909,0.0891 0.154581,0.21092 0.267269,0.26727 0.07969,0.0398 0.187587,-0.0399 0.267272,0 0.112688,0.0563 0.154577,0.21092 0.267269,0.26726 0.159369,0.0797 0.365503,-0.0563 0.534537,0 0.18899,0.063 0.345551,0.20428 0.534541,0.26727 0.08452,0.0282 0.187584,-0.0398 0.267269,0 0.112691,0.0564 0.162438,0.19739 0.267268,0.26728 0.165754,0.1105 0.35636,0.17817 0.534541,0.26726 0.178178,0.0891 0.345547,0.20428 0.534537,0.26727 0.0845,0.0282 0.17818,0 0.26727,0 0.24091,0 1.16813,-0.0561 1.33635,0 0.18899,0.063 0.35636,0.17818 0.53454,0.26727 0.35636,0.17818 0.6911,0.40855 1.06908,0.53454 0.0988,0.0329 1.53448,0.0346 1.60361,0 0.11269,-0.0563 0.22743,-0.14774 0.26727,-0.26727 0.0563,-0.16903 0,-0.35636 0,-0.53454 0,-0.44545 0,-0.89089 0,-1.33634 0,-0.53454 0,-1.06908 0,-1.60362 0,-0.26727 0,-0.53454 0,-0.80181 0,-0.0891 0.0399,-0.18759 0,-0.26727 -0.14365,-0.28731 -0.36927,-0.52637 -0.53454,-0.80181 -0.10249,-0.17082 -0.15676,-0.36878 -0.26726,-0.53454 -0.0699,-0.10483 -0.17819,-0.17818 -0.26728,-0.26727 -0.17817,-0.17818 -0.35636,-0.35636 -0.53453,-0.53454 -0.0891,-0.0891 -0.17818,-0.17818 -0.26727,-0.26727 -0.0891,-0.0891 -0.15458,-0.21092 -0.26727,-0.26726 -0.014,-0.007 -0.78783,-0.007 -0.80181,0 -0.11269,0.0563 -0.17818,0.17817 -0.26727,0.26726"
       id="path48"
       inkscape:connector-curvature="0" />
    <path
       style="fill:none;stroke:#000000;stroke-width:0.26458332px;stroke-linecap:butt;stroke-linejoin:miter;stroke-opacity:1"
       d="m 101.56242,229.91535 c -1.43767,-0.7103 -2.034077,1.53423 -2.939965,2.13815 -0.165754,0.1105 -0.393677,0.12641 -0.534541,0.26727 -0.474546,0.47455 -0.267269,1.49793 -0.267269,2.13816 0,0.26727 0,0.53454 0,0.80181 0,0.26727 -0.06482,0.54251 0,0.8018 0.03056,0.12224 0.210926,0.15458 0.267269,0.26727 0.295445,0.59089 0.267272,0.61351 0.267272,1.06908 0,0.17818 -0.05635,0.36551 0,0.53454 0.06299,0.18899 0.204271,0.34555 0.267269,0.53454 0.02817,0.0845 0,0.17818 0,0.26727 0,0.17818 0,0.35636 0,0.53454 0,0.17818 -0.04322,0.36168 0,0.53454 0.04832,0.19326 0.204274,0.34555 0.267269,0.53454 0.07171,0.21512 -0.0854,0.89829 0,1.06908 0.04043,0.0809 0.988216,1.02864 1.069078,1.06907 0.075,0.0375 0.994078,0.0375 1.069078,0 0.11269,-0.0563 0.14774,-0.22742 0.26727,-0.26727 0.16904,-0.0563 0.3655,0.0563 0.53454,0 0.11952,-0.0398 0.14774,-0.22742 0.26727,-0.26727 0.16903,-0.0563 0.36168,0.0432 0.53454,0 0.19326,-0.0483 0.34555,-0.20427 0.53454,-0.26726 0.21512,-0.0717 0.89828,0.0854 1.06907,0 0.1127,-0.0563 0.15458,-0.21093 0.26728,-0.26727 0.16798,-0.084 0.90109,0.084 1.06907,0 0.11269,-0.0564 0.15458,-0.21093 0.26727,-0.26728 0.24927,-0.12463 0.40791,0.23926 0.53454,-0.26726 0.15279,-0.61115 0.11448,-1.25974 0.26727,-1.87089 0.0306,-0.12223 0.22743,-0.14774 0.26727,-0.26727 0.33623,-1.0087 0.26727,-1.90777 0.26727,-2.93997 0,-0.35635 0.0864,-0.72335 0,-1.06907 -0.0306,-0.12223 -0.17818,-0.17818 -0.26727,-0.26727 -0.0891,-0.0891 -0.17818,-0.17818 -0.26727,-0.26727 -0.35636,-0.35636 -0.71272,-0.71272 -1.06908,-1.06908 -0.22463,-0.22463 -1.43042,-1.51702 -1.60362,-1.60362 -0.0703,-0.0351 -0.92931,0 -1.06907,0"
       id="path50"
       inkscape:connector-curvature="0" />
    <path
       style="fill:none;stroke:#000000;stroke-width:0.26458332px;stroke-linecap:butt;stroke-linejoin:miter;stroke-opacity:1"
       d="m 101.29515,250.4951 c -1.15474,0.68073 -2.095327,1.66415 -3.207236,2.40543 -0.165753,0.1105 -0.368784,0.15676 -0.534537,0.26726 -0.104834,0.0699 -0.178181,0.17818 -0.267269,0.26727 -0.08909,0.0891 -0.210926,0.15458 -0.267272,0.26727 -0.03984,0.0797 0,0.17818 0,0.26727 0,0.62363 0,1.24726 0,1.87089 0,0.71272 0,1.42544 0,2.13815 0,0.26728 -0.08452,0.54826 0,0.80181 0.125992,0.37798 0.329555,0.72744 0.534541,1.06908 0.06482,0.10804 0.178178,0.17818 0.267268,0.26727 0.178181,0.17818 0.35636,0.35636 0.534541,0.53454 0.445447,0.44545 0.890897,0.8909 1.336347,1.33635 0.356357,0.35636 0.712717,0.71272 1.069077,1.06908 0.17818,0.17818 0.32488,0.39476 0.53454,0.53454 0.0741,0.0494 0.18759,-0.0399 0.26727,0 0.28731,0.14365 0.5145,0.39088 0.80181,0.53453 0.15937,0.0797 0.3655,-0.0563 0.53454,0 0.18899,0.063 0.34127,0.21896 0.53454,0.26727 0.17285,0.0432 0.3655,-0.0563 0.53453,0 0.11953,0.0399 0.14775,0.22742 0.26727,0.26727 0.29622,0.0987 1.339,-0.10585 1.60362,0 0.29825,0.1193 0.5145,0.39089 0.80181,0.53453 0.0298,0.0148 1.30652,0.0148 1.33635,0 0.69795,-0.34895 1.31118,-0.87251 1.60361,-1.6036 0.10464,-0.26158 0.16264,-0.54023 0.26728,-0.80181 0.0891,-0.17818 0.17817,-0.35636 0.26726,-0.53454 0.0891,-0.0891 0.21093,-0.15458 0.26727,-0.26727 0.0399,-0.0797 0,-0.17818 0,-0.26727 0,-0.44545 0,-0.8909 0,-1.33635 0,-0.26727 0,-0.53454 0,-0.80181 0,-0.0891 0.0175,-0.17991 0,-0.26727 -0.072,-0.36019 -0.17818,-0.71271 -0.26727,-1.06907 -0.13562,-0.54251 -0.30448,-1.33409 -0.53454,-1.87089 -0.15694,-0.36621 -0.37272,-0.705 -0.53453,-1.06908 -0.19485,-0.43841 -0.31999,-0.90723 -0.53454,-1.33635 -0.14366,-0.2873 -0.37517,-0.52291 -0.53454,-0.80181 -1.14676,-2.29352 0.0642,0.018 -1.06908,-1.87088 -0.96893,-1.93786 0.28173,0.42259 -0.53454,-0.80181 -0.1105,-0.16576 -0.0823,-0.46055 -0.26727,-0.53454 -0.33087,-0.13235 -0.7163,0.0504 -1.06908,0 -2.06809,-0.29544 -0.14637,-0.26727 -1.06908,-0.26727"
       id="path52"
       inkscape:connector-curvature="0" />
    <path
       style="fill:none;stroke:#000000;stroke-width:0.26458332px;stroke-linecap:butt;stroke-linejoin:miter;stroke-opacity:1"
       d="m 135.77292,227.77719 c -0.0891,0.44545 -0.0883,0.91881 -0.26727,1.33635 -0.4835,1.12817 -0.40773,0.20386 -1.06908,0.53454 -0.0797,0.0398 0.063,0.20427 0,0.26727 -0.14086,0.14086 -0.44545,0.0891 -0.53454,0.26727 -0.11953,0.23905 0.0648,0.54251 0,0.8018 -0.0306,0.12223 -0.22047,0.15029 -0.26727,0.26727 -0.34253,0.85634 -0.14579,1.09339 -0.53454,1.87089 -0.41174,0.8235 -0.75763,-0.71346 0.26727,1.33635 0.0891,0.17818 0.14283,0.37898 0.26727,0.53454 0.39353,0.49191 0.8909,0.8909 1.33635,1.33634 0.66723,0.66723 1.23142,1.24093 2.13816,1.60362 0.26157,0.10463 0.54023,0.16264 0.8018,0.26727 0.18497,0.074 0.34555,0.20427 0.53454,0.26727 0.34848,0.11616 0.73146,0.12257 1.06908,0.26727 0.29525,0.12653 0.50657,0.40801 0.80181,0.53454 0.33763,0.1447 0.73145,0.12257 1.06908,0.26727 0.29525,0.12653 0.50356,0.41524 0.80181,0.53454 0.16543,0.0662 0.35636,0 0.53454,0 0.26727,0 0.53453,0 0.80181,0 0.12036,0 0.72046,0.0407 0.8018,0 0.30641,-0.1532 0.37178,-0.55766 0.53454,-0.80181 1.01563,-1.52344 0.80181,-0.48821 0.80181,-2.13816 0,-0.71272 0,-1.42544 0,-2.13815 0,-0.26727 0.0993,-0.55366 0,-0.80181 -0.0936,-0.23396 -0.37713,-0.33777 -0.53454,-0.53454 -0.20066,-0.25083 -0.33387,-0.55098 -0.53454,-0.80181 -0.0542,-0.0678 -1.00401,-0.93895 -1.06907,-1.06908 -0.0399,-0.0797 0.0494,-0.19314 0,-0.26727 -0.53454,-0.80181 -0.40091,-0.26727 -0.80181,-0.80181 -1.11631,-1.4884 0.13044,-0.13682 -1.33635,-1.60361 -0.008,-0.008 -0.96113,-1.01511 -1.06908,-1.06908 -0.0797,-0.0398 -0.17818,0 -0.26727,0"
       id="path54"
       inkscape:connector-curvature="0" />
    <path
       style="fill:none;stroke:#000000;stroke-width:0.26458332px;stroke-linecap:butt;stroke-linejoin:miter;stroke-opacity:1"
       d="m 139.24742,248.35694 c -1.15817,1.15817 -2.31633,2.31634 -3.4745,3.47451 -0.0891,0.0891 -0.23266,0.14612 -0.26727,0.26727 -0.14888,0.52106 -0.14542,1.07558 -0.26727,1.60361 -0.14584,0.63198 -0.32944,1.25559 -0.53454,1.87089 -0.063,0.18899 -0.2282,0.3392 -0.26727,0.53454 -0.0524,0.26208 0.0378,0.53722 0,0.80181 -0.53048,3.71339 0.0136,-0.58874 -0.53454,1.60362 -0.054,0.21622 0,2.67005 0,2.67269 0,0.26727 -0.0993,0.55366 0,0.80181 0.0936,0.23396 0.35636,0.35636 0.53454,0.53454 0.26727,0.26727 0.61428,0.47363 0.80181,0.80181 0.18224,0.31893 0.0538,0.77017 0.26727,1.06907 0.25891,0.36249 0.72687,0.51664 1.06908,0.8018 0.19358,0.16132 0.33295,0.38336 0.53454,0.53454 0.15936,0.11954 0.36371,0.16478 0.53453,0.26728 0.27545,0.16526 0.50357,0.41524 0.80181,0.53454 0.16544,0.0662 0.35636,0 0.53454,0 0.17818,0 0.35636,0 0.53454,0 0.44545,0 0.8909,0 1.33635,0 0.17818,0 0.36168,0.0432 0.53454,0 0.19326,-0.0483 0.33804,-0.23452 0.53454,-0.26728 0.35151,-0.0586 0.71272,0 1.06908,0 0.35635,0 0.71271,0 1.06907,0 0.17818,0 0.35636,0 0.53454,0 0.0891,0 0.20427,0.063 0.26727,0 0.59113,-0.59111 0.61081,-0.8409 0.53454,-1.60361 -0.27592,-2.75916 -0.1657,-1.11823 -1.06908,-4.00904 -1.26906,-5.07626 0.142,0.15872 -1.06908,-3.4745 -0.2051,-0.6153 -0.36388,-1.24516 -0.53453,-1.87089 -0.0966,-0.35438 -0.11809,-0.73341 -0.26727,-1.06908 -0.49678,-1.11774 -0.64533,-1.17987 -1.33635,-1.87088 -0.26727,-0.26727 -0.53454,-0.53454 -0.80181,-0.80181 -0.0891,-0.0891 -0.15458,-0.21093 -0.26727,-0.26727 -0.15937,-0.0797 -0.36168,0.0432 -0.53454,0 -0.27331,-0.0683 -0.54023,-0.16264 -0.80181,-0.26727 -0.36992,-0.14797 -0.6911,-0.40855 -1.06908,-0.53454 -0.16903,-0.0564 -0.35635,0 -0.53453,0"
       id="path56"
       inkscape:connector-curvature="0" />
    <path
       style="fill:none;stroke:#000000;stroke-width:0.26458332px;stroke-linecap:butt;stroke-linejoin:miter;stroke-opacity:1"
       d="m 138.44561,203.45566 c -2.55234,1.53141 -0.18923,-0.078 -2.93996,2.6727 -0.31498,0.31498 -0.73087,0.51191 -1.06908,0.80181 -0.28698,0.24598 -0.53454,0.53454 -0.80181,0.8018 -0.5906,0.59061 -1.83346,1.64369 -2.13815,2.40543 -0.0662,0.16544 0.0349,0.35982 0,0.53454 -0.0553,0.27626 -0.21202,0.52555 -0.26727,0.80181 -0.0397,0.19864 -0.022,1.76102 0,1.87089 0.072,0.36019 0.12257,0.73145 0.26727,1.06907 1.55432,3.62677 -0.3244,-1.77498 0.8018,1.60362 0.0891,0.26727 0.12233,0.56023 0.26727,0.80181 0.80181,1.33635 0.26727,0 0.80181,0.80181 0.0936,0.14033 0.27191,0.71426 0.53454,0.80181 0.16904,0.0563 0.35636,0 0.53454,0 0.17818,0 0.3655,0.0563 0.53454,0 0.18899,-0.063 0.34555,-0.20428 0.53454,-0.26727 0.22401,-0.0747 0.89195,0.0886 1.06908,0 0.11269,-0.0563 0.15458,-0.21093 0.26727,-0.26727 0.16798,-0.084 0.90109,0.084 1.06907,0 0.11269,-0.0563 0.16648,-0.19168 0.26728,-0.26727 0.25697,-0.19273 0.54042,-0.34784 0.8018,-0.53454 0.36248,-0.25891 0.68232,-0.58081 1.06908,-0.80181 1.96442,-0.65481 0.13612,0.0874 1.06908,-0.53454 0.14033,-0.0935 0.71426,-0.27191 0.80181,-0.53454 0.054,-0.16193 0,-2.12213 0,-2.13815 0,-1.24726 0,-2.49452 0,-3.74178 0,-0.53454 0.12964,-1.08504 0,-1.60362 -0.14495,-0.57978 -0.53454,-1.06907 -0.80181,-1.60361 -0.0891,-0.17818 -0.14774,-0.37517 -0.26727,-0.53454 -0.15119,-0.20159 -0.42185,-0.30916 -0.53454,-0.53454 -0.0797,-0.15937 0.0564,-0.3655 0,-0.53454 -0.10234,-0.30701 -0.63809,-0.37082 -0.80181,-0.53454 -0.063,-0.063 0,-0.17818 0,-0.26727"
       id="path58"
       inkscape:connector-curvature="0" />
    <path
       style="fill:none;stroke:#000000;stroke-width:0.26458332px;stroke-linecap:butt;stroke-linejoin:miter;stroke-opacity:1"
       d="m 138.98015,276.15298 c -0.85177,0.51855 -1.80788,0.84217 -2.67269,1.33633 -0.2789,0.15938 -0.52637,0.36928 -0.80181,0.53456 -0.17082,0.10248 -0.37517,0.14775 -0.53454,0.26726 -0.20159,0.15118 -0.32488,0.39476 -0.53454,0.53454 -0.0741,0.0494 -0.17818,0 -0.26727,0 -0.17818,0.17817 -0.32487,0.39475 -0.53454,0.53453 -0.30545,0.20365 -0.32845,-0.35097 -0.53454,0.26729 -0.0845,0.25355 0,0.53453 0,0.80179 0,0.982 -0.12019,2.30317 0.26727,3.20725 0.0785,0.18309 0.37517,0.14774 0.53454,0.26726 0.20159,0.15118 0.40489,0.31848 0.53454,0.53453 0.14495,0.2416 0.12232,0.56023 0.26727,0.80182 0.12965,0.21606 0.38335,0.33296 0.53454,0.53454 0.11953,0.15936 0.14774,0.37515 0.26727,0.53454 0.0735,0.0979 1.22228,1.27931 1.33635,1.33633 0.25198,0.126 0.54023,0.16264 0.8018,0.26728 0.54628,0.21852 1.07718,0.53859 1.60362,0.80182 0.17818,0.0891 0.34555,0.20426 0.53454,0.26726 0.16904,0.0563 0.35636,0 0.53454,0 0.17563,0 0.65102,0.0503 0.80181,0 0.18899,-0.063 0.35636,-0.17817 0.53454,-0.26726 0.17818,-0.0891 0.37517,-0.14774 0.53454,-0.26728 0.39775,-0.29832 0.85867,-0.91554 1.06907,-1.33636 0.0399,-0.0797 -0.0175,-0.17989 0,-0.26725 0.072,-0.36021 0.20689,-0.70676 0.26728,-1.06908 0.0293,-0.17576 0,-0.35637 0,-0.53454 0,-0.62362 0,-1.24727 0,-1.87089 0,-0.61159 0.0563,-0.68911 -0.26728,-1.33636 -0.0563,-0.11268 -0.21092,-0.15457 -0.26726,-0.26725 -0.65481,-1.96443 0.0874,-0.13613 -0.53454,-1.06908 -0.11051,-0.16576 -0.12641,-0.39367 -0.26727,-0.53454 -0.063,-0.063 -0.18275,0.0282 -0.26727,0 -0.48543,-0.16182 -0.49601,-0.22876 -0.80181,-0.53453"
       id="path60"
       inkscape:connector-curvature="0" />
    <path
       style="fill:none;stroke:#000000;stroke-width:0.26458332px;stroke-linecap:butt;stroke-linejoin:miter;stroke-opacity:1"
       d="m 175.59608,223.50088 c -0.44545,0.26727 -0.8909,0.53454 -1.33635,0.8018 -0.26727,0.0891 -0.54983,0.14128 -0.80181,0.26728 -0.11269,0.0563 -0.19738,0.16243 -0.26727,0.26727 -0.28815,0.43223 -0.51365,0.90411 -0.80181,1.33634 -0.0699,0.10483 -0.21092,0.15458 -0.26727,0.26727 -0.0398,0.0797 0.0245,0.18161 0,0.26727 -0.15479,0.54178 -0.34198,1.07409 -0.53454,1.60362 -0.0497,0.70453 -0.552,1.24638 -0.8018,1.87089 -0.10464,0.26157 -0.14128,0.54982 -0.26727,0.8018 -0.0563,0.11269 -0.22743,0.14775 -0.26727,0.26727 -0.0563,0.16904 0,0.35636 0,0.53454 0,0.35636 0,0.71272 0,1.06908 0,0.0891 0,0.17818 0,0.26727 0,0.0891 -0.0557,0.1977 0,0.26727 0.31482,0.39353 0.71272,0.71272 1.06907,1.06908 0.17819,0.17818 0.32488,0.39476 0.53454,0.53454 0.0741,0.0494 0.17818,0 0.26727,0 0.26727,0.17818 0.55098,0.33387 0.80181,0.53454 0.19677,0.15741 0.30916,0.42184 0.53454,0.53453 0.15937,0.0797 0.3655,-0.0563 0.53454,0 0.23905,0.0797 0.32488,0.39477 0.53454,0.53454 0.16575,0.11051 0.36879,0.15677 0.53454,0.26727 0.10483,0.0699 0.14774,0.22743 0.26727,0.26727 0.16903,0.0564 0.3655,-0.0563 0.53454,0 0.11952,0.0399 0.14774,0.22743 0.26727,0.26727 0.24054,0.0802 0.56126,-0.0802 0.80181,0 0.18898,0.063 0.34554,0.20427 0.53453,0.26727 0.24055,0.0802 0.56127,-0.0802 0.80181,0 0.18899,0.063 0.34128,0.21896 0.53454,0.26727 0.17286,0.0432 0.36168,-0.0432 0.53454,0 0.19326,0.0483 0.34555,0.20427 0.53454,0.26727 0.0598,0.0199 1.21728,0.0397 1.33635,0 0.18899,-0.063 0.42403,-0.10152 0.53454,-0.26727 0.0988,-0.14825 0,-0.35636 0,-0.53454 0,-0.17818 0,-0.35636 0,-0.53454 0,-0.62363 0,-1.24725 0,-1.87088 0,-0.35636 -0.0442,-0.71547 0,-1.06908 0.0456,-0.36449 0.2217,-0.70459 0.26727,-1.06908 0.0442,-0.35361 -0.0442,-0.71547 0,-1.06908 0.0456,-0.36449 0.22171,-0.70459 0.26727,-1.06908 0.0773,-0.61881 0,-1.24725 0,-1.87088 0,-0.44545 0.0732,-0.89696 0,-1.33635 -0.0483,-0.28976 -0.34067,-1.04553 -0.53454,-1.33635 -0.0699,-0.10483 -0.22743,-0.14774 -0.26727,-0.26727 -0.0564,-0.16903 0.0797,-0.37517 0,-0.53454 -0.11269,-0.22538 -0.38335,-0.33295 -0.53454,-0.53453 -0.11953,-0.15937 -0.15677,-0.36879 -0.26727,-0.53455 -0.0699,-0.10483 -0.19738,-0.16243 -0.26727,-0.26726 -0.30296,-0.45445 -0.2238,-0.78008 -0.80181,-1.06908 -0.15937,-0.0797 -0.35636,0 -0.53454,0"
       id="path62"
       inkscape:connector-curvature="0" />
    <path
       style="fill:none;stroke:#000000;stroke-width:0.26458332px;stroke-linecap:butt;stroke-linejoin:miter;stroke-opacity:1"
       d="m 180.6742,251.02964 c -1.01402,0 -1.17117,-0.19921 -1.87089,0.26727 -0.10483,0.0699 -0.15458,0.21092 -0.26727,0.26727 -0.0797,0.0398 -0.18758,-0.0398 -0.26727,0 -0.11269,0.0563 -0.15458,0.21092 -0.26727,0.26727 -0.15936,0.0797 -0.37517,-0.0797 -0.53454,0 -0.53435,0.26717 0.005,0.62205 -0.53453,0.8018 -2.00589,0.66863 2.39338,-2.04103 -1.87089,0.80181 -0.10483,0.0699 -0.22743,0.14775 -0.26727,0.26727 -0.0564,0.16904 0.17818,0.53454 0,0.53454 -0.17818,0 0.0349,-0.70925 0,-0.53454 -0.30161,1.50807 -0.6029,3.01857 -0.80181,4.54359 -0.0691,0.53004 0,1.06907 0,1.60361 0,1.15817 0,2.31634 0,3.47451 0,0.62363 0,1.24725 0,1.87087 0,0.1782 0,0.35637 0,0.53454 0,0.0891 -0.0458,0.1909 0,0.26728 0.50195,0.83659 1.24696,1.69257 2.13816,2.13815 0.0813,0.0407 0.68144,0 0.80181,0 0.22674,0 1.42629,0.0444 1.60361,0 0.38653,-0.0966 0.6911,-0.40854 1.06908,-0.53453 0.0845,-0.0282 0.18275,0.0282 0.26727,0 0.18899,-0.063 0.34555,-0.20429 0.53454,-0.26726 0.0845,-0.0282 0.17818,0 0.26727,0 0.4207,0 0.28996,0.0398 0.80181,-0.26728 0.27544,-0.16526 0.54042,-0.34785 0.80181,-0.53454 0.36247,-0.25892 0.67065,-0.60259 1.06907,-0.80182 0.15937,-0.0797 0.37517,0.0797 0.53454,0 0.32072,-0.16036 0.48109,-0.64143 0.80181,-0.80179 0.0797,-0.0399 0.22743,0.0797 0.26727,0 0.16427,-0.32856 0.103,-0.74054 0.26727,-1.06908 0.19921,-0.39843 0.57263,-0.68711 0.80181,-1.06908 0.0458,-0.0764 -0.0331,-0.18455 0,-0.26727 0.27819,-0.69547 0.6789,-1.13347 0.80181,-1.87089 0.0439,-0.26363 0,-0.53454 0,-0.80181 0,-0.62363 0,-1.24725 0,-1.87089 0,-0.26726 0,-0.53453 0,-0.8018 0,-0.26727 0.0845,-0.54826 0,-0.80181 -0.10158,-0.30473 -0.4463,-0.49295 -0.53454,-0.80181 -0.0979,-0.34265 0.0864,-0.72336 0,-1.06908 -0.46539,-1.86157 -0.2925,-0.57238 -0.80181,-1.33635 -0.46707,-0.7006 -0.0999,-0.46706 -0.53454,-1.33634 -0.14365,-0.28731 -0.36927,-0.52637 -0.53454,-0.80181 -0.20499,-0.34165 -0.31353,-0.73757 -0.53454,-1.06908 -0.0699,-0.10483 -0.17818,-0.17818 -0.26727,-0.26727 -0.0891,-0.0891 -0.15458,-0.21092 -0.26727,-0.26727 -0.0797,-0.0398 -0.1816,0.0245 -0.26727,0 -2.3639,-0.6754 -0.77318,-0.53454 -2.93996,-0.53454 -0.35636,0 -0.71272,0 -1.06908,0 -0.17818,0 -0.3655,-0.0563 -0.53454,0 -0.11952,0.0398 -0.17818,0.17818 -0.26727,0.26727"
       id="path64"
       inkscape:connector-curvature="0" />
    <path
       style="fill:none;stroke:#000000;stroke-width:0.26458332px;stroke-linecap:butt;stroke-linejoin:miter;stroke-opacity:1"
       d="m 180.13966,231.51896 c 0.35636,-0.35636 0.64975,-0.78952 1.06908,-1.06908 0.14825,-0.0988 0.3655,0.0563 0.53454,0 0.37797,-0.12599 0.71271,-0.35635 1.06907,-0.53453 0.35636,-0.17818 0.71272,-0.35636 1.06908,-0.53454 0.17818,-0.0891 0.34128,-0.21896 0.53454,-0.26727 0.34572,-0.0864 0.72336,0.0864 1.06908,0 0.38653,-0.0966 0.6911,-0.40855 1.06908,-0.53454 0.25355,-0.0845 0.53973,0.0524 0.80181,0 0.53671,0.0613 0.87091,-0.41818 1.33634,-0.53454 0.17286,-0.0432 0.35636,0 0.53454,0 0.62363,0 1.24726,0 1.87089,0 0.26727,0 0.53818,0.0439 0.80181,0 0.58989,-0.0983 1.38406,-0.5584 1.87089,-0.80181 0.17817,-0.0891 0.36878,-0.15677 0.53453,-0.26727 0.10483,-0.0699 0.14128,-0.26727 0.26727,-0.26727 0.32402,0 -0.0665,0.3338 -0.26727,0.53454"
       id="path66"
       inkscape:connector-curvature="0" />
    <path
       style="fill:none;stroke:#000000;stroke-width:0.26458332px;stroke-linecap:butt;stroke-linejoin:miter;stroke-opacity:1"
       d="m 187.08867,258.51319 c 1.51026,-0.60411 1.21578,-0.67822 2.93996,-0.53455 0.54004,0.045 1.0644,0.21335 1.60362,0.26728 0.35459,0.0354 0.71272,0 1.06908,0 0.35636,0.0891 0.70544,0.21532 1.06908,0.26727 0.26458,0.0378 0.53817,-0.0439 0.8018,0 0.5438,-0.0928 0.8659,0.44044 1.33635,0.53453 0.28224,0.0564 1.48437,0 1.87089,0 0.0891,0 0.18275,-0.0282 0.26727,0 1.51426,0.75714 -0.39842,-0.0996 1.06908,0.26727 0.19326,0.0483 0.34127,0.21896 0.53453,0.26727 0.17286,0.0432 0.36168,-0.0432 0.53454,0 0.38653,0.0966 0.69111,0.40855 1.06908,0.53454 0.16904,0.0564 0.35636,0 0.53454,0"
       id="path68"
       inkscape:connector-curvature="0" />
    <path
       style="fill:none;stroke:#000000;stroke-width:0.26458332px;stroke-linecap:butt;stroke-linejoin:miter;stroke-opacity:1"
       d="m 77.508163,209.33559 c 0.164848,0.20606 1.13466,1.51917 1.603615,1.87089 0.159369,0.11953 0.378981,0.14282 0.534541,0.26727 0.29515,0.23612 0.494236,0.58211 0.801809,0.80181 0.324207,0.23157 0.723151,0.33686 1.069078,0.53454 0.278895,0.15936 0.529415,0.36429 0.801806,0.53454 0.881036,0.55064 1.760601,1.1061 2.672697,1.60361 0.524658,0.28618 1.099418,0.48096 1.603616,0.80181 0.721177,0.45893 1.34934,1.20921 2.138158,1.60362 0.251984,0.12599 0.530921,0.18987 0.801807,0.26727 0.735526,0.21015 0.972333,0.26727 1.603618,0.26727 0.175625,0 0.651016,0.0503 0.80181,0 0.188986,-0.063 0.345548,-0.20428 0.534537,-0.26727 0.215125,-0.0717 0.898287,0.0854 1.069078,0 0.112692,-0.0563 0.147744,-0.22743 0.267269,-0.26727 0.122246,-0.0408 0.950151,0.0595 1.069078,0 0.112691,-0.0564 0.178181,-0.17818 0.267272,-0.26727"
       id="path70"
       inkscape:connector-curvature="0" />
    <path
       style="fill:none;stroke:#000000;stroke-width:0.26458332px;stroke-linecap:butt;stroke-linejoin:miter;stroke-opacity:1"
       d="m 77.240894,236.59708 c 1.069964,0.44719 1.312375,0.13064 2.405425,0.26727 0.36449,0.0456 0.705442,0.21533 1.069078,0.26727 0.264583,0.0378 0.537226,-0.0378 0.801809,0 0.363633,0.052 0.704588,0.22171 1.069078,0.26727 0.618813,0.0773 1.247256,0 1.870885,0 1.603618,0 3.207234,0 4.810852,0 0.175625,0 0.651015,0.0503 0.801809,0 0.188987,-0.063 0.345551,-0.20427 0.534538,-0.26727 0.08452,-0.0282 0.178181,0 0.267271,0 0.240906,0 1.168128,0.0561 1.336347,0 0.188987,-0.063 0.345551,-0.20427 0.534538,-0.26727 0.08452,-0.0282 0.267272,-0.0891 0.267272,0 0,0.0891 -0.35179,0.0282 -0.267272,0 0.348477,-0.11615 0.708885,-0.19523 1.069078,-0.26727 0.531389,-0.10627 1.063932,-0.2182 1.603619,-0.26727 0.709792,-0.0645 1.425437,0 2.138156,0 0.178178,0 0.365503,0.0563 0.534537,0 0.921338,-0.30711 0.197985,-0.26727 0.80181,-0.26727 0.08909,0 0.267268,-0.0891 0.267268,0 0,0.0891 -0.178178,0 -0.267268,0 -0.267269,0 -0.534538,0 -0.80181,0"
       id="path72"
       inkscape:connector-curvature="0" />
    <path
       style="fill:none;stroke:#000000;stroke-width:0.26458332px;stroke-linecap:butt;stroke-linejoin:miter;stroke-opacity:1"
       d="m 78.844509,262.52223 c 0.35636,0.17818 0.676077,0.46904 1.069078,0.53454 0.196501,0.0328 0.345552,-0.20428 0.534541,-0.26727 0.08452,-0.0282 0.178178,0 0.267269,0 0.250917,0 1.183203,0.0511 1.336347,0 0.119528,-0.0399 0.15458,-0.21093 0.267268,-0.26727 0.07968,-0.0399 0.182753,0.0282 0.267272,0 0.188986,-0.063 0.345551,-0.20428 0.534538,-0.26727 0.169037,-0.0564 0.365503,0.0563 0.53454,0 0.188987,-0.063 0.341275,-0.21896 0.534538,-0.26727 0.17286,-0.0432 0.365503,0.0563 0.53454,0 0.119526,-0.0398 0.154578,-0.21093 0.267269,-0.26727 0.159369,-0.0797 0.365503,0.0563 0.534538,0 0.188989,-0.063 0.340074,-0.22406 0.53454,-0.26727 1.769676,-0.39326 2.631316,-0.26727 4.543581,-0.26727 0.623631,0 1.247259,0 1.870887,0 0.267269,0 0.538176,0.0439 0.801809,0 0.277892,-0.0463 0.528492,-0.19894 0.80181,-0.26727 0.181887,-0.0455 0.655642,0.0731 0.801806,0 0.112691,-0.0564 0.15458,-0.21092 0.267272,-0.26727 0.07968,-0.0398 0.178178,0 0.267269,0 0.08909,0 0.178178,0 0.267268,0"
       id="path74"
       inkscape:connector-curvature="0" />
    <path
       style="fill:none;stroke:#000000;stroke-width:0.26458332px;stroke-linecap:butt;stroke-linejoin:miter;stroke-opacity:1"
       d="m 101.56242,211.47375 c 2.39745,0.59936 1.4035,0.53454 2.93997,0.53454 0.17817,0 0.36167,-0.0432 0.53453,0 0.19327,0.0483 0.3392,0.2282 0.53454,0.26727 0.26785,0.0536 1.25559,0 1.60362,0 0.21881,0 1.16318,0.0577 1.33635,0 0.18899,-0.063 0.34555,-0.20428 0.53454,-0.26727 0.16903,-0.0563 0.35636,0 0.53453,0 1.42544,0 2.85088,0 4.27632,0 0.62363,0 1.24726,0 1.87088,0 0.26727,0 0.53973,0.0524 0.80181,0 0.27626,-0.0553 0.52291,-0.22743 0.80181,-0.26727 0.35278,-0.0504 0.71272,0 1.06908,0 0.44545,0 0.8909,0 1.33635,0 0.62362,0 1.24726,0 1.87088,0 0.35636,0 0.71449,-0.0355 1.06908,0 0.53923,0.0539 1.06908,0.17818 1.60362,0.26727 1.06908,0.17818 2.14089,0.34066 3.20723,0.53454 0.44695,0.0813 0.8909,0.17818 1.33635,0.26727 0.62363,0.0891 1.2495,0.1637 1.87089,0.26727 0.44809,0.0747 0.88485,0.2171 1.33635,0.26727 0.35417,0.0394 0.71629,-0.0504 1.06907,0 2.0681,0.29544 0.14638,0.26726 1.06908,0.26726 0.17818,0 0.69391,-0.0797 0.53454,0 -0.25198,0.126 -0.53454,0.17819 -0.80181,0.26727"
       id="path76"
       inkscape:connector-curvature="0" />
    <path
       style="fill:none;stroke:#000000;stroke-width:0.26458332px;stroke-linecap:butt;stroke-linejoin:miter;stroke-opacity:1"
       d="m 102.09696,213.6119 c 1.33635,0.53454 2.70674,0.99077 4.00904,1.60362 0.228,0.1073 0.35636,0.35636 0.53454,0.53454 0.26727,0.26727 0.51483,0.55583 0.80181,0.80181 0.33821,0.28989 0.73087,0.51191 1.06908,0.80181 0.28698,0.24598 0.48128,0.60148 0.80181,0.80181 0.40683,0.25427 0.90723,0.31998 1.33634,0.53454 0.28731,0.14365 0.51451,0.39088 0.80181,0.53453 0.58472,0.29237 1.83863,0.64399 2.40543,1.06908 2.48651,1.86489 -0.30854,0.34171 2.13815,1.87089 0.33786,0.21116 0.71272,0.35636 1.06908,0.53454 0.17818,0.0891 0.34555,0.20427 0.53454,0.26727 0.0845,0.0282 0.18275,-0.0282 0.26727,0 0.18899,0.063 0.35636,0.17818 0.53454,0.26727 0.17818,0.0891 0.37517,0.14774 0.53454,0.26727 0.53729,0.40297 0.93528,1.12234 1.33635,1.60361 0.40329,0.48395 0.89089,0.8909 1.33634,1.33635 0.26727,0.26727 0.49943,0.57503 0.80181,0.80181 0.41558,0.31169 0.90412,0.51365 1.33635,0.80181 2.00878,1.33919 0.0759,0.30943 2.40543,1.60362 0.34828,0.19349 0.71271,0.35635 1.06907,0.53454 0.35636,0.26726 0.68232,0.5808 1.06908,0.8018 0.24461,0.13978 0.54983,0.14128 0.80181,0.26727 0.46464,0.23232 0.90412,0.51366 1.33635,0.80181 0.61159,0.40773 -0.16712,0.21156 0.80181,0.53454 0.24012,0.08 0.55563,-0.0615 0.80181,0 0.27331,0.0683 0.54982,0.14128 0.8018,0.26727 0.11269,0.0564 0.17818,0.17818 0.26727,0.26727 0.14488,0.14488 0.39836,0.27237 0.26727,0.53454 -0.0563,0.11269 -0.14372,0.24256 -0.26727,0.26727 -0.70793,0.14158 -2.46834,-0.1999 -2.93996,-0.26727"
       id="path78"
       inkscape:connector-curvature="0" />
    <path
       style="fill:none;stroke:#000000;stroke-width:0.26458332px;stroke-linecap:butt;stroke-linejoin:miter;stroke-opacity:1"
       d="m 102.09696,213.6119 c 1.05655,2.74704 4.37089,3.48109 6.1472,5.61266 0.73566,0.8828 0.41554,0.82524 1.06908,1.87089 0.23608,0.37774 0.57262,0.68711 0.8018,1.06908 0.33409,0.55681 0.96514,2.00452 1.33635,2.6727 0.25228,0.4541 0.54953,0.88224 0.80181,1.33634 0.19349,0.34829 0.32338,0.73122 0.53454,1.06908 0.23609,0.37774 0.58548,0.67969 0.80181,1.06908 0.23299,0.41939 0.31998,0.90723 0.53454,1.33635 0.2873,0.57461 0.75708,1.04202 1.06908,1.60361 0.29023,0.52243 0.48506,1.09683 0.8018,1.60362 0.26711,0.42736 0.78953,0.64975 1.06908,1.06908 0.22101,0.3315 0.32338,0.73122 0.53454,1.06908 -0.0624,0.78943 0.75265,0.8617 1.06908,1.33634 0.1105,0.16576 0.16478,0.36372 0.26727,0.53454 0.22872,0.38121 0.64907,0.87814 0.80181,1.33635 0.11616,0.34848 0.10299,0.74053 0.26727,1.06908 0.11269,0.22538 0.39476,0.32487 0.53454,0.53454 0.442,0.66301 0.64675,1.46243 1.06907,2.13815 0.87344,1.39751 0.99986,1.14041 2.40543,2.40543 2.40315,2.16284 -0.41616,-0.14889 2.40542,2.6727 0.31499,0.31498 0.71747,0.52832 1.06908,0.8018 0.45029,0.35023 0.8617,0.75265 1.33635,1.06908 0.59763,0.39842 1.28641,0.6516 1.87089,1.06908 0.66837,0.47741 1.18746,1.148 1.87088,1.60362 3.17533,2.11688 1.03221,0.27145 3.47451,1.60361 0.56399,0.30764 1.04203,0.75709 1.60361,1.06908 0.24628,0.13682 0.5674,0.111 0.80181,0.26727 0.3145,0.20967 0.50666,0.56569 0.80181,0.80181 0.15556,0.12445 0.39368,0.12641 0.53454,0.26727 1.78264,1.78264 -0.45827,0.15267 1.06908,1.06908 0.27544,0.16526 0.54483,0.34181 0.80181,0.53454 0.10079,0.0756 0.39326,0.26727 0.26727,0.26727 -0.77359,0 -1.12154,-0.587 -1.60362,-1.06908"
       id="path80"
       inkscape:connector-curvature="0" />
    <path
       style="fill:none;stroke:#000000;stroke-width:0.26458332px;stroke-linecap:butt;stroke-linejoin:miter;stroke-opacity:1"
       d="m 105.57146,219.49184 c 0,1.24725 -0.19452,2.50977 0,3.74177 0.081,0.51312 0.52649,0.89583 0.80181,1.33635 0.17025,0.27239 0.36927,0.52636 0.53454,0.8018 0.10249,0.17083 0.17818,0.35636 0.26727,0.53454 0.17818,0.26727 0.36429,0.52942 0.53454,0.80181 0.27532,0.44052 0.54407,0.88531 0.80181,1.33635 0.2956,0.5173 0.49532,1.0928 0.80181,1.60362 0.16526,0.27544 0.34783,0.54042 0.53454,0.8018 0.51782,0.72496 1.13144,1.38268 1.60361,2.13816 0.21117,0.33786 0.33687,0.72315 0.53454,1.06908 0.31874,0.55779 0.78177,1.029 1.06908,1.60362 0.17818,0.44544 0.35636,0.89089 0.53454,1.33634 0,0.17818 -0.0564,0.36551 0,0.53454 0.0398,0.11953 0.19738,0.16244 0.26727,0.26727 0.1105,0.16576 0.20427,0.34555 0.26727,0.53454 0.0282,0.0845 -0.0216,0.18084 0,0.26727 0.13665,0.54663 0.42403,1.05111 0.53454,1.60362 0.0349,0.17472 -0.0293,0.35878 0,0.53454 -0.27639,0.68967 0.42403,1.0511 0.53454,1.60361 0.0524,0.26208 -0.0845,0.54826 0,0.80181 0.10157,0.30474 0.408,0.50657 0.53453,0.80181 0.1447,0.33763 0.12258,0.73145 0.26727,1.06908 0.12654,0.29525 0.36928,0.52637 0.53454,0.80181 0.37608,0.62679 0.22858,0.57144 0.53454,1.33635 0.074,0.18496 0.19329,0.34957 0.26727,0.53453 0.10463,0.26158 0.16264,0.54024 0.26727,0.80181 0.074,0.18497 0.21895,0.34128 0.26727,0.53454 0.0432,0.17286 -0.0432,0.36168 0,0.53454 0.0483,0.19326 0.19329,0.34958 0.26727,0.53454 0.10463,0.26158 0.16264,0.54023 0.26727,0.80181 0.074,0.18496 0.19328,0.34958 0.26727,0.53454 0.10463,0.26157 0.15629,0.54286 0.26727,0.80181 0.15694,0.36621 0.37272,0.70499 0.53454,1.06908 0.19485,0.43841 0.33969,0.89793 0.53454,1.33634 0.16181,0.36409 0.37272,0.705 0.53454,1.06908 0.19485,0.43841 0.33968,0.89794 0.53453,1.33635 0.32363,0.72816 0.71272,1.42544 1.06908,2.13815 0.17818,0.35636 0.31354,0.73758 0.53454,1.06908 0.13978,0.20967 0.39477,0.32488 0.53454,0.53454 0.87138,1.30707 0.15779,0.77734 1.06908,1.87089 0.24197,0.29037 0.59214,0.48731 0.80181,0.80181 1.60331,2.40498 -2.03831,-1.48713 1.06908,2.13814 0.20904,0.2439 0.6151,0.27316 0.8018,0.53454 0.483,1.20751 0.3828,1.22312 1.06908,2.13818 0.22679,0.30237 0.55984,0.51144 0.80181,0.80179 0.57453,0.53007 0.8576,1.27246 1.33635,1.8709 0.15741,0.19677 0.37712,0.33776 0.53454,0.53454 0.20066,0.25082 0.34181,0.54483 0.53454,0.80179 0.0756,0.10081 0.21092,0.15459 0.26727,0.26728 0.25818,0.51636 0.45829,1.68071 0.53454,2.13815 0.0433,0.26006 -0.0434,0.54176 0,0.80182 0.24996,1.49979 0.21678,0.59989 0.53453,1.87087 0.0216,0.0864 -0.0282,0.18277 0,0.26728 0.18998,0.56994 0.36672,0.634 0.80181,1.06908 0.0891,0.0891 0.17818,0.17817 0.26727,0.26728 0.0891,0.0891 0.35636,0.17817 0.26727,0.26726 -0.0891,0.0891 -0.39326,-0.26726 -0.26727,-0.26726 0.19921,0 0.35636,0.17817 0.53454,0.26726"
       id="path82"
       inkscape:connector-curvature="0" />
    <path
       style="fill:none;stroke:#000000;stroke-width:0.26458332px;stroke-linecap:butt;stroke-linejoin:miter;stroke-opacity:1"
       d="m 140.04923,216.2846 c 0.53454,-1.33635 0.63105,-2.94807 1.60362,-4.00904 0.35102,-0.38294 0.89583,0.52648 1.33635,0.80181 0.92668,0.57917 1.78487,1.23673 2.67269,1.87088 1.045,0.74643 2.16223,1.39173 3.20724,2.13816 1.40614,1.00439 0.77867,0.69987 2.40542,1.60362 1.78455,0.99141 0.392,0.11878 2.6727,1.06907 6.22729,2.59471 -2.02381,-0.74463 2.67269,1.60362 0.66175,0.33088 2.15791,0.70405 2.93997,0.80181 0.2652,0.0331 0.54252,-0.0648 0.80181,0 0.12222,0.0306 0.17817,0.17818 0.26726,0.26727 0.26727,0.26727 0.51144,0.55983 0.80181,0.80181 0.24677,0.20564 0.54043,0.34783 0.80181,0.53454 0.36248,0.25891 0.69844,0.55471 1.06908,0.80181 0.43223,0.28815 0.89808,0.52291 1.33635,0.8018 0.542,0.34491 1.04869,0.74538 1.60361,1.06908 2.06826,1.03413 1.09116,0.49433 2.93997,1.60362 2.34652,1.40791 0.3408,0.38087 2.40542,1.06908 0.37798,0.12599 0.69111,0.40854 1.06908,0.53454 0.16904,0.0563 0.3655,-0.0563 0.53454,0 0.002,5.2e-4 0.80181,0.33067 0.80181,0.53454 0,0.0891 -0.17818,0 -0.26727,0 -0.17818,0 -0.3655,0.0563 -0.53454,0 -0.92676,-0.30893 -1.75449,-0.91173 -2.13815,-1.87089 -0.0662,-0.16544 0.35635,0 0.53453,0"
       id="path84"
       inkscape:connector-curvature="0" />
    <path
       style="fill:none;stroke:#000000;stroke-width:0.26458332px;stroke-linecap:butt;stroke-linejoin:miter;stroke-opacity:1"
       d="m 140.04923,216.2846 c 1.15817,-0.35636 2.26275,-1.06908 3.47451,-1.06908 0.50396,0 0.71271,0.71272 1.06907,1.06908 0.26727,0.26727 0.55984,0.51144 0.80181,0.80181 0.60099,0.72118 0.72782,1.35577 1.33635,2.13815 0.30941,0.39781 0.80198,0.64172 1.06908,1.06908 0.19468,0.3115 0.13084,0.72803 0.26727,1.06908 0.0468,0.11698 0.21092,0.15458 0.26727,0.26727 0.0398,0.0797 -0.0147,0.17939 0,0.26727 0.0211,0.12653 0.4144,2.16516 0.53454,2.40542 0.11269,0.22539 0.37712,0.33778 0.53453,0.53455 0.20067,0.25082 0.37517,0.52291 0.53454,0.8018 0.19768,0.34593 0.32338,0.73122 0.53454,1.06908 0.47218,0.75548 1.13144,1.38268 1.60362,2.13816 0.21116,0.33786 0.30296,0.74487 0.53454,1.06908 0.21969,0.30757 0.56569,0.50666 0.80181,0.8018 0.12444,0.15556 0.14774,0.37517 0.26727,0.53454 0.15119,0.20159 0.37712,0.33778 0.53454,0.53454 0.20066,0.25083 0.32549,0.55792 0.53453,0.80181 0.32798,0.38264 0.73722,0.6898 1.06908,1.06908 0.29333,0.33523 0.50848,0.73384 0.80181,1.06908 0.33187,0.37927 0.71272,0.71272 1.06908,1.06907 0.71272,0.71272 1.38481,1.46852 2.13815,2.13816 0.39772,1.35042 1.84702,1.16316 2.6727,1.87089 3.29389,2.82333 -0.59771,0.42439 1.33635,1.06908 0.0899,0.0299 1.00557,1.00556 1.06908,1.06907 1.29065,1.29065 -0.27955,-0.34943 1.06907,1.33635 0.15742,0.19677 0.37713,0.33777 0.53454,0.53454 0.40133,0.50166 0.71272,1.06908 1.06908,1.60362 1.53192,2.29787 -0.30473,-0.60947 0.80181,1.60362 0.14365,0.2873 0.35636,0.53453 0.53454,0.8018 0.17818,0.26727 0.35636,0.53454 0.53454,0.80181 0.42304,0.63457 0.83908,1.29074 1.33635,1.87089 0.24598,0.28698 0.55582,0.51483 0.8018,0.80181 2.38362,2.78088 -0.90857,-0.82454 1.60362,2.40542 1.06979,1.37544 1.13133,0.86406 2.40543,2.13816 0.31498,0.31498 0.40338,0.86987 0.80181,1.06908 0.0797,0.0398 0.17817,0 0.26726,0 0.0891,0 0.17819,0 0.26728,0"
       id="path86"
       inkscape:connector-curvature="0" />
    <path
       style="fill:none;stroke:#000000;stroke-width:0.26458332px;stroke-linecap:butt;stroke-linejoin:miter;stroke-opacity:1"
       d="m 117.06405,208.26651 c -1.89399,1.57833 -1.1116,0.84434 -2.40542,2.13816 -0.0891,0.0891 -0.17818,0.17818 -0.26727,0.26727 -0.0891,0.0891 -0.26727,0.14128 -0.26727,0.26727 0,0.43164 1.04447,1.31174 1.33634,1.60362 0.0891,0.0891 0.19739,0.16243 0.26727,0.26727 0.16277,0.24414 0.22814,0.6486 0.53454,0.8018 0.11893,0.0595 0.94684,-0.0407 1.06908,0 0.11953,0.0399 0.15458,0.21093 0.26727,0.26727 0.0298,0.0149 1.30652,0.0149 1.33635,0 0.11269,-0.0563 0.14774,-0.22742 0.26727,-0.26727 0.20895,-0.0696 1.45654,0.0736 1.60361,0 0.28731,-0.14365 0.52637,-0.36927 0.80181,-0.53453 0.17082,-0.1025 0.34556,-0.20428 0.53454,-0.26727 0.3318,-0.1106 0.2912,0.2194 0.53454,-0.26727 0.10622,-0.21245 -0.41435,-1.15608 -0.53454,-1.33635 -0.24512,-0.36768 -0.41232,-0.27488 -0.8018,-0.53454 -0.24331,-0.1622 -0.56492,-0.68336 -0.80181,-0.80181 -0.0797,-0.0398 -0.17819,0 -0.26727,0 -0.17818,0 -0.36551,0.0564 -0.53454,0 -0.11953,-0.0398 -0.17818,-0.17818 -0.26727,-0.26727"
       id="path88"
       inkscape:connector-curvature="0" />
    <path
       style="fill:none;stroke:#000000;stroke-width:0.26458332px;stroke-linecap:butt;stroke-linejoin:miter;stroke-opacity:1"
       d="m 120.27129,222.96634 c -0.23037,0.6911 -0.91634,1.48909 -0.26727,2.13815 0.063,0.063 0.18758,-0.0398 0.26727,0 0.11269,0.0564 0.17818,0.17819 0.26727,0.26727 0.0891,0.0891 0.17817,0.17818 0.26726,0.26727 0.0891,0.0891 0.21093,0.15458 0.26727,0.26727 0.0399,0.0797 -0.0398,0.18759 0,0.26727 0.11845,0.23689 0.63961,0.55851 0.80181,0.80181 0.11051,0.16575 0.12641,0.39368 0.26727,0.53454 0.58396,0.58396 0.56157,0.53454 1.06908,0.53454 0.0891,0 0.18759,0.0398 0.26727,0 0.11269,-0.0563 0.17818,-0.17818 0.26727,-0.26727 0.0891,-0.0891 0.17818,-0.17818 0.26727,-0.26727 0.26727,-0.26727 0.57502,-0.49943 0.80181,-0.80181 0.19854,-0.26472 -0.21778,-0.38606 -0.26727,-0.53454 -0.0564,-0.16903 0.0563,-0.3655 0,-0.53454 -0.0398,-0.11952 -0.17818,-0.17818 -0.26727,-0.26727 0,-0.26727 0.0648,-0.54251 0,-0.8018 -0.0306,-0.12224 -0.19738,-0.16244 -0.26727,-0.26728 -0.221,-0.3315 -0.31353,-0.73757 -0.53454,-1.06907 -0.0699,-0.10483 -0.19738,-0.16244 -0.26727,-0.26727 -0.1105,-0.16576 -0.15677,-0.36879 -0.26727,-0.53454 -0.0755,-0.11329 -0.69123,-0.74652 -0.80181,-0.80181 -0.0797,-0.0398 -0.17818,0 -0.26727,0 -0.0891,0 -0.18758,-0.0398 -0.26727,0 -0.11269,0.0564 -0.17818,0.17818 -0.26726,0.26727 -0.35636,0.35636 -0.64976,0.78953 -1.06908,1.06908 -0.10626,0.0708 -1.51094,0.43107 -1.60362,0.80181 -0.0438,0.17511 0,2.27719 0,2.40542 0,0.49451 -0.12956,1.20679 0.26727,1.60362 0.063,0.063 0.18758,-0.0398 0.26727,0 0.11269,0.0563 0.15458,0.21092 0.26727,0.26727 0.0797,0.0398 0.17818,0 0.26727,0 0.17818,0 0.35636,0 0.53454,0 0.62363,0 1.24725,0 1.87088,0 0.53454,0 1.06908,0 1.60362,0 0.0891,0 0.17818,0 0.26727,0 0.0891,0 0.20427,0.063 0.26727,0 0.20401,-0.20401 -0.22552,-0.47191 -0.26727,-0.53454 -0.1105,-0.16575 -0.15677,-0.36879 -0.26727,-0.53454 -0.0699,-0.10483 -0.22743,-0.14774 -0.26727,-0.26727 -0.0563,-0.16903 0,-0.35636 0,-0.53454 0,-0.17818 0,-0.35636 0,-0.53454"
       id="path90"
       inkscape:connector-curvature="0" />
    <path
       style="fill:none;stroke:#000000;stroke-width:0.26458332px;stroke-linecap:butt;stroke-linejoin:miter;stroke-opacity:1"
       d="m 117.59859,234.99347 c 2.91462,4.85768 1.33635,0.86887 1.33635,4.00904 0,0.0891 0.19314,-0.0494 0.26727,0 0.69361,0.46241 0.40745,0.47755 0.80181,1.06908 0.0699,0.10483 0.21092,0.15458 0.26727,0.26727 0.0797,0.15936 -0.0797,0.37517 0,0.53454 0.0563,0.11269 0.21092,0.15458 0.26727,0.26726 0.66276,0.25223 0.1511,0.72061 0.26726,1.06908 0.063,0.18899 0.17819,0.35636 0.26727,0.53454 0.0891,0.17818 0.15677,0.36879 0.26728,0.53454 0.0699,0.10483 0.19738,0.16244 0.26726,0.26727 0.41134,0.61701 0.12321,0.45207 0.53454,1.06908 0.45459,0.68189 1.0686,-0.0889 1.60362,-0.26727 0.16904,-0.0564 0.35636,0 0.53454,0 0.62679,0 -0.12599,0.063 0.53454,-0.26727 0.0797,-0.0398 0.18758,0.0398 0.26727,0 0.11269,-0.0564 0.18856,-0.16889 0.26727,-0.26727 0.0268,-0.0335 1.00265,-1.20506 1.06907,-1.60362 0.10844,-0.6506 -0.0253,-1.53333 -0.26726,-2.13815 -0.0468,-0.11698 -0.19739,-0.16244 -0.26727,-0.26727 -0.11051,-0.16576 -0.17818,-0.35636 -0.26727,-0.53454 -0.17818,-0.17818 -0.38335,-0.33295 -0.53454,-0.53454 -0.11953,-0.15937 -0.15677,-0.36878 -0.26727,-0.53454 -0.13978,-0.20966 -0.35636,-0.35636 -0.53454,-0.53454 -0.26727,-0.26727 -0.49943,-0.57502 -0.80181,-0.80181 -0.0713,-0.0534 -0.18275,0.0282 -0.26727,0 -0.18899,-0.063 -0.33533,-0.26727 -0.53454,-0.26727 -0.0862,0 -0.38603,0.46029 -0.53454,0.53454 -0.15937,0.0797 -0.4021,-0.11919 -0.53454,0 -0.84284,0.75856 -1.60361,1.60362 -2.40542,2.40543 -0.008,0.008 -1.0151,0.96112 -1.06908,1.06908 -0.21456,0.42911 -0.38282,0.8812 -0.53454,1.33634 -0.0282,0.0845 0,0.17819 0,0.26727 0,0.44545 0,0.8909 0,1.33635 0,0.26727 0,0.53454 0,0.80181 0,0.26727 -0.0648,0.54252 0,0.80181 0.0306,0.12223 0.17818,0.17818 0.26727,0.26727 0.17818,0.17818 0.35636,0.35636 0.53454,0.53454 0.0891,0.0891 0.16244,0.19738 0.26727,0.26727 0.46067,0.30711 0.404,0.26727 0.80181,0.26727 0.0891,0 0.18758,-0.0399 0.26727,0 0.11269,0.0563 0.14774,0.22742 0.26727,0.26727 0.014,0.005 1.32571,0.004 1.33635,0 0.29824,-0.1193 0.50356,-0.41525 0.8018,-0.53454 0.16544,-0.0662 0.35982,0.0349 0.53454,0 0.27626,-0.0553 0.54023,-0.16264 0.80181,-0.26727 0.20346,-0.0814 0.67434,-0.27961 0.80181,-0.53454 0.0398,-0.0797 0,-0.17818 0,-0.26727 0,-0.0891 0.0282,-0.18275 0,-0.26727 -0.20474,-0.61423 -0.11384,-0.53454 -0.53454,-0.53454 -0.0891,0 -0.35636,0 -0.26727,0 0.17818,0 0.35636,0 0.53454,0"
       id="path92"
       inkscape:connector-curvature="0" />
    <path
       style="fill:none;stroke:#000000;stroke-width:0.26458332px;stroke-linecap:butt;stroke-linejoin:miter;stroke-opacity:1"
       d="m 121.8749,253.70233 c -0.44545,0.17818 -0.92495,0.28771 -1.33634,0.53454 -0.0764,0.0458 0.0245,0.18161 0,0.26727 -0.28517,0.99807 -0.63619,1.67894 -0.80181,2.6727 -0.0293,0.17575 0,0.35636 0,0.53454 0,0.53454 0,1.06907 0,1.60361 0,0.26727 -0.0524,0.53973 0,0.80181 0.0781,0.39069 0.4564,0.6784 0.53454,1.06908 0.0524,0.26208 -0.0648,0.54252 0,0.80181 0.0306,0.12223 0.21092,0.15458 0.26727,0.26727 0.0398,0.0797 -0.0399,0.18758 0,0.26727 0.0563,0.11269 0.19167,0.16647 0.26726,0.26727 0.35743,0.47656 0.556,0.99429 1.06908,1.33634 0.0741,0.0494 0.20428,-0.063 0.26727,0 0.063,0.063 -0.0797,0.22743 0,0.26727 0.53635,0.26817 0.49636,-0.0636 0.80181,-0.26727 0.16575,-0.1105 0.34555,-0.20427 0.53454,-0.26726 0.0845,-0.0282 0.18759,0.0398 0.26727,0 0.11269,-0.0564 0.17818,-0.17819 0.26727,-0.26727 0.0891,-0.0891 0.25164,-0.14225 0.26727,-0.26727 0.0979,-0.78335 0,-2.04257 0,-2.93997 0,-0.44545 0,-0.8909 0,-1.33635 0,-0.0891 0.0398,-0.18758 0,-0.26727 -0.0714,-0.14274 -0.6611,-0.6611 -0.80181,-0.80181 -0.17818,-0.17817 -0.35636,-0.35635 -0.53454,-0.53453 -0.17818,-0.17818 -0.32488,-0.39477 -0.53454,-0.53454 -0.046,-0.0307 -1.2982,0 -1.33635,0"
       id="path94"
       inkscape:connector-curvature="0" />
    <path
       style="fill:none;stroke:#000000;stroke-width:0.26458332px;stroke-linecap:butt;stroke-linejoin:miter;stroke-opacity:1"
       d="m 162.49987,221.36272 c -0.71272,-0.17818 -1.40652,-0.46802 -2.13815,-0.53454 -0.73507,-0.0668 -1.10276,0.52404 -1.33635,1.06908 -0.56763,1.32446 -0.53454,0.87415 -0.53454,1.60362 0,0.35636 0,0.71272 0,1.06908 0,0.0891 0,0.17817 0,0.26727 0,0.0891 -0.0399,0.18758 0,0.26726 0.0563,0.1127 0.17818,0.17819 0.26727,0.26727 0.0891,0.0891 0.15458,0.21093 0.26727,0.26727 0.15936,0.0797 0.37517,-0.0797 0.53454,0 0.22538,0.11269 0.30915,0.42185 0.53453,0.53454 0.0703,0.0351 0.92932,0 1.06908,0 0.36992,0 1.36766,0.059 1.60362,0 0.12223,-0.0306 0.21092,-0.15458 0.26727,-0.26727 0.0481,-0.0961 -0.002,-1.3286 0,-1.33634 0.0391,-0.19535 0.20427,-0.34555 0.26727,-0.53454 0.0282,-0.0845 0.0398,-0.18759 0,-0.26727 -0.0564,-0.11269 -0.3605,-0.35203 -0.26727,-0.26727 1.07312,0.97556 2.13815,1.95997 3.20723,2.93996"
       id="path96"
       inkscape:connector-curvature="0" />
    <path
       style="fill:none;stroke:#000000;stroke-width:0.26458332px;stroke-linecap:butt;stroke-linejoin:miter;stroke-opacity:1"
       d="m 159.82717,237.93343 c 0.62363,-0.17818 1.24726,-0.71272 1.87089,-0.53454 0.34265,0.0979 0,0.71272 0,1.06908 0,0.26727 0.0524,0.53973 0,0.80181 -0.072,0.36019 -0.19523,0.70888 -0.26727,1.06908 -0.0175,0.0874 0.0282,0.18275 0,0.26727 -0.063,0.18898 -0.2282,0.33919 -0.26727,0.53453 -0.0524,0.26209 0.0648,0.54253 0,0.80181 -0.0306,0.12223 -0.21092,0.15458 -0.26727,0.26727 -0.0398,0.0797 0,0.17818 0,0.26727 0,0.73324 0.37497,1.30177 0.80181,1.87089 0.0756,0.10079 0.15458,0.21092 0.26727,0.26727 0.0797,0.0398 0.18275,-0.0282 0.26727,0 0.18899,0.063 0.34128,0.21895 0.53454,0.26727 0.17286,0.0432 0.3655,-0.0564 0.53454,0 0.11953,0.0398 0.15458,0.21092 0.26727,0.26727 0.0797,0.0398 0.17818,0 0.26727,0 0.0891,0 0.17939,0.0147 0.26727,0 1.37852,-0.22976 0.9972,-0.0977 1.87088,-0.53454 0.75992,-0.37996 0.39368,-0.12641 1.06908,-0.80181 0.0891,-0.0891 0.23671,-0.14504 0.26727,-0.26727 0.0864,-0.34572 0,-0.71272 0,-1.06908 0,-0.62363 0,-1.24725 0,-1.87088 0,-0.2057 0.0442,-1.24797 0,-1.33635 -0.11269,-0.22538 -0.35636,-0.35636 -0.53454,-0.53454 -0.0891,-0.0891 -0.17818,-0.17818 -0.26727,-0.26727 -0.0891,-0.0891 -0.15458,-0.21092 -0.26727,-0.26727 -0.16798,-0.084 -0.90109,0.084 -1.06907,0 -0.11269,-0.0563 -0.14128,-0.26727 -0.26727,-0.26727 -0.126,0 -0.14128,0.26727 -0.26727,0.26727 -1.60609,0 -3.20724,-0.17818 -4.81086,-0.26727"
       id="path98"
       inkscape:connector-curvature="0" />
    <text
       xml:space="preserve"
       style="font-style:normal;font-weight:normal;font-size:10.58333302px;line-height:1.25;font-family:sans-serif;letter-spacing:0px;word-spacing:0px;fill:#000000;fill-opacity:1;stroke:none;stroke-width:0.26458332"
       x="24.588797"
       y="282.83472"
       id="text102"><tspan
         sodipodi:role="line"
         id="tspan100"
         x="24.588797"
         y="282.83472"
         style="stroke-width:0.26458332">P1 P2 P3 P4...</tspan></text>
    <text
       xml:space="preserve"
       style="font-style:normal;font-weight:normal;font-size:10.58333302px;line-height:1.25;font-family:sans-serif;letter-spacing:0px;word-spacing:0px;fill:#000000;fill-opacity:1;stroke:none;stroke-width:0.26458332"
       x="14.165285"
       y="101.3587"
       id="text106"><tspan
         sodipodi:role="line"
         id="tspan104"
         x="14.165285"
         y="101.3587"
         style="stroke-width:0.26458332">Situacao</tspan></text>
    <text
       xml:space="preserve"
       style="font-style:normal;font-weight:normal;font-size:10.58333302px;line-height:1.25;font-family:sans-serif;letter-spacing:0px;word-spacing:0px;fill:#000000;fill-opacity:1;stroke:none;stroke-width:0.26458332"
       x="153.67998"
       y="86.926155"
       id="text110"><tspan
         sodipodi:role="line"
         id="tspan108"
         x="153.67998"
         y="86.926155"
         style="stroke-width:0.26458332">Acao</tspan></text>
    <path
       style="fill:none;stroke:#000000;stroke-width:0.26458332px;stroke-linecap:butt;stroke-linejoin:miter;stroke-opacity:1"
       d="m 72.69731,20.376039 c 0.712719,0.267269 1.396466,0.630649 2.138156,0.801808 0.434044,0.100164 0.892212,-0.03416 1.33635,0 0.716147,0.05509 1.430819,0.142446 2.138156,0.26727 0.808868,0.142741 1.593143,0.412697 2.405425,0.534539 2.265746,0.339862 3.15595,0.267269 5.34539,0.267269 3.118144,0 6.23629,0 9.354434,0 3.563593,0 7.127189,0 10.690779,0 0.97999,0 1.95998,0 2.93997,0 0.33105,0 0.75305,-0.05267 1.06907,0 0.36233,0.06039 0.70326,0.234014 1.06908,0.26727 0.62107,0.05646 1.24726,0 1.87089,0 0.80181,0 1.60362,0 2.40542,0 1.06908,0 2.13816,0 3.20724,0 1.24726,0 2.49537,-0.04616 3.74177,0 1.97487,0.07314 3.92019,0.31679 5.87993,0.534539 0.80181,0.08909 1.60491,0.167205 2.40543,0.26727 1.25019,0.156273 2.49899,0.327409 3.74177,0.534539 1.81328,0.302213 0.76354,0.267269 1.87089,0.267269"
       id="path112"
       inkscape:connector-curvature="0" />
    <path
       style="fill:none;stroke:#000000;stroke-width:0.26458332px;stroke-linecap:butt;stroke-linejoin:miter;stroke-opacity:1"
       d="m 117.33132,12.892492 c 0.17818,1.514527 0.40243,3.024342 0.53454,4.543582 0.0463,0.53253 -0.0356,1.070262 0,1.603617 0.13542,2.031217 0.52408,3.843222 0.80181,5.87993 0.109,0.799345 0.13464,1.60966 0.26727,2.405426 0.13503,0.810191 0.3918,1.596557 0.53454,2.405425 0.12482,0.707335 0.20762,1.422371 0.26727,2.138156 0.0296,0.355129 -0.0699,0.71964 0,1.069078 0.1105,0.552511 0.38628,1.060019 0.53454,1.603619 0.31774,1.165069 0.17452,1.32539 0.53453,2.405425 0.15172,0.455144 0.39668,0.876816 0.53455,1.336346 0.13053,0.435113 0.16872,0.892895 0.26726,1.336347 0.0797,0.358582 0.22671,0.703998 0.26727,1.069078 0.0492,0.442725 0,0.8909 0,1.33635 0,0.801807 0,1.603616 0,2.405425 0,2.583606 0,5.167212 0,7.750815 0,1.069078 -0.082,2.141307 0,3.207234 0.20394,2.651138 0.32182,0.594532 0.80181,3.474506 0.0732,0.439388 0,0.890897 0,1.336347 0,1.069078 0,2.138156 0,3.207234 0,3.296325 0,6.592649 0,9.888971 0,1.425438 0,2.850878 0,4.276315 0,0.534538 -0.041,1.070652 0,1.603616 -0.0609,1.106313 0.4267,2.12879 0.53454,3.207234 0.0443,0.443238 -0.063,0.895376 0,1.336347 0.0282,0.19721 0.20427,0.345551 0.26727,0.53454 0.0282,0.08452 0.0891,0.267269 0,0.267269 -0.0891,0 0,-0.356359 0,-0.267269 0,1.336347 0,2.672694 0,4.009044"
       id="path114"
       inkscape:connector-curvature="0" />
    <text
       xml:space="preserve"
       style="font-style:normal;font-weight:normal;font-size:10.58333302px;line-height:1.25;font-family:sans-serif;letter-spacing:0px;word-spacing:0px;fill:#000000;fill-opacity:1;stroke:none;stroke-width:0.26458332"
       x="72.697311"
       y="20.37604"
       id="text118"><tspan
         sodipodi:role="line"
         id="tspan116"
         x="72.697311"
         y="20.37604"
         style="stroke-width:0.26458332">S1 S2 S3  Saida</tspan></text>
    <text
       xml:space="preserve"
       style="font-style:normal;font-weight:normal;font-size:10.58333302px;line-height:1.25;font-family:sans-serif;letter-spacing:0px;word-spacing:0px;fill:#000000;fill-opacity:1;stroke:none;stroke-width:0.26458332"
       x="75.102737"
       y="36.679478"
       id="text122"><tspan
         sodipodi:role="line"
         id="tspan120"
         x="75.102737"
         y="36.679478"
         style="stroke-width:0.26458332">0    0   0</tspan><tspan
         sodipodi:role="line"
         x="75.102737"
         y="49.908646"
         style="stroke-width:0.26458332"
         id="tspan124">........</tspan><tspan
         sodipodi:role="line"
         x="75.102737"
         y="63.13781"
         style="stroke-width:0.26458332"
         id="tspan126" /><tspan
         sodipodi:role="line"
         x="75.102737"
         y="76.366974"
         style="stroke-width:0.26458332"
         id="tspan128" /><tspan
         sodipodi:role="line"
         x="75.102737"
         y="89.596146"
         style="stroke-width:0.26458332"
         id="tspan130">1     1   1</tspan></text>
    <text
       xml:space="preserve"
       style="font-style:normal;font-weight:normal;font-size:10.58333302px;line-height:1.25;font-family:sans-serif;letter-spacing:0px;word-spacing:0px;fill:#000000;fill-opacity:1;stroke:none;stroke-width:0.26458332"
       x="130.16025"
       y="37.481289"
       id="text134"><tspan
         sodipodi:role="line"
         id="tspan132"
         x="130.16025"
         y="37.481289"
         style="stroke-width:0.26458332">F</tspan><tspan
         sodipodi:role="line"
         x="130.16025"
         y="50.710457"
         style="stroke-width:0.26458332"
         id="tspan136">D</tspan><tspan
         sodipodi:role="line"
         x="130.16025"
         y="63.939621"
         style="stroke-width:0.26458332"
         id="tspan138">E</tspan><tspan
         sodipodi:role="line"
         x="130.16025"
         y="77.168785"
         style="stroke-width:0.26458332"
         id="tspan140">R</tspan><tspan
         sodipodi:role="line"
         x="130.16025"
         y="90.397957"
         style="stroke-width:0.26458332"
         id="tspan142">...</tspan></text>
    <text
       xml:space="preserve"
       style="font-style:normal;font-weight:normal;font-size:10.58333302px;line-height:1.25;font-family:sans-serif;letter-spacing:0px;word-spacing:0px;fill:#000000;fill-opacity:1;stroke:none;stroke-width:0.26458332"
       x="8.5526247"
       y="21.445118"
       id="text146"><tspan
         sodipodi:role="line"
         id="tspan144"
         x="8.5526247"
         y="30.808887"
         style="stroke-width:0.26458332" /></text>
    <text
       xml:space="preserve"
       style="font-style:normal;font-weight:normal;font-size:10.58333302px;line-height:1.25;font-family:sans-serif;letter-spacing:0px;word-spacing:0px;fill:#000000;fill-opacity:1;stroke:none;stroke-width:0.26458332"
       x="9.0871639"
       y="10.487065"
       id="text150"><tspan
         sodipodi:role="line"
         id="tspan148"
         x="9.0871639"
         y="10.487065"
         style="stroke-width:0.26458332">V[S1*4+S2*2+S3] = F .... D....E</tspan></text>
  </g>
</svg>
