<?xml version="1.0" encoding="UTF-8" standalone="no"?>
<!-- Created with Inkscape (http://www.inkscape.org/) -->

<svg
   xmlns:dc="http://purl.org/dc/elements/1.1/"
   xmlns:cc="http://creativecommons.org/ns#"
   xmlns:rdf="http://www.w3.org/1999/02/22-rdf-syntax-ns#"
   xmlns:svg="http://www.w3.org/2000/svg"
   xmlns="http://www.w3.org/2000/svg"
   xmlns:sodipodi="http://sodipodi.sourceforge.net/DTD/sodipodi-0.dtd"
   xmlns:inkscape="http://www.inkscape.org/namespaces/inkscape"
   width="247.83604mm"
   height="146.25531mm"
   viewBox="0 0 247.83604 146.25531"
   version="1.1"
   id="svg8"
   inkscape:export-filename="/home/simoes/Documents/MaterialAulaDistancia/LabOrgA02.png"
   inkscape:export-xdpi="96"
   inkscape:export-ydpi="96"
   inkscape:version="0.92.3 (2405546, 2018-03-11)"
   sodipodi:docname="LabOrgA02.svg">
  <defs
     id="defs2" />
  <sodipodi:namedview
     id="base"
     pagecolor="#ffffff"
     bordercolor="#666666"
     borderopacity="1.0"
     inkscape:pageopacity="1"
     inkscape:pageshadow="2"
     inkscape:zoom="0.7"
     inkscape:cx="380.42124"
     inkscape:cy="304.08233"
     inkscape:document-units="mm"
     inkscape:current-layer="layer1"
     showgrid="false"
     inkscape:window-width="1366"
     inkscape:window-height="741"
     inkscape:window-x="0"
     inkscape:window-y="27"
     inkscape:window-maximized="1" />
  <metadata
     id="metadata5">
    <rdf:RDF>
      <cc:Work
         rdf:about="">
        <dc:format>image/svg+xml</dc:format>
        <dc:type
           rdf:resource="http://purl.org/dc/dcmitype/StillImage" />
        <dc:title></dc:title>
      </cc:Work>
    </rdf:RDF>
  </metadata>
  <g
     inkscape:label="Layer 1"
     inkscape:groupmode="layer"
     id="layer1"
     transform="translate(29.650168,48.284796)">
    <text
       xml:space="preserve"
       style="font-style:normal;font-weight:normal;font-size:4.23333311px;line-height:1.25;font-family:sans-serif;letter-spacing:0px;word-spacing:0px;fill:#000000;fill-opacity:1;stroke:none;stroke-width:0.26458332"
       x="6.8980651"
       y="6.3363094"
       id="text12"><tspan
         sodipodi:role="line"
         id="tspan10"
         x="6.8980651"
         y="6.3363094"
         style="stroke-width:0.26458332">Noop - 000000 00 00000000</tspan><tspan
         sodipodi:role="line"
         x="6.8980651"
         y="11.627975"
         style="stroke-width:0.26458332"
         id="tspan941">Load -  000001 RRR xxxxxxxx</tspan><tspan
         sodipodi:role="line"
         x="6.8980651"
         y="16.919641"
         style="stroke-width:0.26458332"
         id="tspan955">            EEEEEEEEEEEEEEEEE </tspan></text>
    <rect
       style="fill:#ece8e5;fill-opacity:0.05490196;stroke:#800080;stroke-width:0.26458332;stroke-opacity:0"
       id="rect18"
       width="11.339286"
       height="17.575893"
       x="92.98214"
       y="51.504463"
       ry="2.3325641" />
    <rect
       style="fill:#ece8e5;fill-opacity:0.05490196;stroke:#800080;stroke-width:0.26458332;stroke-opacity:0"
       id="rect828"
       width="57.830357"
       height="12.662203"
       x="124.5904"
       y="72.245911"
       ry="2.3325641" />
    <rect
       style="fill:#ffd5d5;fill-opacity:1;stroke:#800080;stroke-width:0.34465671;stroke-opacity:0.99465176"
       id="rect14-3"
       width="51.513676"
       height="46.977962"
       x="165.12114"
       y="10.156108"
       ry="2.395951" />
    <text
       xml:space="preserve"
       style="font-style:normal;font-weight:normal;font-size:4.23333311px;line-height:1.25;font-family:sans-serif;letter-spacing:0px;word-spacing:0px;fill:#000000;fill-opacity:1;stroke:none;stroke-width:0.26458332"
       x="164.98662"
       y="-2.3571432"
       id="text935"><tspan
         sodipodi:role="line"
         id="tspan933"
         x="164.98662"
         y="-2.3571432"
         style="stroke-width:0.26458332">Von Neumann</tspan></text>
    <text
       xml:space="preserve"
       style="font-style:normal;font-weight:normal;font-size:4.23333311px;line-height:1.25;font-family:sans-serif;letter-spacing:0px;word-spacing:0px;fill:#000000;fill-opacity:1;stroke:none;stroke-width:0.26458332"
       x="169.33333"
       y="15.407738"
       id="text939"><tspan
         sodipodi:role="line"
         id="tspan937"
         x="169.33333"
         y="15.407738"
         style="stroke-width:0.26458332">0000000000000000</tspan></text>
    <flowRoot
       xml:space="preserve"
       id="flowRoot943"
       style="font-style:normal;font-weight:normal;font-size:16px;line-height:1.25;font-family:sans-serif;letter-spacing:0px;word-spacing:0px;fill:#000000;fill-opacity:1;stroke:none"
       transform="scale(0.26458333)"><flowRegion
         id="flowRegion945"><rect
           id="rect947"
           width="152.14285"
           height="88.571426"
           x="155.71428"
           y="-103.1946" /></flowRegion><flowPara
         id="flowPara949"></flowPara></flowRoot>    <text
       xml:space="preserve"
       style="font-style:normal;font-weight:normal;font-size:4.23333311px;line-height:1.25;font-family:sans-serif;letter-spacing:0px;word-spacing:0px;fill:#000000;fill-opacity:1;stroke:none;stroke-width:0.26458332"
       x="190.87798"
       y="6.3363094"
       id="text953"><tspan
         sodipodi:role="line"
         id="tspan951"
         x="190.87798"
         y="6.3363094"
         style="stroke-width:0.26458332">64k x 16 bits</tspan></text>
    <text
       xml:space="preserve"
       style="font-style:normal;font-weight:normal;font-size:4.23333311px;line-height:1.25;font-family:sans-serif;letter-spacing:0px;word-spacing:0px;fill:#000000;fill-opacity:1;stroke:none;stroke-width:0.26458332"
       x="173.86905"
       y="44.322914"
       id="text959"><tspan
         sodipodi:role="line"
         id="tspan957"
         x="173.86905"
         y="44.322914"
         style="stroke-width:0.26458332">dado</tspan></text>
    <text
       xml:space="preserve"
       style="font-style:normal;font-weight:normal;font-size:4.23333311px;line-height:1.25;font-family:sans-serif;letter-spacing:0px;word-spacing:0px;fill:#000000;fill-opacity:1;stroke:none;stroke-width:0.26458332"
       x="155.15923"
       y="44.700893"
       id="text963"><tspan
         sodipodi:role="line"
         id="tspan961"
         x="155.15923"
         y="44.700893"
         style="stroke-width:0.26458332">E</tspan></text>
    <text
       xml:space="preserve"
       style="font-style:normal;font-weight:normal;font-size:4.23333311px;line-height:1.25;font-family:sans-serif;letter-spacing:0px;word-spacing:0px;fill:#000000;fill-opacity:1;stroke:none;stroke-width:0.26458332"
       x="-30.04911"
       y="-18.988104"
       id="text967"><tspan
         sodipodi:role="line"
         id="tspan965"
         x="-30.04911"
         y="-18.988104"
         style="stroke-width:0.26458332">int a = 5;</tspan><tspan
         sodipodi:role="line"
         x="-30.04911"
         y="-13.696438"
         style="stroke-width:0.26458332"
         id="tspan969">....</tspan></text>
    <text
       xml:space="preserve"
       style="font-style:normal;font-weight:normal;font-size:4.23333311px;line-height:1.25;font-family:sans-serif;letter-spacing:0px;word-spacing:0px;fill:#000000;fill-opacity:1;stroke:none;stroke-width:0.26458332"
       x="11.528277"
       y="-20.688986"
       id="text973"><tspan
         sodipodi:role="line"
         id="tspan971"
         x="11.528277"
         y="-20.688986"
         style="stroke-width:0.26458332">nop</tspan><tspan
         sodipodi:role="line"
         x="11.528277"
         y="-15.39732"
         style="stroke-width:0.26458332"
         id="tspan975">load</tspan></text>
    <text
       xml:space="preserve"
       style="font-style:normal;font-weight:normal;font-size:4.23333311px;line-height:1.25;font-family:sans-serif;letter-spacing:0px;word-spacing:0px;fill:#000000;fill-opacity:1;stroke:none;stroke-width:0.26458332"
       x="43.845234"
       y="-21.255957"
       id="text979"><tspan
         sodipodi:role="line"
         id="tspan977"
         x="43.845234"
         y="-21.255957"
         style="stroke-width:0.26458332">000001110001</tspan></text>
    <text
       xml:space="preserve"
       style="font-style:normal;font-weight:normal;font-size:4.23333311px;line-height:1.25;font-family:sans-serif;letter-spacing:0px;word-spacing:0px;fill:#000000;fill-opacity:1;stroke:none;stroke-width:0.26458332"
       x="-29.104164"
       y="-35.241062"
       id="text983"><tspan
         sodipodi:role="line"
         id="tspan981"
         x="-29.104164"
         y="-35.241062"
         style="stroke-width:0.26458332">Ling C    ---------&gt;   Assembly ---&gt;   Binary</tspan></text>
    <text
       xml:space="preserve"
       style="font-style:normal;font-weight:normal;font-size:4.23333311px;line-height:1.25;font-family:sans-serif;letter-spacing:0px;word-spacing:0px;fill:#000000;fill-opacity:1;stroke:none;stroke-width:0.26458332"
       x="-7.3705373"
       y="-45.068455"
       id="text987"><tspan
         sodipodi:role="line"
         id="tspan985"
         x="-7.3705373"
         y="-45.068455"
         style="stroke-width:0.26458332">Compiler               Assember/Montador</tspan></text>
    <text
       xml:space="preserve"
       style="font-style:normal;font-weight:normal;font-size:4.23333311px;line-height:1.25;font-family:sans-serif;letter-spacing:0px;word-spacing:0px;fill:#000000;fill-opacity:1;stroke:none;stroke-width:0.26458332"
       x="160.07292"
       y="14.840773"
       id="text991"><tspan
         sodipodi:role="line"
         id="tspan989"
         x="160.07292"
         y="14.840773"
         style="stroke-width:0.26458332">0</tspan><tspan
         sodipodi:role="line"
         x="160.07292"
         y="20.132439"
         style="stroke-width:0.26458332"
         id="tspan993">1</tspan><tspan
         sodipodi:role="line"
         x="160.07292"
         y="25.424105"
         style="stroke-width:0.26458332"
         id="tspan995">2</tspan><tspan
         sodipodi:role="line"
         x="160.07292"
         y="30.715773"
         style="stroke-width:0.26458332"
         id="tspan997">3</tspan><tspan
         sodipodi:role="line"
         x="160.07292"
         y="36.007439"
         style="stroke-width:0.26458332"
         id="tspan999">4</tspan><tspan
         sodipodi:role="line"
         x="160.07292"
         y="41.299103"
         style="stroke-width:0.26458332"
         id="tspan1001">5</tspan><tspan
         sodipodi:role="line"
         x="160.07292"
         y="46.590771"
         style="stroke-width:0.26458332"
         id="tspan1003">...</tspan></text>
    <path
       style="fill:none;stroke:#000000;stroke-width:0.26458332px;stroke-linecap:butt;stroke-linejoin:miter;stroke-opacity:1"
       d="m 189.55506,68.324404 c 0,-2.645834 0,-5.291667 0,-7.9375 0,-0.503968 0,-1.007936 0,-1.511906 0,-0.08511 0.0288,-0.509447 0,-0.566962 -0.0398,-0.07968 -0.14915,-0.109305 -0.18899,-0.18899 -0.0279,-0.05578 0,-1.12822 0,-1.322916"
       id="path1005"
       inkscape:connector-curvature="0" />
    <path
       style="fill:none;stroke:#000000;stroke-width:0.26458332px;stroke-linecap:butt;stroke-linejoin:miter;stroke-opacity:1"
       d="m 188.32664,64.828123 c 0.28348,0 0.56696,0 0.85044,0 0.0315,0 0.063,0 0.0945,0 0.0315,0 0.0663,0.01408 0.0945,0 0.0398,-0.01992 0.0546,-0.07457 0.0945,-0.09449 0.0282,-0.01408 0.0722,0.02228 0.0945,0 0.0498,-0.0498 0.0447,-0.139185 0.0945,-0.188987 0.11509,-0.115094 0.21112,-0.04426 0.28348,-0.188989 0.0141,-0.02817 -0.0223,-0.07222 0,-0.09449 0.0223,-0.02228 0.0722,0.02228 0.0945,0 0.0223,-0.02228 -0.0223,-0.07222 0,-0.0945 0.0223,-0.02228 0.0663,0.01408 0.0945,0 0.0398,-0.01992 0.0547,-0.07457 0.0945,-0.09449 0.0282,-0.01408 0.0722,0.02228 0.0945,0 0.0223,-0.02228 -0.0223,-0.07222 0,-0.09449 0.0223,-0.02228 0.0663,0.01408 0.0945,0 0.0797,-0.03984 0.10931,-0.149146 0.18899,-0.188989 0.0282,-0.01408 0.0663,0.01408 0.0945,0 0.0398,-0.01992 0.0547,-0.07457 0.0945,-0.09449 0.0282,-0.01407 0.0663,0.01408 0.0945,0 0.39327,-0.19663 -0.10101,0.0065 0.0945,-0.188989 0.0223,-0.02228 0.0663,0.01408 0.0945,0 0.0398,-0.01992 0.0547,-0.07457 0.0945,-0.09449 0.0282,-0.01408 0.0722,0.02228 0.0945,0 0.0223,-0.02228 -0.0223,-0.07222 0,-0.09449 0.12599,-0.125992 0.0945,0.15749 0.0945,-0.09449"
       id="path1007"
       inkscape:connector-curvature="0" />
    <text
       xml:space="preserve"
       style="font-style:normal;font-weight:normal;font-size:4.23333311px;line-height:1.25;font-family:sans-serif;letter-spacing:0px;word-spacing:0px;fill:#000000;fill-opacity:1;stroke:none;stroke-width:0.26458332"
       x="193.33482"
       y="64.072174"
       id="text1011"><tspan
         sodipodi:role="line"
         id="tspan1009"
         x="193.33482"
         y="64.072174"
         style="stroke-width:0.26458332">16</tspan></text>
    <path
       style="fill:none;stroke:#000000;stroke-width:0.26458332px;stroke-linecap:butt;stroke-linejoin:miter;stroke-opacity:1"
       d="m 187.94866,59.914435 c 0.0315,-0.125995 0.063,-0.251987 0.0945,-0.377979 0.0315,0 0.0722,0.02228 0.0945,0 0.063,-0.06299 -0.063,-0.126 0,-0.188986 0.0223,-0.02228 0.0804,0.02817 0.0945,0 0.0282,-0.05635 0,-0.125992 0,-0.18899 0.0315,-0.06299 0.0554,-0.130384 0.0945,-0.188986 0.0494,-0.07413 0.14914,-0.109305 0.18898,-0.188989 0.0297,-0.05939 -0.0297,-0.318585 0,-0.377976 0.0199,-0.03984 0.0746,-0.05465 0.0945,-0.09449 0.0141,-0.02817 -0.0223,-0.07222 0,-0.0945 0.0223,-0.02228 0.0663,0.01407 0.0945,0 0.39326,-0.196631 -0.10102,0.0065 0.0945,-0.188987 0.0223,-0.02228 0.0722,0.02228 0.0945,0 0.0223,-0.02228 -0.0223,-0.07222 0,-0.09449 0.0223,-0.02228 0.0722,0.02228 0.0945,0 0.0445,-0.04455 -0.0445,-0.144444 0,-0.188989 0.0445,-0.04455 0.14445,0.04454 0.18899,0 0.0223,-0.02228 -0.0223,-0.07222 0,-0.09449 0.0223,-0.02228 0.0722,0.02228 0.0945,0 0.0223,-0.02228 -0.0141,-0.06632 0,-0.0945 0.0199,-0.03984 0.0547,-0.07457 0.0945,-0.09449 0.008,-0.0039 0.27132,-0.004 0.28348,0 0.41672,0.138906 0.0998,0.0105 0.18899,0.188989 0.0199,0.03984 0.063,0.063 0.0945,0.09449 0.10285,0.102851 0.30754,0.272322 0.37798,0.377975 0.0175,0.02622 -0.0141,0.06632 0,0.09449 0.0199,0.03984 0.0746,0.05465 0.0945,0.0945 0.0141,0.02817 -0.0223,0.07222 0,0.09449 0.19552,0.195511 -0.008,-0.298768 0.18899,0.09449 0.0141,0.02817 -0.0141,0.06632 0,0.0945 0.0199,0.03984 0.0746,0.05465 0.0945,0.09449 0.0141,0.02817 -0.0141,0.06632 0,0.09449 0.0199,0.03984 0.063,0.063 0.0945,0.09449 0.0315,0.0315 0.063,0.063 0.0945,0.0945"
       id="path1013"
       inkscape:connector-curvature="0" />
    <text
       xml:space="preserve"
       style="font-style:normal;font-weight:normal;font-size:4.23333311px;line-height:1.25;font-family:sans-serif;letter-spacing:0px;word-spacing:0px;fill:#000000;fill-opacity:1;stroke:none;stroke-width:0.26458332"
       x="178.31027"
       y="61.23735"
       id="text1017"><tspan
         sodipodi:role="line"
         id="tspan1015"
         x="178.31027"
         y="61.23735"
         style="stroke-width:0.26458332">End</tspan></text>
    <path
       style="fill:none;stroke:#000000;stroke-width:0.28405812px;stroke-linecap:butt;stroke-linejoin:miter;stroke-opacity:1"
       d="m 155.68471,25.186894 c -0.47023,-0.04774 -1.07573,0.05055 -1.54428,0 -0.26045,-0.0281 -0.51096,-0.110749 -0.77214,-0.133292 -0.2561,-0.0221 -0.51476,0 -0.77215,0 -0.15442,0 -0.31095,0.02191 -0.46328,0 -0.16057,-0.0231 -0.30367,-0.105736 -0.46329,-0.133291 -0.28597,-0.04936 -0.79503,0.04936 -1.081,0 -0.418,0.226538 -0.39931,-0.203748 -0.61771,-0.266582 -0.0976,-0.0281 -0.20591,0 -0.30886,0 -0.21397,0 -0.75718,0.02923 -0.92657,0 -0.15961,-0.02756 -0.30366,-0.105736 -0.46328,-0.133291 -0.20191,-0.03485 -0.41181,0 -0.61771,0 -0.36033,0 -0.72067,0 -1.081,0 -0.15443,0 -0.31347,0.03233 -0.46329,0 -0.11163,-0.0241 -0.19965,-0.101875 -0.30886,-0.133292 -0.0836,-0.02405 -0.5651,0 -0.61771,0 -0.30886,0 -0.61771,0 -0.92658,0 -0.20589,0 -0.41339,-0.02204 -0.6177,0 -0.21061,0.02272 -0.40677,0.113062 -0.61771,0.133292 -2.05352,0 0.17948,-0.07025 -1.23543,0.133291 -0.15233,0.02191 -0.31186,-0.02614 -0.46329,0 -0.11291,0.01948 -0.19598,0.113807 -0.30885,0.133292 -0.15144,0.02614 -0.30886,0 -0.46329,0 -0.36033,0 -0.72067,0 -1.081,0 -0.13615,0 -0.3317,-0.0284 -0.46329,0 -0.15791,0.03407 -0.30272,0.110192 -0.46328,0.13329 -0.40068,0.05764 -0.83475,-0.05764 -1.23543,0 -0.16057,0.0231 -0.30537,0.09921 -0.46328,0.133291 -0.0499,0.01077 -0.10296,0 -0.15443,0 -0.25738,0 -0.51476,0 -0.77214,0 -0.0515,0 -0.10562,-0.01405 -0.15443,0 -0.10921,0.03142 -0.19598,0.113808 -0.30885,0.133292 -0.2524,0.04357 -0.51476,0 -0.77215,0 -0.0514,0 -0.10296,0 -0.15442,0 -0.0515,0 -0.1084,-0.01987 -0.15444,0 -0.0651,0.0281 -0.0893,0.10519 -0.15442,0.133291 -0.0461,0.01987 -0.10296,0 -0.15443,0 -0.0514,0 -0.10297,0 -0.15443,0 -0.30885,0 -0.61771,0 -0.92657,0 -0.15443,0 -0.31186,-0.02614 -0.46329,0 -0.15961,0.02756 -0.30271,0.110193 -0.46328,0.13329 -0.35543,0.05113 -0.72345,-0.03858 -1.08101,0 -0.4212,0.04544 -0.8152,0.214769 -1.23542,0.266583 -0.15287,0.01885 -0.30885,0 -0.46329,0 -0.15442,0.04442 -0.30365,0.105736 -0.46328,0.133291 -0.101,0.01742 -0.21678,-0.03974 -0.30885,0 -0.046,0.01987 0.0364,0.101875 0,0.133292 -0.0364,0.03142 -0.10297,0 -0.15443,0 -0.0514,0 -0.10296,0 -0.15443,0 -0.66919,0 -1.33838,0 -2.00757,0"
       id="path1023"
       inkscape:connector-curvature="0" />
    <path
       style="fill:none;stroke:#000000;stroke-width:0.26458332px;stroke-linecap:butt;stroke-linejoin:miter;stroke-opacity:1"
       d="m 146.99824,22.915099 c -0.0446,0.17818 -0.0891,0.356359 -0.13364,0.534539 -0.0445,0 -0.10213,-0.0315 -0.13363,0 -0.063,0.063 0.0398,0.187585 0,0.26727 -0.0282,0.05635 -0.0891,0.08909 -0.13364,0.133634 -0.0445,0.04454 -0.0891,0.08909 -0.13363,0.133635 0,0.04454 0.0315,0.102137 0,0.133635 -0.0315,0.0315 -0.10214,-0.0315 -0.13364,0 -0.0315,0.0315 0.0199,0.09379 0,0.133635 -0.0282,0.05635 -0.10546,0.07729 -0.13363,0.133634 -0.0199,0.03984 0.0315,0.102137 0,0.133635 -0.0704,0.07043 -0.19684,0.0632 -0.26727,0.133635 -0.0315,0.0315 0.0315,0.102137 0,0.133635 -0.0315,0.0315 -0.10214,-0.0315 -0.13364,0 -0.0315,0.0315 0.0315,0.102136 0,0.133634 -0.0315,0.0315 -0.10213,-0.0315 -0.13363,0 -0.0315,0.0315 0.0247,0.09657 0,0.133635 -0.0699,0.104832 -0.19738,0.162438 -0.26727,0.26727 -0.13825,0.207371 0.22701,0.08695 -0.13363,0.267269 -0.0399,0.01992 -0.10214,-0.0315 -0.13364,0 -0.0315,0.0315 0.0199,0.09379 0,0.133635 -0.21371,0.427415 -0.0536,-0.160145 -0.26727,0.26727 -0.0199,0.03984 0.0315,0.102136 0,0.133634 -0.0315,0.0315 -0.10213,-0.0315 -0.13363,0 -0.0315,0.0315 0.0199,0.09379 0,0.133635 -0.27808,0.556155 0.009,-0.14286 -0.26727,0.133635 -0.0315,0.0315 -0.006,0.177733 0,0.133635 0.0953,-0.667313 0.17818,-1.336348 0.26727,-2.004522"
       id="path1027"
       inkscape:connector-curvature="0" />
    <text
       xml:space="preserve"
       style="font-style:normal;font-weight:normal;font-size:4.23333311px;line-height:1.25;font-family:sans-serif;letter-spacing:0px;word-spacing:0px;fill:#000000;fill-opacity:1;stroke:none;stroke-width:0.26458332"
       x="142.98918"
       y="31.334087"
       id="text1031"><tspan
         sodipodi:role="line"
         id="tspan1029"
         x="142.98918"
         y="31.334087"
         style="stroke-width:0.26458332">16</tspan></text>
    <text
       xml:space="preserve"
       style="font-style:normal;font-weight:normal;font-size:4.23333311px;line-height:1.25;font-family:sans-serif;letter-spacing:0px;word-spacing:0px;fill:#000000;fill-opacity:1;stroke:none;stroke-width:0.26458332"
       x="189.22682"
       y="73.295403"
       id="text1035"><tspan
         sodipodi:role="line"
         id="tspan1033"
         x="189.22682"
         y="77.040909"
         style="stroke-width:0.26458332" /></text>
    <rect
       style="fill:#ffd5d5;fill-opacity:1;stroke:#800080;stroke-width:0.26458332;stroke-opacity:0.99465188"
       id="rect1037"
       width="25.256971"
       height="5.2117558"
       x="177.6006"
       y="69.152733"
       ry="2.3325641" />
    <text
       xml:space="preserve"
       style="font-style:normal;font-weight:normal;font-size:4.23333311px;line-height:1.25;font-family:sans-serif;letter-spacing:0px;word-spacing:0px;fill:#000000;fill-opacity:1;stroke:none;stroke-width:0.26458332"
       x="189.49409"
       y="73.429039"
       id="text1041"><tspan
         sodipodi:role="line"
         id="tspan1039"
         x="189.49409"
         y="73.429039"
         style="stroke-width:0.26458332">0</tspan></text>
    <path
       style="fill:none;stroke:#000000;stroke-width:0.26458332px;stroke-linecap:butt;stroke-linejoin:miter;stroke-opacity:1"
       d="m 171.08147,70.308777 c 0.0455,0.140864 0.1658,-0.03521 0.23623,0 0.0199,0.01 0.0273,0.03729 0.0472,0.04725 0.0141,0.007 0.0315,0 0.0472,0 0.0157,0 0.0315,0 0.0472,0 0.0945,0 0.18899,0 0.28348,0 0.0157,0 0.0315,0 0.0472,0 0.0157,0 0.0332,-0.007 0.0472,0 0.0199,0.0099 0.0261,0.0402 0.0473,0.04725 0.0448,0.01495 0.0945,0 0.14174,0 0.0787,0 0.15749,0 0.23623,0 0.20474,0 0.40948,0 0.61421,0 0.11025,0 0.22049,0 0.33073,0 0.0213,0 0.12736,0.0072 0.14174,0 0.0199,-0.01 0.0261,-0.0402 0.0473,-0.04725 0.0216,-0.0072 0.16797,0.0105 0.18899,0 0.0199,-0.0099 0.0273,-0.03729 0.0472,-0.04725 0.0144,-0.0072 0.12046,0 0.14174,0 0.0945,0 0.18899,0 0.28348,0 0.34648,0 0.69296,0 1.03943,0 0.22049,0 0.44098,0 0.66146,0 0.0335,0 0.27127,-0.0061 0.28348,0 0.0199,0.01 0.0261,0.04021 0.0472,0.04725 0.0448,0.01495 0.0945,0 0.14174,0 0.0945,0 0.18899,0 0.28349,0 0.0213,0 0.12736,-0.0072 0.14174,0 0.0199,0.0099 0.0273,0.03728 0.0472,0.04725 0.0141,0.007 0.0315,0 0.0472,0 0.0214,0 0.27089,-0.0063 0.28348,0 0.0199,0.0099 0.0273,0.03729 0.0473,0.04725 0.0122,0.0061 0.24999,0 0.28348,0 0.0157,0 0.0361,-0.01114 0.0472,0 0.0111,0.01114 -0.0111,0.03611 0,0.04725 0.002,0.0016 0.13028,0 0.14174,0"
       id="path1043"
       inkscape:connector-curvature="0" />
    <text
       xml:space="preserve"
       style="font-style:normal;font-weight:normal;font-size:2.33519173px;line-height:1.25;font-family:sans-serif;letter-spacing:0px;word-spacing:0px;fill:#000000;fill-opacity:1;stroke:none;stroke-width:0.14594948"
       x="155.59708"
       y="75.733177"
       id="text1047"
       transform="scale(1.0935915,0.91441821)"><tspan
         sodipodi:role="line"
         id="tspan1045"
         x="155.59708"
         y="75.733177"
         style="stroke-width:0.14594948">ResetPC</tspan></text>
    <text
       xml:space="preserve"
       style="font-style:normal;font-weight:normal;font-size:4.23333311px;line-height:1.25;font-family:sans-serif;letter-spacing:0px;word-spacing:0px;fill:#000000;fill-opacity:1;stroke:none;stroke-width:0.26458332"
       x="203.92665"
       y="73.161766"
       id="text1051"><tspan
         sodipodi:role="line"
         id="tspan1049"
         x="203.92665"
         y="73.161766"
         style="stroke-width:0.26458332">PC</tspan></text>
    <path
       style="fill:none;stroke:#000000;stroke-width:0.26458332px;stroke-linecap:butt;stroke-linejoin:miter;stroke-opacity:1"
       d="m 171.21161,73.791287 c 0.0455,0.140865 0.1658,-0.03521 0.23623,0 0.0199,0.01 0.0273,0.03729 0.0472,0.04725 0.0141,0.007 0.0315,0 0.0472,0 0.0157,0 0.0315,0 0.0472,0 0.0945,0 0.18899,0 0.28348,0 0.0157,0 0.0315,0 0.0472,0 0.0157,0 0.0332,-0.007 0.0472,0 0.0199,0.0099 0.0261,0.0402 0.0473,0.04725 0.0448,0.01495 0.0945,0 0.14174,0 0.0787,0 0.15749,0 0.23623,0 0.20474,0 0.40948,0 0.61421,0 0.11025,0 0.22049,0 0.33073,0 0.0213,0 0.12736,0.0072 0.14174,0 0.0199,-0.01 0.0261,-0.0402 0.0473,-0.04725 0.0216,-0.0072 0.16797,0.0105 0.18899,0 0.0199,-0.0099 0.0273,-0.03729 0.0472,-0.04725 0.0144,-0.0072 0.12046,0 0.14174,0 0.0945,0 0.18899,0 0.28348,0 0.34648,0 0.69296,0 1.03943,0 0.22049,0 0.44098,0 0.66146,0 0.0335,0 0.27127,-0.0061 0.28348,0 0.0199,0.01 0.0261,0.04021 0.0472,0.04725 0.0448,0.01495 0.0945,0 0.14174,0 0.0945,0 0.18899,0 0.28349,0 0.0213,0 0.12736,-0.0072 0.14174,0 0.0199,0.0099 0.0273,0.03728 0.0472,0.04725 0.0141,0.007 0.0315,0 0.0472,0 0.0214,0 0.27089,-0.0063 0.28348,0 0.0199,0.0099 0.0273,0.03729 0.0473,0.04725 0.0122,0.0061 0.24999,0 0.28348,0 0.0157,0 0.0361,-0.01114 0.0472,0 0.0111,0.01114 -0.0111,0.03611 0,0.04725 0.002,0.0016 0.13028,0 0.14174,0"
       id="path1043-7"
       inkscape:connector-curvature="0" />
    <text
       xml:space="preserve"
       style="font-style:normal;font-weight:normal;font-size:2.33519149px;line-height:1.25;font-family:sans-serif;letter-spacing:0px;word-spacing:0px;fill:#000000;fill-opacity:1;stroke:none;stroke-width:0.14594947"
       x="155.71608"
       y="79.541618"
       id="text1047-5"
       transform="scale(1.0935915,0.91441822)"><tspan
         sodipodi:role="line"
         id="tspan1045-3"
         x="155.71608"
         y="79.541618"
         style="stroke-width:0.14594947">IncPC</tspan></text>
    <rect
       style="fill:#ffd5d5;fill-opacity:1;stroke:#800080;stroke-width:0.26458332;stroke-opacity:0.99465194"
       id="rect1074"
       width="35.546848"
       height="7.2162771"
       x="109.04597"
       y="4.7407713"
       ry="2.3325641" />
    <path
       style="fill:none;stroke:#000000;stroke-width:0.26458332px;stroke-linecap:butt;stroke-linejoin:miter;stroke-opacity:1"
       d="m 125.48304,26.389603 c -0.60834,-1.216687 -0.008,0.04771 -0.4009,-0.935444 -0.037,-0.09248 -0.10948,-0.170638 -0.13364,-0.267269 -0.0216,-0.08643 0,-0.17818 0,-0.26727 0,-0.04454 0.0199,-0.09379 0,-0.133634 -0.0282,-0.05635 -0.11371,-0.07387 -0.13363,-0.133635 -0.0282,-0.08452 0,-0.17818 0,-0.26727 0,-0.178179 -0.0293,-0.358783 0,-0.534539 -0.22712,-0.361716 0.20427,-0.345551 0.26727,-0.534539 0.0563,-0.169036 -0.0432,-0.361679 0,-0.534539 0.0242,-0.09663 0.10213,-0.172775 0.13363,-0.267269 0.0282,-0.08452 -0.0398,-0.187585 0,-0.26727 0.0282,-0.05635 0.10546,-0.07729 0.13364,-0.133634 0.0534,-0.106908 -0.0535,-0.293997 0,-0.400905 0.0282,-0.05635 0.10546,-0.07729 0.13363,-0.133635 0.0265,-0.05298 -0.0273,-0.373584 0,-0.400904 0.0315,-0.0315 0.10214,0.0315 0.13364,0 0.0322,-0.03216 -0.0322,-0.502382 0,-0.534539 0.0315,-0.0315 0.10213,0.0315 0.13363,0 0.0138,-0.01377 -0.0111,-0.634859 0,-0.668174 0.0199,-0.05976 0.11372,-0.07387 0.13364,-0.133635 0.0282,-0.08452 0,-0.178179 0,-0.267269 0,-0.12139 -0.0289,-0.848691 0,-0.935443 0.0199,-0.05976 0.10546,-0.07729 0.13363,-0.133635 0.0176,-0.03514 0,-0.464659 0,-0.534539 0,-0.35636 0,-0.712719 0,-1.069078 0,-0.09295 0.0242,-0.619847 0,-0.668174 -0.0282,-0.05635 -0.10546,-0.07729 -0.13363,-0.133635 -0.042,-0.08399 0.042,-0.450546 0,-0.534539 -0.0282,-0.05635 -0.10547,-0.07729 -0.13364,-0.133635 -0.0368,-0.07354 0.0348,-0.697334 0,-0.801808 -0.0199,-0.05976 -0.10546,-0.07729 -0.13363,-0.133635 -0.0265,-0.05299 0.0273,-0.373585 0,-0.400904 -0.0315,-0.0315 -0.10214,0.0315 -0.13364,0 -0.0322,-0.03216 0.0322,-0.502383 0,-0.534539 -0.0315,-0.0315 -0.10214,0.0315 -0.13363,0 -0.063,-0.063 0.063,-0.204274 0,-0.26727 -0.17818,-0.178179 -0.13364,0.222725 -0.13364,-0.133635"
       id="path1076"
       inkscape:connector-curvature="0" />
    <path
       style="fill:none;stroke:#000000;stroke-width:0.26458332px;stroke-linecap:butt;stroke-linejoin:miter;stroke-opacity:1"
       d="m 125.21577,13.159761 c -0.18817,0.517469 -0.0663,0.208922 -0.26727,0.668174 -0.0855,0.195465 -0.10117,0.252305 -0.20045,0.434313 -0.0311,0.05701 -0.0712,0.108964 -0.10023,0.167043 -0.0379,0.07586 -0.0623,0.158004 -0.10022,0.233861 -0.16888,0.337749 -0.0345,0.02875 -0.16705,0.26727 -0.0363,0.0653 -0.0601,0.137427 -0.10022,0.200452 -0.1214,0.190773 -0.12879,0.139116 -0.26727,0.300678 -0.0261,0.03049 -0.0427,0.0681 -0.0668,0.100226 -0.16842,0.210523 -0.0909,0.109998 -0.23386,0.300678 -0.0334,0.04454 -0.0609,0.09426 -0.10023,0.133635 -0.0284,0.02839 -0.0718,0.03843 -0.10022,0.06682 -0.0176,0.01761 -0.0223,0.04454 -0.0334,0.06682 -0.0262,0.05241 -0.0864,0.186639 -0.13363,0.233861 -0.17818,0.178179 -0.0334,-0.05568 -0.16705,0.167043 -0.0174,0.02906 -0.0303,0.08199 -0.0668,0.100226 -0.01,0.005 -0.0255,-0.0079 -0.0334,0 -0.008,0.0079 -0.01,0.02843 0,0.03341 0.0568,0.02842 0.18059,-0.05358 0.20045,-0.06682 0.12236,-0.08157 0.17067,-0.137264 0.26727,-0.23386"
       id="path1078"
       inkscape:connector-curvature="0" />
    <path
       style="fill:none;stroke:#000000;stroke-width:0.26458332px;stroke-linecap:butt;stroke-linejoin:miter;stroke-opacity:1"
       d="m 125.21577,13.159761 c 0.14477,0.155907 0.28387,0.317279 0.43432,0.467722 0.0394,0.03937 0.0943,0.06085 0.13363,0.100226 0.0394,0.03937 0.064,0.09136 0.10023,0.133635 0.0307,0.03587 0.0712,0.06293 0.10022,0.100226 0.0493,0.06339 0.0864,0.135507 0.13364,0.200452 0.0419,0.05767 0.0941,0.107712 0.13363,0.167043 0.0276,0.04144 0.0369,0.09379 0.0668,0.133635 0.0378,0.0504 0.10189,0.07922 0.13363,0.133635 0.048,0.08219 0.0547,0.183739 0.10023,0.267269 0.0226,0.04148 0.0668,0.06682 0.10023,0.100226 0.10625,0.106253 -0.0887,-0.09302 0.10022,0.133635 0.0302,0.0363 0.074,0.06091 0.10023,0.100226 0.0195,0.0293 0.0153,0.07003 0.0334,0.100226 0.0162,0.02701 0.0471,0.04222 0.0668,0.06682 0.0251,0.03135 0.0427,0.0681 0.0668,0.100226 0.0189,0.0252 0.0446,0.04454 0.0668,0.06682 0.0334,0.03341 0.0668,0.06682 0.10022,0.100226 0.0111,0.01114 0.0247,0.0203 0.0334,0.03341 0.0138,0.02072 0.0196,0.0461 0.0334,0.06682 0.0262,0.03931 0.0719,0.06243 0.10023,0.100226 0.0149,0.01992 0.0158,0.04921 0.0334,0.06682 0.0811,0.08114 0.0491,-0.0099 0.10022,0.06682 0.0138,0.02072 0.0158,0.04921 0.0334,0.06682 0.008,0.0079 0.0255,-0.0079 0.0334,0 0.008,0.0079 -0.005,0.02345 0,0.03341 0.007,0.01409 0.0223,0.02227 0.0334,0.03341 0.0111,0.01114 0.0223,0.02227 0.0334,0.03341"
       id="path1080"
       inkscape:connector-curvature="0" />
    <path
       style="fill:none;stroke:#000000;stroke-width:0.26458332px;stroke-linecap:butt;stroke-linejoin:miter;stroke-opacity:1"
       d="m 125.48304,26.389603 c 0.15917,-0.164342 0.43224,-0.268762 0.47752,-0.493026 0.0249,-0.1235 -0.2526,0.01254 -0.37797,0 -0.4783,-0.04783 -0.75958,-0.142828 -1.22842,-0.283482 -0.0954,-0.02862 -0.18449,-0.0835 -0.28349,-0.0945 -0.18783,-0.02087 -0.37853,0.01449 -0.56696,0 -2.25631,-0.173562 0.21898,0.005 -0.94494,-0.188988 -0.0932,-0.01553 -0.18899,0 -0.28348,0 -0.0315,0 -0.0663,0.01409 -0.0945,0 -0.0797,-0.03984 -0.1093,-0.149146 -0.18899,-0.188988 -0.0375,-0.01873 -0.26416,0.01932 -0.28348,0 -0.0223,-0.02227 0.0223,-0.07222 0,-0.09449 -0.003,-0.003 -0.26056,0 -0.28348,0 -0.26204,0 0.15084,0.01409 -0.28348,-0.09449 -0.15279,-0.0382 -0.31712,0.02589 -0.47247,0 -0.0982,-0.01638 -0.18523,-0.07812 -0.28348,-0.09449 -0.0932,-0.01553 -0.18899,0 -0.28349,0 -0.0945,0 -0.18898,0 -0.28348,0 -0.063,0 -0.12787,0.01528 -0.18899,0 -0.0683,-0.01708 -0.12066,-0.07741 -0.18899,-0.09449 -0.0611,-0.01528 -0.12599,0 -0.18898,0 -0.063,0 -0.12599,0 -0.18899,0 -0.31498,0 -0.62996,0 -0.94494,0 -0.37798,0 -0.75595,0 -1.13393,0 -0.16002,0 -0.42645,-0.02342 -0.56696,0 -0.0983,0.01638 -0.18524,0.07812 -0.28349,0.09449 -0.21473,0.03579 -0.44585,-0.0308 -0.66146,0 -0.18966,0.0271 -0.37909,0.05692 -0.56696,0.09449 -0.12735,0.02547 -0.2489,0.08015 -0.37798,0.09449 -0.31305,0.03478 -0.63125,-0.02852 -0.94494,0 -0.38161,0.03469 -0.75186,0.159599 -1.13392,0.188988 -0.21984,0.01691 -0.44098,0 -0.66146,0 -0.34648,0 -0.69296,0 -1.03944,0 -0.15749,0 -0.31594,-0.01739 -0.47247,0 -0.12907,0.01434 -0.24911,0.07839 -0.37797,0.09449 -0.31335,0.03917 -0.72025,-0.03192 -1.03944,0 -0.19064,0.01906 -0.37615,0.07715 -0.56696,0.09449 -0.25095,0.02281 -0.50592,-0.03125 -0.75596,0 -0.15936,0.01992 -0.31347,0.07178 -0.47246,0.09449 -0.0624,0.0089 -0.12842,-0.01731 -0.18899,0 -0.1631,0.0466 -0.30792,0.147849 -0.47247,0.188989 -0.0917,0.02292 -0.19083,-0.01853 -0.28349,0 -0.0691,0.01381 -0.11992,0.08068 -0.18898,0.09449 -0.0927,0.01853 -0.18899,0 -0.28349,0 -0.18898,0 -0.37797,0 -0.56696,0 -0.063,0 -0.12787,-0.01528 -0.18899,0 -0.0683,0.01708 -0.12066,0.07741 -0.18899,0.0945 -0.0611,0.01528 -0.12599,0 -0.18898,0 -0.063,0 -0.126,0 -0.18899,0 -0.0945,0 -0.19181,-0.02292 -0.28348,0 -0.0432,0.0108 -0.0522,0.08041 -0.0945,0.09449 -0.0598,0.01992 -0.12721,-0.01235 -0.18899,0 -0.0977,0.01953 -0.18487,0.08041 -0.28348,0.09449 -0.13505,0.01929 -0.59323,0 -0.75595,0"
       id="path1082"
       inkscape:connector-curvature="0" />
    <path
       style="fill:none;stroke:#000000;stroke-width:0.26458332px;stroke-linecap:butt;stroke-linejoin:miter;stroke-opacity:1"
       d="m 104.03795,23.156249 c -0.126,0.063 -0.26798,0.100992 -0.37798,0.188988 -0.055,0.044 -0.0554,0.130386 -0.0945,0.188989 -0.0259,0.03882 -0.24466,0.257601 -0.28348,0.283481 -0.0586,0.03907 -0.13918,0.04469 -0.18898,0.0945 -0.0223,0.02227 0.0223,0.07222 0,0.09449 -0.0223,0.02227 -0.0663,-0.01409 -0.0945,0 -0.12077,0.06039 -0.0682,0.128601 -0.18899,0.188988 -0.0282,0.01409 -0.0663,-0.01409 -0.0945,0 -0.0797,0.03984 -0.10931,0.149146 -0.18899,0.188988 -0.0282,0.01409 -0.0722,-0.02227 -0.0945,0 -0.0223,0.02227 0.0223,0.07222 0,0.09449 -0.0223,0.02227 -0.0722,-0.02227 -0.0945,0 -0.0223,0.02227 0.0141,0.06632 0,0.09449 -0.0465,0.09298 -0.33148,0.284991 -0.37797,0.377976 -0.0141,0.02817 0.0223,0.07222 0,0.09449 -0.0223,0.02227 -0.0722,-0.02227 -0.0945,0 -0.0498,0.0498 -0.0554,0.130386 -0.0945,0.188988 -0.0494,0.07413 -0.14915,0.109304 -0.18899,0.188988 -0.0141,0.02817 0.0223,0.07222 0,0.09449 -0.0223,0.02227 -0.0722,-0.02227 -0.0945,0 -0.0223,0.02227 0.0223,0.07222 0,0.0945 -0.0223,0.02227 -0.063,0 -0.0945,0 0,0.0315 0.0141,0.06632 0,0.09449 -0.0125,0.02509 -0.25839,0.270937 -0.28348,0.283482 -0.0282,0.01409 -0.0722,-0.02227 -0.0945,0 -0.0223,0.02227 0,0.063 0,0.09449 -0.0315,0.0315 -0.0574,0.06978 -0.0945,0.09449 -0.0695,0.04634 -0.37239,0.172226 -0.37797,0.188988 -0.0511,0.153416 0.31019,0.330475 0.47246,0.472469 0.1341,0.117332 0.23885,0.266668 0.37798,0.377978 0.0246,0.01968 0.0646,-0.0099 0.0945,0 0.0668,0.02228 0.13264,0.05223 0.18898,0.09449 0.40872,0.408715 -0.025,0.01482 0.37798,0.283482 0.0371,0.02471 0.0547,0.07457 0.0945,0.09449 0.0282,0.01408 0.0663,-0.01408 0.0945,0 0.20219,0.101095 -0.0132,0.08789 0.18899,0.18899 0.0282,0.01407 0.0663,-0.01408 0.0945,0 0.093,0.04649 0.28499,0.331483 0.37798,0.377975 0.0282,0.01408 0.0722,-0.02228 0.0945,0 0.0498,0.0498 0.0447,0.139184 0.0945,0.188987 0.0223,0.02228 0.0663,-0.01408 0.0945,0 0.0398,0.01992 0.0546,0.07457 0.0945,0.0945 0.0282,0.01408 0.0722,-0.02228 0.0945,0 0.0223,0.02228 -0.0223,0.07222 0,0.09449 0.0498,0.0498 0.13038,0.05542 0.18898,0.09449 0.0371,0.02471 0.0547,0.07457 0.0945,0.09449 0.0282,0.01408 0.0722,-0.02228 0.0945,0 0.0223,0.02228 -0.0223,0.07222 0,0.0945 0.0223,0.02228 0.063,0 0.0945,0"
       id="path1084"
       inkscape:connector-curvature="0" />
    <path
       style="fill:none;stroke:#000000;stroke-width:0.27938339px;stroke-linecap:butt;stroke-linejoin:miter;stroke-opacity:1"
       d="m 102.40354,8.1916998 c 0.0455,0.157064 0.1658,-0.039259 0.23623,0 0.0199,0.01115 0.0273,0.041578 0.0472,0.052684 0.0141,0.00781 0.0315,0 0.0472,0 0.0157,0 0.0315,0 0.0472,0 0.0945,0 0.18899,0 0.28348,0 0.0157,0 0.0315,0 0.0472,0 0.0157,0 0.0332,-0.0078 0.0472,0 0.0199,0.011039 0.0261,0.044823 0.0473,0.052684 0.0448,0.016668 0.0945,0 0.14174,0 0.0787,0 0.15749,0 0.23623,0 0.20474,0 0.40948,0 0.61421,0 0.11025,0 0.22049,0 0.33073,0 0.0213,0 0.12735,0.00803 0.14173,0 0.0199,-0.011151 0.0261,-0.044823 0.0473,-0.052684 0.0216,-0.00803 0.16797,0.011709 0.18899,0 0.0199,-0.011038 0.0273,-0.041578 0.0472,-0.052684 0.0144,-0.00803 0.12046,0 0.14174,0 0.0945,0 0.18899,0 0.28348,0 0.34648,0 0.69296,0 1.03943,0 0.22049,0 0.44098,0 0.66146,0 0.0335,0 0.27127,-0.0068 0.28348,0 0.0199,0.01115 0.0261,0.044834 0.0472,0.052684 0.0448,0.016668 0.0945,0 0.14174,0 0.0945,0 0.18899,0 0.28349,0 0.0213,0 0.12736,-0.00803 0.14174,0 0.0199,0.011039 0.0273,0.041567 0.0472,0.052684 0.0141,0.0078 0.0315,0 0.0472,0 0.0214,0 0.27089,-0.00702 0.28348,0 0.0199,0.011038 0.0273,0.041578 0.0473,0.052684 0.0122,0.0068 0.24999,0 0.28348,0 0.0157,0 0.0361,-0.01242 0.0472,0 0.0111,0.01242 -0.0111,0.040263 0,0.052684 0.002,0.00177 0.13028,0 0.14174,0"
       id="path1043-5"
       inkscape:connector-curvature="0" />
    <text
       xml:space="preserve"
       style="font-style:normal;font-weight:normal;font-size:2.46581578px;line-height:1.25;font-family:sans-serif;letter-spacing:0px;word-spacing:0px;fill:#000000;fill-opacity:1;stroke:none;stroke-width:0.15411349"
       x="97.987511"
       y="7.2632475"
       id="text1047-6"
       transform="scale(1.0356595,0.96556831)"><tspan
         sodipodi:role="line"
         id="tspan1045-2"
         x="97.987511"
         y="7.2632475"
         style="stroke-width:0.15411349">Load</tspan></text>
    <text
       xml:space="preserve"
       style="font-style:normal;font-weight:normal;font-size:4.23333311px;line-height:1.25;font-family:sans-serif;letter-spacing:0px;word-spacing:0px;fill:#000000;fill-opacity:1;stroke:none;stroke-width:0.26458332"
       x="146.73096"
       y="10.15298"
       id="text1098"><tspan
         sodipodi:role="line"
         id="tspan1096"
         x="146.73096"
         y="10.15298"
         style="stroke-width:0.26458332">IR</tspan></text>
    <text
       xml:space="preserve"
       style="font-style:normal;font-weight:normal;font-size:4.23333311px;line-height:1.25;font-family:sans-serif;letter-spacing:0px;word-spacing:0px;fill:#000000;fill-opacity:1;stroke:none;stroke-width:0.26458332"
       x="130.2128"
       y="16.541666"
       id="text1102"><tspan
         sodipodi:role="line"
         id="tspan1100"
         x="130.2128"
         y="16.541666"
         style="stroke-width:0.26458332">00000000</tspan></text>
    <text
       xml:space="preserve"
       style="font-style:normal;font-weight:normal;font-size:4.23333311px;line-height:1.25;font-family:sans-serif;letter-spacing:0px;word-spacing:0px;fill:#000000;fill-opacity:1;stroke:none;stroke-width:0.26458332"
       x="111.97545"
       y="11.061011"
       id="text1106"><tspan
         sodipodi:role="line"
         id="tspan1104"
         x="111.97545"
         y="11.061011"
         style="stroke-width:0.26458332">00000000000</tspan></text>
    <path
       style="fill:none;stroke:#000000;stroke-width:0.26458332px;stroke-linecap:butt;stroke-linejoin:miter;stroke-opacity:1"
       d="m 99.502231,-0.75074451 c 0.19018,0.20257267 0.449223,0.0414354 0.661459,0.0944941 0.0683,0.0170823 0.12066,0.0774118 0.18899,0.094494 0.0611,0.0152789 0.12599,0 0.18899,0 0.22048,0 0.44097,0 0.66145,0 0.44098,0 0.88195,0 1.32292,0 0.18899,0 0.37798,0 0.56697,0 0.0945,0 0.18898,0 0.28348,0 0.063,0 0.12787,0.0152789 0.18898,0 0.0683,-0.0170823 0.12218,-0.0722216 0.18899,-0.094494 0.0598,-0.019921 0.126,0 0.18899,0 0.15749,0 0.31498,0 0.47247,0 0.0315,0 0.063,0 0.0945,0 0.0315,0 0.0722,0.0222724 0.0945,0 0.0773,-0.0773476 -0.0871,-0.15946633 -0.0945,-0.18898812 -0.0229,-0.0916727 0,-0.18898817 0,-0.28348217 0,-0.062996 0,-0.1259921 0,-0.1889881 0,-0.6929563 0,-1.3859127 0,-2.0788691 0,-0.220486 0,-0.4409721 0,-0.6614583 0,-0.076071 0.0198,-0.3186666 0,-0.3779761 -0.0223,-0.066817 -0.0722,-0.1221708 -0.0945,-0.1889882 -0.028,-0.083857 0.0309,-0.4105939 0,-0.4724701 -0.0199,-0.039842 -0.0746,-0.054652 -0.0945,-0.094494 -0.0144,-0.028758 0,-0.2409259 0,-0.283482 0,-0.1889882 0,-0.3779763 0,-0.5669645 0,-0.1035127 -0.01,-0.3732057 0,-0.3779761 0.0563,-0.028173 0.12599,0 0.18899,0 0.0315,0 0.0663,-0.014086 0.0945,0 0.0398,0.01992 0.0546,0.074573 0.0945,0.094494 0.0756,0.037798 0.20789,-0.037798 0.28348,0 0.0399,0.019921 0.0547,0.074573 0.0945,0.094494 0.0513,0.02563 0.35212,-0.025855 0.37798,0 0.0223,0.022273 -0.0223,0.072221 0,0.094494 0.0193,0.019317 0.24601,-0.018733 0.28348,0 0.0398,0.01992 0.0547,0.074573 0.0945,0.094494 0.0249,0.012422 0.32856,0 0.37798,0 0.25198,0 0.50397,0 0.75595,0 0.72446,0 1.44891,0 2.17336,0 0.0347,0 0.37418,-0.0038 0.37798,0 0.0223,0.022273 0,0.062996 0,0.094494 0,0.2204863 0,0.4409723 0,0.6614583 0,0.094494 -0.0185,0.190823 0,0.2834822 0.0138,0.069064 0.0774,0.1206593 0.0945,0.1889882 0.0229,0.091673 -0.0299,0.1938372 0,0.283482 0.0223,0.066817 0.0774,0.1206593 0.0945,0.1889882 0.0245,0.097886 0,0.2696233 0,0.377976 0,0.2519842 0,0.5039683 0,0.7559525 0,0.052796 -0.0186,0.4167068 0,0.4724701 0.0223,0.066818 0.0722,0.1221708 0.0945,0.1889882 0.01,0.029882 0,0.062996 0,0.094494 0,0.062996 0,0.125992 0,0.1889881 0,0.2519841 0,0.5039682 0,0.7559523 0,0.1259921 0,0.2519841 0,0.3779762 0,0.031498 0,0.062996 0,0.094494 0,0.031498 0.0315,0.0944941 0,0.0944941 -0.0315,0 0,-0.1259921 0,-0.0944941 0,0.0629961 -0.0199,0.12922491 0,0.18898817 0.0983,0.2949462 0.063,-0.031498 0.18899,0.0944941 0.0223,0.0222724 -0.0223,0.0722216 0,0.0944941 0.0223,0.0222724 0.0722,-0.0222724 0.0945,0 0.0223,0.0222724 -0.0223,0.0722216 0,0.094494 0.0223,0.0222724 0.0722,-0.0222724 0.0945,0 0.0223,0.0222724 -0.0223,0.0722216 0,0.0944941 0.0223,0.0222724 0.0663,-0.0140864 0.0945,0 0.0398,0.019921 0.0546,0.0745729 0.0945,0.094494 0.0282,0.0140864 0.063,0 0.0945,0 0.063,0 0.12599,0 0.18899,0 0.18899,0 0.37798,0 0.56696,0 0.0315,0 0.063,0 0.0945,0 0.0315,0 0.0663,-0.0140864 0.0945,0 0.0398,0.019921 0.0547,0.074573 0.0945,0.0944941 0.0756,0.0377976 0.20789,-0.0377976 0.28349,0 0.0398,0.0199211 0.0546,0.074573 0.0945,0.094494 0.0212,0.0105895 0.35552,0 0.37798,0 0.28348,0 0.56696,0 0.85044,0 0.0315,0 0.063,0 0.0945,0 0.0315,0 0.0722,-0.0222725 0.0945,0 0.0223,0.0222725 -0.0223,0.0722216 0,0.09449405 0.004,0.0042827 0.42792,0 0.47247,0 0.0315,0 0.0804,0.02817268 0.0945,0 0.0563,-0.11269073 -0.0399,-0.25844963 0,-0.37797618 0.0141,-0.042259 0.0804,-0.052235 0.0945,-0.0944941 0.0199,-0.0597633 0,-0.12599207 0,-0.18898809 0,-0.2204861 0,-0.44097215 0,-0.66145825 0,-0.3149802 0,-0.6299603 0,-0.9449405 0,-0.080003 0.0169,-0.3271755 0,-0.3779763 -0.0141,-0.042259 -0.0804,-0.052235 -0.0945,-0.094494 -0.0399,-0.1195266 0.0306,-0.255746 0,-0.3779763 -0.0171,-0.068329 -0.0722,-0.1221706 -0.0945,-0.1889882 -0.01,-0.029882 0,-0.062996 0,-0.094494 0,-0.058554 0.0148,-0.5373989 0,-0.5669645 -0.0141,-0.028173 -0.0722,0.022273 -0.0945,0 -0.0446,-0.044545 0.0282,-0.1326425 0,-0.1889879 -0.0199,-0.039842 -0.0746,-0.054652 -0.0945,-0.094494 -0.0282,-0.056345 0.0282,-0.1326428 0,-0.1889882 -0.0199,-0.039842 -0.0746,-0.054652 -0.0945,-0.094494 -0.0171,-0.034172 0,-0.4067458 0,-0.4724701 0,-0.094494 -0.0423,-0.1989641 0,-0.2834823 0.0141,-0.028173 0.0722,0.022273 0.0945,0 0.0223,-0.022273 -0.0223,-0.072222 0,-0.094494 0.0446,-0.044545 0.13265,0.028173 0.18899,0 0.0399,-0.01992 0.0546,-0.074573 0.0945,-0.094494 0.008,-0.00403 0.36992,-0.00403 0.37797,0 0.23354,0.1167664 -0.0326,0.094494 0.18899,0.094494 0.0347,0 0.37417,-0.0038 0.37798,0 0.0223,0.022273 -0.0223,0.072221 0,0.094494 0.004,0.0038 0.34327,0 0.37797,0 0.22049,0 0.44097,0 0.66146,0 0.0426,0 0.25473,-0.01438 0.28348,0 0.0399,0.01992 0.0547,0.074573 0.0945,0.094494 0.0653,0.032635 0.4393,-0.033169 0.47247,0 0.0223,0.022273 -0.0223,0.072222 0,0.094494 0.0223,0.022273 0.063,0 0.0945,0 0.0761,0 0.31867,0.01977 0.37798,0 0.13363,-0.044545 0.24434,-0.1444432 0.37797,-0.1889882 0.0299,-0.00996 0.0663,0.014086 0.0945,0 0.0398,-0.019921 0.0547,-0.074573 0.0945,-0.094494 0.0563,-0.028173 0.12923,0.01992 0.18899,0 0.0668,-0.022273 0.12066,-0.077412 0.18899,-0.094494 0.0611,-0.01528 0.12922,0.019921 0.18899,0 0.35029,-0.1167667 -0.11519,-0.094494 0.18898,-0.094494"
       id="path1110"
       inkscape:connector-curvature="0" />
    <path
       style="fill:none;stroke:#000000;stroke-width:0.26458332px;stroke-linecap:butt;stroke-linejoin:miter;stroke-opacity:1"
       d="m 112.7314,-3.4910717 c 0.091,-0.281727 0.33161,0.070432 0.47247,0 0.0398,-0.019921 0.0746,-0.054652 0.0945,-0.094494 0.0141,-0.028173 0,-0.062996 0,-0.094494 0,-0.094494 0,-0.1889882 0,-0.2834823 0,-0.3464782 0,-0.6929561 0,-1.0394344 0,-0.022918 -0.003,-0.2804432 0,-0.2834822 0.0223,-0.022273 0.063,0 0.0945,0 0.0315,0 0.063,0 0.0945,0 0.0315,0 0.0945,-0.031498 0.0945,0 0,0.031498 -0.0945,0.031498 -0.0945,0 0,-0.031498 0.0663,-0.014086 0.0945,0 0.39327,0.1966309 -0.10101,-0.00652 0.0945,0.1889882 0.0223,0.022273 0.0722,-0.022273 0.0945,0 0.0223,0.022273 -0.0223,0.072221 0,0.094494 0.0223,0.022273 0.0663,-0.014086 0.0945,0 0.11339,0.056697 0.17009,0.2267858 0.28348,0.283482 0.0282,0.014087 0.0722,-0.022273 0.0945,0 0.0223,0.022273 -0.0223,0.072222 0,0.094494 0.0223,0.022273 0.0722,-0.022273 0.0945,0 0.0223,0.022273 0,0.062996 0,0.094494 0,0.031498 0,0.062996 0,0.094494 0,0.2519841 -0.0315,-0.031498 0.0945,0.094494 0.0223,0.022273 0,0.062996 0,0.094494 0,0.031498 0,0.062996 0,0.094494 0,0.034701 -0.004,0.3741735 0,0.3779761 0.12599,0.1259919 0.0945,-0.15749 0.0945,0.094494"
       id="path1112"
       inkscape:connector-curvature="0" />
    <path
       style="fill:none;stroke:#000000;stroke-width:0.26458332px;stroke-linecap:butt;stroke-linejoin:miter;stroke-opacity:1"
       d="m 104.53579,1.500128 c 0.10988,0.043646 0.21963,0.033409 0.33409,0.033409 0.0111,0 0.0223,0 0.0334,0 0.0111,0 0.0255,-0.00787 0.0334,0 0.008,0.00787 -0.008,0.025534 0,0.033409 0.009,0.00914 0.11551,-0.00906 0.13363,0 0.0141,0.00704 0.0193,0.026366 0.0334,0.033409 0.01,0.00498 0.0223,0 0.0334,0 0.0223,0 0.0457,-0.00704 0.0668,0 0.0149,0.00498 0.0193,0.026366 0.0334,0.033409 0.0199,0.00996 0.0469,-0.00996 0.0668,0 0.0141,0.00704 0.0193,0.026366 0.0334,0.033409 0.0267,0.013364 0.0735,-0.013364 0.10023,0 0.0141,0.00704 0.0193,0.026366 0.0334,0.033409 0.01,0.00498 0.0223,0 0.0334,0 0.0111,0 0.0223,0 0.0334,0 0.0668,0 0.13364,0 0.20046,0 0.0111,0 0.0223,0 0.0334,0 0.0111,0 0.0255,-0.00787 0.0334,0 0.008,0.00787 -0.008,0.025534 0,0.033409 0.009,0.00914 0.11551,-0.00906 0.13364,0 0.0141,0.00704 0.0193,0.026365 0.0334,0.033409 0.0102,0.00508 0.0852,0 0.10022,0 0.11137,0 0.22273,0 0.33409,0 0.0232,0 0.15496,-0.00604 0.16704,0 0.0141,0.00704 0.0193,0.026365 0.0334,0.033409 0.002,0.00122 0.19123,0.00307 0.20045,0 0.0149,-0.00498 0.0185,-0.028428 0.0334,-0.033409 0.0423,-0.014086 0.0904,0.010804 0.13364,0 0.0241,-0.00604 0.0432,-0.025534 0.0668,-0.033409 0.0106,-0.00352 0.0226,0.0027 0.0334,0 0.10219,-0.025548 0.19849,-0.074678 0.30068,-0.1002261 0.0108,-0.0027 0.0226,0.0027 0.0334,0 0.0342,-0.00854 0.0675,-0.02033 0.10023,-0.033409 0.0231,-0.00925 0.0427,-0.027369 0.0668,-0.033409 0.0216,-0.0054 0.0446,0 0.0668,0 0.0223,-0.011136 0.0432,-0.025534 0.0668,-0.033409 0.0286,-0.00954 0.10416,0.00737 0.13363,0 0.0242,-0.00604 0.0427,-0.027369 0.0668,-0.033409 0.0216,-0.0054 0.0446,0 0.0668,0 0.0668,0 0.13363,0 0.20045,0 0.009,0 0.16182,0.00261 0.16704,0 0.01,-0.00498 -0.01,-0.028428 0,-0.033409 0.009,-0.00467 0.18876,0.00195 0.20045,0 0.0347,-0.00579 0.0668,-0.022272 0.10023,-0.033409 0.0334,-0.011136 0.0668,-0.022272 0.10023,-0.033409 0.0334,-0.011136 0.0654,-0.028428 0.10022,-0.033409 0.0441,-0.0063 0.0894,0.00553 0.13364,0 0.0671,-0.00839 0.16729,-0.044628 0.23386,-0.066817 0.0334,-0.011136 0.0655,-0.027619 0.10023,-0.033409 0.033,-0.00549 0.0668,0 0.10022,0 0.0223,0 0.0457,0.00704 0.0668,0 0.015,-0.00498 0.0193,-0.026365 0.0334,-0.033409 0.012,-0.00601 0.16607,1.937e-4 0.16704,0 0.0244,-0.00488 0.0424,-0.028525 0.0668,-0.033409 0.0655,-0.013104 0.13454,0.010985 0.20045,0 0.0347,-0.00579 0.0655,-0.027619 0.10023,-0.033409 0.0329,-0.00549 0.0668,0 0.10022,0 0.0446,0 0.0891,0 0.13364,0 0.1559,0 0.31181,0 0.46772,0 0.33409,0 0.66817,0 1.00226,0 0.0668,0 0.13363,0 0.20045,0 0.0223,0 0.045,-0.00437 0.0668,0 0.0345,0.00691 0.0655,0.027619 0.10022,0.033409 0.033,0.00549 0.0672,-0.00472 0.10023,0 0.0455,0.00649 0.0882,0.026915 0.13364,0.033409 0.0682,0.00974 0.1689,-0.012992 0.23386,0 0.0155,0.00309 0.018,0.03032 0.0334,0.033409 0.0437,0.00874 0.0891,0 0.13363,0 0.0111,0 0.0228,-0.00352 0.0334,0 0.0605,-0.020136 0.0621,0.05412 0.10022,0.066817 0.10023,0.033409 0.0334,-0.016705 0.10023,0 0.0342,0.00854 0.0657,0.026502 0.10023,0.033409 0.0546,0.01092 0.11212,-0.00915 0.16704,0 0.0347,0.00579 0.0661,0.024868 0.10023,0.033409 0.0108,0.0027 0.0223,0 0.0334,0 0.0445,0 0.0897,-0.00732 0.13363,0 0.0246,0.00409 0.0427,0.027369 0.0668,0.033409 0.0333,0.00831 0.1797,-0.010377 0.20045,0 0.01,0.00498 -0.008,0.025534 0,0.033409 0.033,0.032957 0.0668,-0.068457 0.0668,0.033409"
       id="path1114"
       inkscape:connector-curvature="0" />
    <path
       style="fill:none;stroke:#000000;stroke-width:0.26458332px;stroke-linecap:butt;stroke-linejoin:miter;stroke-opacity:1"
       d="m 113.82341,0.43104993 c 0.008,0.0950359 0.12336,0.10152364 0.16704,0.16704347 0.0325,0.0486858 0.0209,0.0695858 0.0668,0.10022607 0.0207,0.0138128 0.0432,0.0255341 0.0668,0.0334087 0.0106,0.003522 0.0255,-0.007875 0.0334,0 0.0176,0.017608 0.0196,0.0460982 0.0334,0.0668174 0.0512,0.076752 0.0191,-0.0143256 0.10022,0.0668174 0.0176,0.017608 0.0158,0.0492094 0.0334,0.0668174 0.0176,0.017608 0.0461,0.0195958 0.0668,0.0334087 0.0163,0.0108767 0.12276,0.11731963 0.13363,0.13363473 0.0138,0.020719 0.0158,0.049209 0.0334,0.066817 0.0176,0.017608 0.0492,0.015801 0.0668,0.033409 0.0176,0.017608 0.0196,0.046098 0.0334,0.066817 0.009,0.013104 0.0263,0.019322 0.0334,0.033409 0.005,0.00996 -0.005,0.023448 0,0.033409 0.007,0.014086 0.0264,0.019322 0.0334,0.033409 0.005,0.00996 -0.005,0.023448 0,0.033409 0.007,0.014086 0.0264,0.019322 0.0334,0.033409 0.005,0.00996 -0.005,0.023448 0,0.033409 0.007,0.014086 0.0264,0.019322 0.0334,0.033409 0.005,0.00996 -0.004,0.022844 0,0.033409 0.008,0.023624 0.0255,0.043194 0.0334,0.066817 0.004,0.010565 0,0.022272 0,0.033409 0,0.064033 0.01,0.015632 -0.0668,0.066817 -0.0131,0.00874 -0.0203,0.024673 -0.0334,0.033409 -0.0487,0.032457 -0.0696,0.020857 -0.10022,0.066817 -0.15274,0.2291031 0.15076,-0.1507647 -0.13364,0.1336348 -0.0284,0.028392 -0.0384,0.071834 -0.0668,0.1002261 -0.0284,0.028392 -0.0689,0.041735 -0.10023,0.066817 -0.1445,0.1445023 0.009,0.00524 -0.13363,0.100226 -0.0131,0.00874 -0.0223,0.022272 -0.0334,0.033409 -0.0111,0.011136 -0.0264,0.019322 -0.0334,0.033409 -0.005,0.00996 0.008,0.025534 0,0.033409 -0.008,0.00787 -0.0223,0 -0.0334,0 -0.0111,0 -0.0223,0 -0.0334,0 -0.11136,0 -0.22272,0 -0.33409,0"
       id="path1116"
       inkscape:connector-curvature="0" />
    <path
       style="fill:none;stroke:#000000;stroke-width:0.26458332px;stroke-linecap:butt;stroke-linejoin:miter;stroke-opacity:1"
       d="m 105.10374,0.5646847 c -0.11136,0 -0.22272,0 -0.33409,0 -0.0151,0 -0.0901,-0.005084 -0.10022,0 -0.0141,0.007043 -0.0193,0.0263655 -0.0334,0.0334087 -0.01,0.00498 -0.0234,-0.00498 -0.0334,0 -0.0141,0.007043 -0.0193,0.0263655 -0.0334,0.0334087 -0.01,0.00498 -0.0234,-0.00498 -0.0334,0 -0.0401,0.0200454 -0.0601,0.0801809 -0.10022,0.10022607 -0.01,0.00498 -0.0255,-0.007875 -0.0334,0 -0.008,0.007875 0.008,0.0255341 0,0.0334087 -0.008,0.007875 -0.0255,-0.007875 -0.0334,0 -0.008,0.007875 0.008,0.0255341 0,0.0334087 -0.0691,0.0691238 0.003,-0.10563029 -0.0668,0.0334087 -0.005,0.00996 0.008,0.0255341 0,0.0334087 -0.008,0.007875 -0.0234,-0.00498 -0.0334,0 -0.0141,0.007043 -0.0223,0.0222724 -0.0334,0.0334087 -0.0261,0.0260951 -0.0714,0.0810072 -0.10022,0.10022607 -0.0207,0.0138128 -0.0461,0.0195958 -0.0668,0.0334087 -0.0262,0.017472 -0.0386,0.052731 -0.0668,0.066817 -0.01,0.00498 -0.0234,-0.00498 -0.0334,0 -0.0141,0.00704 -0.0193,0.026366 -0.0334,0.033409 -0.01,0.00498 -0.0234,-0.00498 -0.0334,0 -0.0141,0.00704 -0.0193,0.026365 -0.0334,0.033409 -0.0199,0.00996 -0.0511,-0.015749 -0.0668,0 -0.008,0.00787 0.008,0.025534 0,0.033409 -0.001,0.00107 -0.0921,0 -0.10022,0 -0.0111,0 -0.0234,-0.00498 -0.0334,0 -0.0826,0.041283 0.0115,0.033409 -0.0668,0.033409 -0.0111,0 -0.0334,0.011136 -0.0334,0 0,-0.011136 0.0255,-0.00787 0.0334,0 0.0352,0.035216 0.0369,0.093793 0.0668,0.1336348 0.0349,0.046544 0.0915,0.091486 0.13363,0.1336347 0.0223,0.022272 0.0446,0.044545 0.0668,0.066817 0.0223,0.022272 0.0416,0.047919 0.0668,0.066817 0.0199,0.014941 0.0492,0.015801 0.0668,0.033409 0.008,0.00787 -0.008,0.025534 0,0.033409 0.008,0.00787 0.0234,-0.00498 0.0334,0 0.0213,0.01064 0.1408,0.140792 0.16704,0.1670434 0.0111,0.011136 0.0193,0.026366 0.0334,0.033409 0.01,0.00498 0.0255,-0.00787 0.0334,0 0.008,0.00787 -0.008,0.025534 0,0.033409 0.008,0.00787 0.0234,-0.00498 0.0334,0 0.0329,0.016437 0.10076,0.1171972 0.13364,0.1336348 0.01,0.00498 0.0255,-0.00787 0.0334,0 0.008,0.00787 -0.008,0.025534 0,0.033409 0.008,0.00787 0.0234,-0.00498 0.0334,0 0.0141,0.00704 0.0193,0.026365 0.0334,0.033409 0.01,0.00498 0.0234,-0.00498 0.0334,0 0.13904,0.069519 -0.0357,-0.00231 0.0334,0.066817 0.008,0.00787 0.0255,-0.00787 0.0334,0 0.008,0.00787 -0.008,0.025534 0,0.033409 0.008,0.00787 0.0234,-0.00498 0.0334,0 0.0282,0.014086 0.0386,0.052731 0.0668,0.066817 0.01,0.00498 0.0255,-0.00787 0.0334,0 0.008,0.00787 -0.008,0.025534 0,0.033409 0.008,0.00787 0.0255,-0.00787 0.0334,0 0.008,0.00787 -0.008,0.025534 0,0.033409 0.0446,0.044545 0.0334,-0.055681 0.0334,0.033409"
       id="path1118"
       inkscape:connector-curvature="0" />
    <path
       style="fill:none;stroke:#000000;stroke-width:0.26458332px;stroke-linecap:butt;stroke-linejoin:miter;stroke-opacity:1"
       d="m 109.24642,2.4021627 c 0.0513,0.1143746 -0.0712,0.108964 -0.10023,0.1670434 -0.01,0.019921 0.01,0.046896 0,0.066817 -0.007,0.014086 -0.0264,0.019322 -0.0334,0.033409 -0.004,0.00864 0,0.1767718 0,0.200452 0,0.02368 -0.004,0.1918145 0,0.2004523 0.007,0.014086 0.0264,0.019322 0.0334,0.033409 0.01,0.019921 -0.007,0.045688 0,0.066817 0.008,0.023625 0.0255,0.043194 0.0334,0.066817 0.007,0.02113 -0.01,0.046896 0,0.066817 0.0141,0.028173 0.0527,0.038645 0.0668,0.066817 0.0466,0.093288 -0.13981,-0.054739 0.0668,0.100226 0.0199,0.014941 0.0492,0.015801 0.0668,0.033409 0.0176,0.017608 0.0196,0.046098 0.0334,0.066818 0.009,0.013105 0.0263,0.019322 0.0334,0.033409 0.005,0.00996 -0.008,0.025535 0,0.033409 0.008,0.00787 0.0223,0 0.0334,0 0.0932,0 0.0479,0.047876 0.10022,0.100226 0.0176,0.017608 0.0469,0.018468 0.0668,0.033409 0.0252,0.018899 0.0416,0.047919 0.0668,0.066817 0.0199,0.014941 0.0461,0.019595 0.0668,0.033409 0.0262,0.017473 0.0386,0.052731 0.0668,0.066817 0.0199,0.00996 0.0668,-0.022273 0.0668,0 0,0.011136 -0.0223,0 -0.0334,0"
       id="path1120"
       inkscape:connector-curvature="0" />
    <path
       style="fill:none;stroke:#000000;stroke-width:0.26458332px;stroke-linecap:butt;stroke-linejoin:miter;stroke-opacity:1"
       d="m 108.51143,3.23738 c 0.10022,0 0.20045,0 0.30068,0 0.0334,0 0.0673,0.00549 0.10022,0 0.30086,-0.050143 -0.0774,-0.00246 0.16705,-0.100226 0.23695,0 0.0196,0.023622 0.13363,-0.033409 0.01,-0.00498 0.0223,0 0.0334,0 0.0237,0 0.19181,0.00432 0.20045,0 0.0141,-0.00704 0.0193,-0.026366 0.0334,-0.033409 0.0217,-0.010829 0.16898,0.010491 0.20045,0 0.0236,-0.00787 0.0432,-0.025535 0.0668,-0.033409 0.0211,-0.00704 0.0445,0 0.0668,0 0.0557,0 0.11136,0 0.16704,0"
       id="path1122"
       inkscape:connector-curvature="0" />
    <path
       style="fill:none;stroke:#000000;stroke-width:0.26458332px;stroke-linecap:butt;stroke-linejoin:miter;stroke-opacity:1"
       d="m 110.81663,0.33082386 c 0,0.0445449 0,0.0890898 0,0.13363477 0,0.1771588 -0.0106,0.0245584 0.0334,0.20045214 0.008,0.0301981 0,0.16118742 0,0.20045214 0,0.0222724 0,0.0445449 0,0.0668174 0,0.0111363 -0.005,0.0234482 0,0.0334087 0.007,0.0140864 0.0263,0.0193222 0.0334,0.0334087 0.005,0.009961 0,0.0222723 0,0.0334087 0,0.033409 0,0.066817 0,0.100226 0,0.012935 -0.006,0.2550863 0,0.2672696 0.007,0.014086 0.0264,0.019322 0.0334,0.033409 0.006,0.012177 0,0.1477934 0,0.1670434 0,0.011136 -0.008,0.025534 0,0.033409 0.008,0.00787 0.0255,-0.00787 0.0334,0 0.008,0.00787 0,0.022272 0,0.033409 0,0.011136 0,0.022272 0,0.033409"
       id="path1124"
       inkscape:connector-curvature="0" />
    <text
       xml:space="preserve"
       style="font-style:normal;font-weight:normal;font-size:1.95940351px;line-height:1.25;font-family:sans-serif;letter-spacing:0px;word-spacing:0px;fill:#000000;fill-opacity:1;stroke:none;stroke-width:0.12246272"
       x="109.90677"
       y="3.866467"
       id="text1128"
       transform="scale(1.0118601,0.98827889)"><tspan
         sodipodi:role="line"
         id="tspan1126"
         x="109.90677"
         y="3.866467"
         style="stroke-width:0.12246272">CG</tspan></text>
    <path
       style="fill:none;stroke:#000000;stroke-width:0.26458332px;stroke-linecap:butt;stroke-linejoin:miter;stroke-opacity:1"
       d="m 130.59077,-32.406251 c -0.44097,0 -0.88194,0 -1.32291,0 -0.126,0 -0.25845,0.03984 -0.37798,0 -0.0845,-0.02817 -0.10447,-0.160814 -0.18899,-0.188987 -0.11952,-0.03984 -0.25198,0 -0.37797,0 -0.25199,0 -0.50397,0 -0.75596,0 -0.88194,0 -1.76389,0 -2.64583,0 -0.37798,0 -0.75595,0 -1.13393,0 -0.18899,0 -0.39149,-0.07019 -0.56696,0 -0.21089,0.08436 -0.37798,0.251984 -0.56697,0.377976 -0.37797,0.251984 -0.74154,0.527058 -1.13393,0.755952 -1.99903,1.166101 -0.29066,0.05084 -2.07887,0.944941 -0.32854,0.164274 -0.60388,0.430543 -0.94494,0.566965 -0.29824,0.119298 -0.63608,0.100743 -0.94494,0.188986 -0.13544,0.0387 -0.2485,0.133501 -0.37797,0.18899 -0.31182,0.133635 -0.62311,0.270697 -0.94494,0.377975 -0.49282,0.164275 -1.00794,0.251984 -1.51191,0.377976 -0.25198,0.063 -0.51275,0.09779 -0.75595,0.188989 -0.26379,0.09892 -0.49438,0.273344 -0.75595,0.377976 -0.11698,0.04679 -0.26529,-0.05634 -0.37798,0 -0.20315,0.101579 -0.37435,0.257596 -0.56696,0.377976 -0.3115,0.194683 -0.62601,0.38472 -0.94494,0.566965 -0.56313,0.321786 -1.12079,0.654884 -1.7009,0.94494 -1.61997,0.809989 -0.29815,-0.04561 -1.70089,0.755952 -0.19721,0.112691 -0.36381,0.276399 -0.56696,0.377977 -0.17818,0.08909 -0.38879,0.0999 -0.56697,0.188988 -0.32854,0.164273 -0.61639,0.40269 -0.94494,0.566964 -0.17818,0.08909 -0.39614,0.08649 -0.56696,0.188988 -0.15279,0.09167 -0.23543,0.271068 -0.37798,0.377976 -0.11269,0.08452 -0.26077,0.110851 -0.37797,0.188988 -0.14826,0.09884 -0.25199,0.251985 -0.37798,0.377977 -0.25198,0.251984 -0.53334,0.477682 -0.75595,0.755952 -0.14189,0.177363 -0.21737,0.406355 -0.37798,0.566964 -0.16061,0.160609 -0.40636,0.217367 -0.56696,0.377976 -0.0446,0.04454 0.0349,0.136573 0,0.188988 -0.0988,0.148255 -0.25199,0.251985 -0.37798,0.377977 -0.18899,0.188988 -0.36164,0.395862 -0.56696,0.566964 -0.17449,0.145408 -0.39248,0.232568 -0.56697,0.377976 -0.27376,0.228136 -0.50397,0.503968 -0.75595,0.755952 -0.063,0.063 -0.10931,0.149146 -0.18899,0.188989 -0.05634,0.02817 -0.144441,-0.04454 -0.188986,0 -0.04454,0.04454 0.02817,0.132642 0,0.188988 -0.03984,0.07968 -0.125992,0.125992 -0.188989,0.188988 -0.125992,0.125992 -0.286303,0.225188 -0.377976,0.377976 -0.102495,0.170822 -0.08649,0.396142 -0.188989,0.566964 -0.183343,0.305576 -0.558279,0.459444 -0.755952,0.755953 -0.776007,1.16401 0.0173,0.356344 -0.755952,1.322916 -0.71212,0.890149 -0.05793,-0.218436 -0.755951,0.944941 -0.14495,0.241579 -0.251984,0.503968 -0.377979,0.755952 -0.06299,0.125992 -0.104468,0.265286 -0.188986,0.377976 -0.106908,0.142544 -0.271069,0.235433 -0.377976,0.377976 -0.08452,0.112691 -0.104471,0.265286 -0.188989,0.377977 -0.106908,0.142543 -0.286303,0.225188 -0.377976,0.377976 -0.102494,0.170822 -0.140671,0.373701 -0.188989,0.566964 -0.01527,0.06111 0.03495,0.136572 0,0.188988 -0.09884,0.148255 -0.271069,0.235433 -0.377976,0.377976 -0.08452,0.112691 -0.125992,0.251985 -0.188987,0.377977 -0.063,0.125992 -0.125992,0.251984 -0.188989,0.377976 -0.125992,0.251984 -0.273344,0.494375 -0.377976,0.7559522 -0.07398,0.1849628 -0.0999,0.3887845 -0.188989,0.5669642 -0.03984,0.079684 -0.149146,0.1093036 -0.188987,0.1889882 -0.08909,0.1781797 -0.115003,0.3820014 -0.188989,0.5669642 -0.01045,0.026125 -0.376192,0.7470384 -0.377976,0.7559524 -0.03706,0.1853179 0.03706,0.3816462 0,0.5669643 -0.05525,0.2762559 -0.309647,0.4826373 -0.377975,0.7559524 -0.03056,0.1222301 0,0.2519841 0,0.3779761 0,0.1259922 0,0.2519841 0,0.3779763 0,0.503968 0,1.0079363 0,1.5119046 0,0.6299604 0,1.2599206 0,1.889881 0,0.2519841 -0.03564,0.5065008 0,0.7559523 0.02817,0.1972088 0.13426,0.3754182 0.188989,0.5669643 0.07135,0.24974555 0.08667,0.5172143 0.188986,0.75595238 0.08947,0.20877039 0.2764,0.36380819 0.377976,0.56696427 0.08909,0.1781797 0.115004,0.38200158 0.188989,0.5669643 0.05232,0.13078838 0.125992,0.25198415 0.188987,0.37797615 0.063,0.1259921 0.110852,0.2607708 0.188989,0.3779762 0.148254,0.2223817 0.406604,0.3531487 0.566965,0.5669643 0.169035,0.2253814 0.221702,0.5215415 0.377976,0.7559522 0.04942,0.074127 0.13957,0.114861 0.188987,0.1889882 0.07814,0.1172054 0.08938,0.2783708 0.188989,0.3779764 0.459015,0.4590145 0.277513,-0.056199 0.566965,0.377976 0.07814,0.1172054 0.104468,0.2652856 0.188986,0.3779761 0.160362,0.2138156 0.418711,0.3445827 0.566965,0.5669645 0.07814,0.1172054 0.110853,0.2607707 0.18899,0.3779761 0.09884,0.1482545 0.298291,0.2186075 0.377975,0.377976 0.02817,0.056345 -0.01992,0.1292249 0,0.1889882 0.228378,0.685137 0.08967,0.1345023 0.377976,0.5669643 0.07814,0.1172056 0.11085,0.2607709 0.188987,0.3779763 -0.01887,0.3743963 0.278371,0.089383 0.377978,0.1889879 0.04454,0.044545 -0.02817,0.1326428 0,0.1889882 0.03984,0.079684 0.149146,0.1093038 0.188987,0.1889881 0.02817,0.056345 0,0.125992 0,0.1889882 0.063,0.1259919 0.110852,0.2607707 0.188989,0.3779761 0.04942,0.074127 0.160814,0.1044699 0.188987,0.1889881 0.03984,0.1195266 -0.03984,0.2584495 0,0.3779761 0.02817,0.084518 0.13957,0.1148609 0.188989,0.1889882 0.07814,0.1172054 0.144444,0.2443414 0.188987,0.3779761 0.01992,0.059763 0,0.1259922 0,0.1889881 0.063,0.062996 0.149148,0.1093036 0.188989,0.1889882 0.02817,0.056345 -0.04454,0.1444432 0,0.1889879 0.04454,0.044545 0.144444,-0.044545 0.188989,0 0.04454,0.044545 -0.02817,0.1326428 0,0.1889882 0.626792,0.6267942 -0.08909,-0.1781797 0.188987,0.3779762 0.144724,0.28945 0.33678,0.147792 0.566965,0.377976 0.0996,0.09961 0.10447,0.265286 0.18899,0.377976 0.2716,0.362139 0.48435,0.393814 0.75595,0.755953 0.0845,0.11269 0.10447,0.265285 0.18899,0.377976 0.1069,0.142544 0.25198,0.251984 0.37797,0.377976 0.46888,0.468879 0.73684,0.782277 1.32292,1.133929 0.46135,0.276809 1.18247,0.492903 1.70089,0.566964 0.18709,0.02673 0.37988,-0.02673 0.56697,0 0.25713,0.03673 0.49882,0.152255 0.75595,0.188988 0.18709,0.02673 0.38165,-0.03706 0.56696,0 0.13813,0.02763 0.24132,0.154824 0.37798,0.188988 0.12223,0.03056 0.25845,-0.03984 0.37798,0 0.0845,0.02817 0.1093,0.149146 0.18898,0.188988 0.0563,0.02817 0.12923,-0.01992 0.18899,0 0.13364,0.04454 0.23985,0.161363 0.37798,0.188988 0.18532,0.03706 0.38055,-0.03107 0.56696,0 0.19651,0.03275 0.37047,0.156238 0.56697,0.188988 0.18641,0.03107 0.37797,0 0.56696,0 0.31498,0 0.62996,0 0.94494,0 0.44098,0 0.88195,0 1.32292,0 0.44097,0 0.88376,0.03992 1.32292,0 0.25867,-0.02352 0.4975,-0.163143 0.75595,-0.188988 0.3761,-0.03761 0.75783,0.03761 1.13393,0 0.25845,-0.02584 0.4978,-0.160304 0.75595,-0.188988 0.50088,-0.05565 1.00793,0 1.5119,0 0.21876,0 0.77622,-0.04218 0.94494,0 0.13666,0.03416 0.23985,0.161363 0.37798,0.188988 0.18532,0.03706 0.37798,0 0.56696,0 0.18899,0 0.37798,0 0.56697,0 0.12599,0 0.25845,-0.03984 0.37798,0 0.0845,0.02817 0.1093,0.149146 0.18898,0.188988 0.11269,0.05635 0.28889,-0.08909 0.37798,0 0.0446,0.04454 -0.0446,0.144444 0,0.188989 0.0996,0.09961 0.26077,0.110851 0.37798,0.188988 0.0741,0.04942 0.11486,0.13957 0.18898,0.188988 0.11721,0.07814 0.24435,0.144443 0.37798,0.188988 0.0598,0.01992 0.14444,-0.04455 0.18899,0 0.0445,0.04454 -0.0446,0.144443 0,0.188988 0.0445,0.04454 0.13264,-0.02817 0.18899,0 0.0797,0.03984 0.1093,0.149146 0.18898,0.188988 0.0563,0.02817 0.14445,-0.04454 0.18899,0 0.0445,0.04454 -0.0445,0.144443 0,0.188988 0.0445,0.04454 0.13265,-0.02817 0.18899,0 0.86492,0.432462 -0.80196,-0.07833 0.56696,0.377976 0.28349,0.09449 0.18899,-0.188988 0.56697,0 0.0563,0.02817 -0.0446,0.144444 0,0.188988 0.0891,0.08909 0.26528,-0.05635 0.37798,0 0.0797,0.03984 0.1093,0.149146 0.18898,0.188988 0.0564,0.02817 0.13265,-0.02817 0.18899,0 0.0797,0.03984 0.10931,0.149146 0.18899,0.188989 0.11269,0.05635 0.28889,-0.08909 0.37798,0 0.0445,0.04454 -0.0446,0.144443 0,0.188987 0.0891,0.08909 0.26528,-0.05634 0.37797,0 0.0797,0.03984 0.10931,0.149147 0.18899,0.188989 0.0564,0.02817 0.12922,-0.01992 0.18899,0 0.13363,0.04454 0.24132,0.154824 0.37797,0.188988 0.30558,0.07639 0.63608,-0.06177 0.94494,0 0.13813,0.02763 0.23903,0.16583 0.37798,0.188988 0.24856,0.04143 0.50397,0 0.75595,0 0.25199,0 0.50397,0 0.75596,0 0.69295,0 1.38591,0 2.07886,0 0.18899,0 0.38165,-0.03706 0.56697,0 0.27626,0.05525 0.48264,0.309647 0.75595,0.377976 0.12223,0.03056 0.25845,-0.03984 0.37798,0 0.0845,0.02817 0.10447,0.160815 0.18899,0.188988 0.11952,0.03984 0.25198,0 0.37797,0 0.18899,0 0.38055,-0.03107 0.56697,0 0.1965,0.03275 0.37046,0.156238 0.56696,0.188988 0.18642,0.03107 0.37798,0 0.56696,0 0.063,0 0.12923,-0.01992 0.18899,0 0.13364,0.04455 0.24434,0.144443 0.37798,0.188988 0.11952,0.03984 0.28888,-0.08909 0.37797,0 0.0445,0.04454 -0.0445,0.144443 0,0.188988 0.0891,0.08909 0.26529,-0.05635 0.37798,0 0.0797,0.03984 0.10931,0.149146 0.18899,0.188989 0.0564,0.02817 0.12599,0 0.18899,0 0.12599,0 0.25574,-0.03056 0.37797,0 0.13666,0.03416 0.24132,0.154823 0.37798,0.188988 0.24446,0.06112 0.5169,-0.07969 0.75595,0 0.0845,0.02817 0.10931,0.149145 0.18899,0.188988 0.0563,0.02817 0.13264,-0.02817 0.18899,0 0.0797,0.03984 0.10447,0.160815 0.18899,0.188988 0.23905,0.07968 0.5169,-0.07969 0.75595,0 0.0845,0.02817 0.10447,0.160815 0.18899,0.188988 0.17929,0.05976 0.37797,0 0.56696,0 0.50397,0 1.00794,0 1.51191,0 0.44097,0 0.88194,0 1.32291,0 0.126,0 0.25199,0 0.37798,0 0.063,0 0.13264,0.02817 0.18899,0 0.0797,-0.03984 0.1093,-0.149146 0.18898,-0.188988 0.104,-0.052 0.98618,0.04925 1.13393,0 0.0845,-0.02817 0.10447,-0.160815 0.18899,-0.188988 0.23906,-0.07968 0.50886,0.04942 0.75595,0 0.19535,-0.03907 0.37371,-0.140673 0.56697,-0.188988 0.15661,-0.03915 0.74593,0 0.94494,0 0.063,0 0.12922,0.01992 0.18899,0 0.13363,-0.04454 0.24434,-0.144444 0.37797,-0.188988 0.0735,-0.02451 0.53764,0.02933 0.56697,0 0.0445,-0.04454 -0.0445,-0.144444 0,-0.188989 0.0445,-0.04454 0.12922,0.01992 0.18899,0 0.13363,-0.04454 0.26077,-0.110851 0.37797,-0.188988 0.6268,-0.626794 -0.17818,0.08909 0.37798,-0.188988 0.0797,-0.03984 0.1093,-0.149146 0.18899,-0.188988 0.0563,-0.02817 0.12599,0 0.18898,0 0.31498,0 0.62997,0 0.94494,0 0.063,0 0.126,0 0.18899,0 0.063,0 0.13264,0.02817 0.18899,0 0.0797,-0.03984 0.12599,-0.125992 0.18899,-0.188988 0.12599,-0.063 0.24719,-0.136673 0.37797,-0.188988 0.18497,-0.07399 0.39615,-0.08649 0.56697,-0.188988 0.15279,-0.09167 0.22519,-0.286304 0.37798,-0.377976 0.17082,-0.102494 0.38878,-0.0999 0.56696,-0.188989 0.86492,-0.432461 -0.80196,0.07833 0.56696,-0.377976 0.0598,-0.01992 0.14445,0.04454 0.18899,0 0.0996,-0.09961 0.0894,-0.27837 0.18899,-0.377976 0.0996,-0.09961 0.26077,-0.110851 0.37798,-0.188988 0.0741,-0.04942 0.12599,-0.125992 0.18898,-0.188988 0.063,-0.063 0.14915,-0.109304 0.18899,-0.188988 0.0282,-0.05635 -0.0445,-0.144443 0,-0.188988 0.0446,-0.04455 0.13264,0.02817 0.18899,0 0.28945,-0.144725 0.14779,-0.33678 0.37798,-0.566964 0.0445,-0.04454 0.14444,0.04454 0.18898,0 0.0996,-0.09961 0.11086,-0.260771 0.18899,-0.377977 0.0494,-0.07413 0.16082,-0.10447 0.18899,-0.188988 0.0398,-0.119526 -0.0398,-0.258449 0,-0.377976 0.0282,-0.08452 0.14915,-0.109303 0.18899,-0.188988 0.0282,-0.05635 -0.0282,-0.132643 0,-0.188988 0.0398,-0.07968 0.14915,-0.109304 0.18899,-0.188988 0.0563,-0.112691 -0.0398,-0.25845 0,-0.377976 0.0445,-0.133635 0.15482,-0.241319 0.18899,-0.377977 0.0764,-0.305575 -0.0618,-0.636077 0,-0.94494 0.0276,-0.138128 0.16136,-0.239848 0.18898,-0.377976 0.0869,-0.434591 -0.0741,-1.067175 0,-1.511905 0.0327,-0.1965 0.14992,-0.3716218 0.18899,-0.5669642 0.0494,-0.2470907 0,-0.5039683 0,-0.7559524 0,-0.4409721 0,-0.8819444 0,-1.3229167 0,-0.1889879 0,-0.3779761 0,-0.5669642 0,-0.125992 -0.0306,-0.255746 0,-0.3779761 0.0342,-0.1366576 0.15482,-0.2413188 0.18899,-0.3779763 0.0306,-0.1222301 0,-0.2519842 0,-0.3779761 0,-0.4409723 0,-0.8819444 0,-1.3229167 0,-1.1969247 0,-2.3938492 0,-3.5907738 0,-0.31498012 0,-0.62996028 0,-0.94494043 0,-0.12599206 -0.0247,-0.25443081 0,-0.37797619 0.0391,-0.1953424 0.14992,-0.37162189 0.18899,-0.56696429 0.0247,-0.12354536 0,-0.25198409 0,-0.37797619 0,-0.1889881 0,-0.3779762 0,-0.5669643 0,-0.5669642 0,-1.1339286 0,-1.7008928 0,-0.1889882 0,-0.3779761 0,-0.5669643 0,-0.1889881 -0.0267,-0.3798755 0,-0.5669642 0.0367,-0.2571287 0.14629,-0.4997471 0.18899,-0.7559524 0.0414,-0.2485557 0,-0.5039683 0,-0.7559524 0,-0.5039683 0,-1.0079366 0,-1.5119049 0,-0.2733132 0.0399,-1.1233472 0,-1.3229166 -0.0276,-0.1381278 -0.13668,-0.2471878 -0.18899,-0.3779761 -0.074,-0.1849628 -0.0999,-0.3887845 -0.18899,-0.5669642 -0.0797,-0.1593692 -0.27914,-0.2297222 -0.37798,-0.3779762 -0.15627,-0.234411 -0.20894,-0.530571 -0.37797,-0.755952 -0.10691,-0.142544 -0.26667,-0.238842 -0.37798,-0.377977 -0.14189,-0.177363 -0.25198,-0.377976 -0.37798,-0.566964 -0.12599,-0.188988 -0.26528,-0.369755 -0.37797,-0.566964 -0.13978,-0.244608 -0.22866,-0.517049 -0.37798,-0.755953 -0.16694,-0.267102 -0.40002,-0.488849 -0.56696,-0.755952 -0.14932,-0.238904 -0.2382,-0.511345 -0.37798,-0.755952 -0.11269,-0.197209 -0.2764,-0.363809 -0.37797,-0.566965 -0.0891,-0.178179 -0.11052,-0.38386 -0.18899,-0.566964 -0.11098,-0.258948 -0.27335,-0.494375 -0.37798,-0.755952 -0.0234,-0.05849 0,-0.125992 0,-0.188988 -0.12599,-0.251985 -0.26356,-0.498507 -0.37797,-0.755953 -0.126,-0.31498 -0.25199,-0.62996 -0.37798,-0.94494 0,-0.125992 0.0398,-0.25845 0,-0.377976 -0.33133,-0.993984 -0.34121,-0.493425 -0.75595,-1.322917 -0.0891,-0.17818 -0.0999,-0.388785 -0.18899,-0.566964 -0.10158,-0.203156 -0.2764,-0.363809 -0.37798,-0.566965 -0.15171,-0.303429 -0.25198,-0.62996 -0.37797,-0.94494 -0.12599,-0.31498 -0.26205,-0.626121 -0.37798,-0.94494 -0.13616,-0.374435 -0.21616,-0.769846 -0.37798,-1.133929 -0.11269,-0.253559 -0.85187,-1.18331 -0.94494,-1.322917 -0.7649,-1.147358 0.54404,0.591747 -0.37797,-0.944939 -0.18335,-0.305578 -0.57261,-0.450379 -0.75596,-0.755954 -0.10249,-0.17082 -0.0865,-0.396142 -0.18898,-0.566963 -0.1906,-0.317666 -0.9604,-0.771408 -1.13393,-0.94494 -0.22273,-0.222727 -0.36532,-0.51398 -0.56697,-0.755955 -0.22813,-0.273761 -0.50396,-0.503967 -0.75595,-0.755951 -0.12599,-0.125992 -0.22519,-0.286303 -0.37797,-0.377976 -0.17083,-0.102494 -0.38201,-0.115004 -0.56697,-0.188989 -0.12599,-0.063 -0.25198,-0.125992 -0.37798,-0.188987 -0.063,-0.063 -0.1093,-0.149145 -0.18898,-0.188989 -0.11269,-0.05635 -0.28889,0.08909 -0.37798,0 -0.0446,-0.04454 0.0445,-0.144441 0,-0.188987 -0.0446,-0.04455 -0.13264,0.02817 -0.18899,0 -0.43016,-0.430165 0.0391,-0.04995 -0.37797,-0.188989 -0.13364,-0.04454 -0.25199,-0.125992 -0.37798,-0.188986 -0.37798,-0.18899 -0.75595,-0.377979 -1.13393,-0.566966 -0.12599,-0.063 -0.24719,-0.136673 -0.37797,-0.188989 -0.56642,-0.226562 -0.69571,-0.198771 -1.32292,-0.377976 -0.19155,-0.05473 -0.37542,-0.13426 -0.56697,-0.188986 -0.24974,-0.07136 -0.51479,-0.09253 -0.75595,-0.188989 -0.0827,-0.03309 -0.10256,-0.167381 -0.18899,-0.18899 -0.18334,-0.04584 -0.38164,0.03707 -0.56696,0 -0.76051,-0.152101 -0.0868,-0.137908 -0.56696,-0.377975 -0.1127,-0.05635 -0.25845,0.03984 -0.37798,0 -0.13364,-0.04455 -0.24132,-0.154824 -0.37798,-0.188987 -0.14866,-0.03717 -0.93739,0 -1.13393,0 -0.12599,0 -0.25198,0 -0.37797,0 -0.063,0 -0.14445,0.04454 -0.18899,0 -0.0445,-0.04454 0.0445,-0.144444 0,-0.188989 -0.0445,-0.04454 -0.12599,0 -0.18899,0 -0.063,0 -0.12599,0 -0.18899,0 -0.75595,0 -1.5119,0 -2.26785,0 -0.56697,0 -1.13393,0 -1.7009,0 -0.18686,0 -0.59168,-0.04107 -0.75595,0 -0.74035,0.185089 -0.72069,0.256688 -1.32291,0.944941 -0.20742,0.237045 -0.3702,0.509995 -0.56697,0.755951 -0.0556,0.06957 -0.1093,0.149146 -0.18899,0.188989 -0.0563,0.02817 -0.12599,0 -0.18899,0 -0.063,0 -0.12599,0 -0.18898,0"
       id="path1130"
       inkscape:connector-curvature="0" />
    <text
       xml:space="preserve"
       style="font-style:normal;font-weight:normal;font-size:4.23333311px;line-height:1.25;font-family:sans-serif;letter-spacing:0px;word-spacing:0px;fill:#000000;fill-opacity:1;stroke:none;stroke-width:0.26458332"
       x="112.82589"
       y="-18.043156"
       id="text1134"><tspan
         sodipodi:role="line"
         id="tspan1132"
         x="112.82589"
         y="-18.043156"
         style="stroke-width:0.26458332">M Controle</tspan></text>
    <text
       xml:space="preserve"
       style="font-style:normal;font-weight:normal;font-size:4.23333311px;line-height:1.25;font-family:sans-serif;letter-spacing:0px;word-spacing:0px;fill:#000000;fill-opacity:1;stroke:none;stroke-width:0.26458332"
       x="112.44791"
       y="34.306545"
       id="text1138"><tspan
         sodipodi:role="line"
         id="tspan1136"
         x="112.44791"
         y="34.306545"
         style="stroke-width:0.26458332">Dados</tspan></text>
    <text
       xml:space="preserve"
       style="font-style:normal;font-weight:normal;font-size:4.23333311px;line-height:1.25;font-family:sans-serif;letter-spacing:0px;word-spacing:0px;fill:#000000;fill-opacity:1;stroke:none;stroke-width:0.26458332"
       x="91.04805"
       y="-43.748798"
       id="text1142"><tspan
         sodipodi:role="line"
         id="tspan1140"
         x="91.04805"
         y="-43.748798"
         style="stroke-width:0.26458332">Busca -&gt; Decodificação -&gt; Execução</tspan></text>
    <text
       xml:space="preserve"
       style="font-style:normal;font-weight:normal;font-size:4.23333311px;line-height:1.25;font-family:sans-serif;letter-spacing:0px;word-spacing:0px;fill:#000000;fill-opacity:1;stroke:none;stroke-width:0.26458332"
       x="8.5044641"
       y="29.959822"
       id="text1146"><tspan
         sodipodi:role="line"
         id="tspan1144"
         x="8.5044641"
         y="29.959822"
         style="stroke-width:0.26458332">ADD</tspan></text>
    <path
       style="fill:none;stroke:#000000;stroke-width:0.26458332px;stroke-linecap:butt;stroke-linejoin:miter;stroke-opacity:1"
       d="m 49.136905,70.403272 c 0.125992,0.251984 0.216416,0.525153 0.377976,0.755954 3.170097,4.528709 -1.850482,-3.567099 1.700893,3.212796 0.356803,0.681175 0.888695,1.255249 1.322916,1.889882 0.384778,0.562369 0.783347,1.116592 1.133928,1.700892 0.217421,0.362368 0.369239,0.76045 0.566965,1.13393 0.369321,0.697606 0.764606,1.38126 1.133927,2.078868 0.197726,0.373481 0.368099,0.761056 0.566965,1.133928 0.305215,0.57228 0.639726,1.128614 0.944941,1.700892 0.397732,0.74575 0.733229,1.523701 1.133927,2.267858 0.240792,0.447183 0.515163,0.875734 0.755955,1.322916 1.852898,3.4411 -0.915218,-1.459888 1.322916,2.456847 0.251984,0.440971 0.464696,0.906836 0.755952,1.322917 0.153268,0.218956 0.402876,0.355994 0.566965,0.566962 0.278895,0.358582 0.503968,0.755954 0.755952,1.13393 0.251983,0.377976 0.552796,0.727615 0.755951,1.133928 0.11616,0.232317 0.07283,0.523634 0.188989,0.755954 0.140865,0.281726 0.392245,0.493871 0.566965,0.755952 0.764906,1.14736 -0.544036,-0.591746 0.377976,0.94494 0.09167,0.152787 0.271069,0.235432 0.377976,0.377976 0.08452,0.112692 0.144444,0.24434 0.188987,0.377976 0.01992,0.05976 -0.04454,0.144444 0,0.188989 0.04454,0.04454 0.144444,-0.04454 0.188989,0 0.04454,0.04454 -0.06112,0.173707 0,0.188987 0.244462,0.06112 0.504357,0.01397 0.755951,0 0.88283,-0.04905 1.765504,-0.106458 2.645834,-0.188987 1.135927,-0.106495 2.269006,-0.242043 3.401787,-0.377978 2.017088,-0.242049 4.036476,-0.468646 6.047619,-0.755952 1.517353,-0.216765 3.01109,-0.598233 4.535715,-0.755951 7.706539,-0.79723 4.440938,-0.145106 10.961309,-0.377976 2.018519,-0.07209 4.029011,-0.308369 6.047618,-0.377976 1.636921,-0.05645 3.275791,0 4.913691,0 1.38591,0 2.77182,0 4.15774,0 1.63789,0 3.27579,0 4.91369,0 0.75595,0 1.5119,0 2.26785,0 0.37798,0 0.76724,-0.09167 1.13393,0 0.17286,0.04321 0.22973,0.279138 0.37798,0.377976 0.0524,0.03494 0.12599,0 0.18899,0 0.12599,0 0.26528,-0.05635 0.37797,0 0.0563,0.02817 -0.0445,0.144441 0,0.188986 0.001,7.94e-4 0.55969,-0.0016 0.56697,0 0.19534,0.03907 0.37046,0.156239 0.56696,0.18899 0.18642,0.03107 0.37798,0 0.56697,0 0.50397,0 1.00793,0 1.5119,0 1.5749,0 3.1498,0 4.7247,0 0.75596,0 1.51191,0 2.26786,0 0.12599,0 0.25198,0 0.37798,0 0.063,0 0.16081,0.05635 0.18899,0 0.0563,-0.112692 -0.0612,-0.267841 0,-0.377976 0.26317,-0.473718 0.65189,-0.867072 0.94494,-1.322917 0.27464,-0.427228 0.4308,-0.932746 0.75595,-1.322917 0.31498,-0.377975 0.82657,-0.560742 1.13393,-0.94494 0.21192,-0.264907 0.18487,-0.666018 0.37797,-0.944941 0.38118,-0.550588 0.91614,-0.979959 1.32292,-1.511906 0.41392,-0.541279 0.75595,-1.133928 1.13393,-1.700893 0.25198,-0.377975 0.49544,-0.761775 0.75595,-1.133927 0.18063,-0.258043 0.39224,-0.493874 0.56696,-0.755952 1.51867,-2.277999 -0.67278,0.698818 1.51191,-2.456846 0.2296,-0.331648 0.5187,-0.618721 0.75595,-0.944941 0.26719,-0.367385 0.49545,-0.761775 0.75595,-1.133928 0.18063,-0.258042 0.414,-0.48061 0.56697,-0.755951 0.88799,-1.598388 -0.1905,-0.338373 0.94494,-1.700895 0.11407,-0.13688 0.26667,-0.23884 0.37797,-0.377976 0.93705,-1.171308 -0.0219,-0.0617 0.56697,-0.944941 0.0494,-0.07413 0.1093,-0.149146 0.18899,-0.188987 0.0563,-0.02817 0.16081,0.05635 0.18899,0 0.0563,-0.112691 -0.0564,-0.265287 0,-0.377975 0.0282,-0.05635 0.12599,0 0.18898,0 0.063,-0.125992 0.14445,-0.244343 0.18899,-0.377976 0.0399,-0.119528 -0.0398,-0.25845 0,-0.377979 0.0446,-0.133633 0.14445,-0.24434 0.18899,-0.377975 0.0398,-0.119526 -0.0563,-0.265285 0,-0.377976 0.0398,-0.07968 0.14915,-0.109305 0.18899,-0.188987 0.0282,-0.05635 0,-0.125992 0,-0.188989 0,-0.063 0.0445,-0.144444 0,-0.188989 -0.0445,-0.04454 -0.14444,0.04454 -0.18899,0 -0.0445,-0.04454 0.0445,-0.144442 0,-0.188987 -0.39102,-0.391022 0.0153,0.597535 -0.37798,-0.188989 -0.0282,-0.05635 0.0445,-0.144441 0,-0.188987 -0.0445,-0.04454 -0.13264,0.02817 -0.18898,0 -0.0797,-0.03984 -0.126,-0.125992 -0.18899,-0.188989 -0.18899,-0.063 -0.382,-0.115004 -0.56697,-0.188986 -0.13078,-0.05232 -0.24434,-0.144444 -0.37797,-0.18899 -0.30951,-0.103169 -1.43877,-0.340529 -1.7009,-0.377976 -0.12472,-0.01783 -0.25275,0.01392 -0.37797,0 -0.44273,-0.04919 -0.87878,-0.154823 -1.32292,-0.188989 -0.37686,-0.02899 -0.75726,0.03139 -1.13393,0 -0.38186,-0.03182 -0.75159,-0.163499 -1.13393,-0.188986 -0.5657,-0.03771 -1.13392,0 -1.70089,0 -0.44097,0 -0.88194,0 -1.32292,0 -1.63789,0 -3.27579,0 -4.91369,0 -0.69295,0 -1.38591,0 -2.07886,0 -0.25199,0 -0.5115,0.06111 -0.75596,0 -0.27331,-0.06833 -0.48263,-0.309647 -0.75595,-0.377976 -0.24446,-0.06112 -0.5074,0.04143 -0.75595,0 -0.13895,-0.02315 -0.25199,-0.125992 -0.37798,-0.188989 -0.25198,-0.063 -0.4978,-0.160306 -0.75595,-0.18899 -0.31305,-0.03478 -0.63189,0.03478 -0.94494,0 -0.25815,-0.02868 -0.4978,-0.160303 -0.75595,-0.188986 -0.31306,-0.03478 -0.62996,0 -0.94494,0 -0.25199,0 -0.50397,0 -0.75596,0 -0.44097,0 -0.88194,0 -1.32291,0 -0.44097,0 -0.88325,-0.03382 -1.32292,0 -0.38206,0.02939 -0.75206,0.157165 -1.13393,0.188986 -0.37667,0.03139 -0.75595,0 -1.13393,0 -0.69295,0 -1.38591,0 -2.07887,0 -0.88194,0 -1.76388,0 -2.64583,0 -0.31498,0 -0.63425,-0.05178 -0.94494,0 -0.0879,0.01466 -0.10163,0.171517 -0.18899,0.18899 -0.37063,0.07413 -0.75595,0 -1.13393,0 -0.16975,0 -0.75499,-0.0013 -0.75595,0 -0.007,0.0099 -0.74125,1.48741 -0.75595,1.511906 -0.0458,0.07639 -0.12599,0.125991 -0.18899,0.188986 -0.12599,0.188989 -0.26528,0.369755 -0.37798,0.566965 -0.13977,0.244607 -0.21422,0.526701 -0.37797,0.755952 -0.15535,0.217487 -0.4,0.358261 -0.56697,0.566965 -0.088,0.109995 -0.12599,0.251984 -0.18898,0.377976 -0.18899,0.188989 -0.39587,0.361643 -0.56697,0.566965 -0.29081,0.34898 -0.47217,0.7792 -0.75595,1.133927 -0.11131,0.139136 -0.25198,0.251984 -0.37798,0.377976 -0.063,0.063 -0.14914,0.109305 -0.18898,0.188989 -0.0282,0.05635 0.0445,0.144444 0,0.188987 -0.0814,0.08145 -0.45943,-0.10754 -0.37798,-0.188987 0.063,-0.063 0.25198,0.251984 0.18899,0.188987 -0.440974,-0.440971 -0.881947,-0.881944 -1.32292,-1.322917 -0.251984,-0.251984 -0.477682,-0.533336 -0.755952,-0.755952 -0.354724,-0.283781 -0.761775,-0.495445 -1.133928,-0.755951 -2.141495,-1.606122 0.563454,0.352158 -1.511905,-0.944941 -1.962666,-1.226667 0.403505,0.01275 -1.511904,-0.944941 -0.125992,-0.063 -0.241318,-0.154823 -0.377978,-0.188986 -0.12223,-0.03056 -0.255744,0.03056 -0.377976,0 -0.273314,-0.06833 -0.488683,-0.288888 -0.755952,-0.377979 -0.246409,-0.08214 -0.498824,-0.152254 -0.755951,-0.188987 -0.18709,-0.02673 -0.377976,0 -0.566965,0 -0.125992,0 -0.255746,0.03056 -0.377976,0 -0.136657,-0.03417 -0.247187,-0.136673 -0.377976,-0.188989 -0.184962,-0.07398 -0.373703,-0.140671 -0.566965,-0.188986 -0.387651,-0.489141 -0.890767,-0.08095 -1.322916,-0.18899 -0.136658,-0.03416 -0.244341,-0.144444 -0.377976,-0.188986 -0.119528,-0.03984 -0.265285,0.05634 -0.377976,0 -0.07968,-0.03984 -0.109305,-0.149148 -0.188989,-0.188989 -0.05635,-0.02817 -0.125992,0 -0.188987,0 -0.063,0 -0.125992,0 -0.188989,0 -0.314981,0 -0.62996,0 -0.944941,0 -0.188987,0 -0.378751,-0.01712 -0.566965,0 -0.505804,0.04598 -1.005303,0.152802 -1.511903,0.188989 -0.377016,0.02693 -0.755952,0 -1.13393,0 -0.692955,0 -1.385912,0 -2.078869,0 -0.692957,0 -1.385911,0 -2.078868,0 -0.251984,0 -0.507397,0.04143 -0.755951,0 -0.138949,-0.02315 -0.239851,-0.161364 -0.377979,-0.188989 -0.185317,-0.03706 -0.377976,0 -0.566962,0 -0.063,0 -0.127873,0.01527 -0.188989,0 -0.193263,-0.04832 -0.369756,-0.160817 -0.566966,-0.18899 -0.249449,-0.03563 -0.503967,0 -0.755951,0 -0.314979,0 -0.62996,0 -0.944941,0 -0.692954,0 -1.385911,0 -2.078868,0 -0.692957,0 -1.385912,0 -2.078869,0 -0.314981,0 -0.63746,0.06833 -0.94494,0 -0.275019,-0.06111 -0.479698,-0.322722 -0.755952,-0.377975 -0.370636,-0.07413 -0.75783,0.03761 -1.13393,0 -2.340343,-0.234035 0.557403,-0.109358 -1.322917,-0.377976 -0.249452,-0.03564 -0.50886,0.04942 -0.755951,0 -0.08736,-0.01746 -0.104471,-0.160817 -0.18899,-0.188987 -0.304733,-0.101579 -0.636082,-0.100743 -0.94494,-0.188989 -0.135443,-0.0387 -0.241319,-0.154824 -0.377976,-0.188989 -0.371748,-0.09294 -0.75692,-0.120441 -1.133928,-0.188987 -0.316036,-0.05746 -0.625316,-0.157025 -0.94494,-0.188989 -0.313418,-0.03134 -0.631886,0.03478 -0.944941,0 -2.25093,-0.250103 0.716965,-0.188987 -1.511904,-0.188987 -0.377978,0 -0.755954,0 -1.13393,0 -0.125992,0 -0.255746,0.03056 -0.377975,0 -0.136658,-0.03417 -0.24434,-0.144444 -0.377976,-0.188989 -0.120687,-0.04023 -0.894496,0.05045 -0.944941,0 -0.04454,-0.04454 0.05635,-0.160816 0,-0.188986 -0.112691,-0.05635 -0.251984,0 -0.377976,0 -0.314981,0 -0.62996,0 -0.944941,0 -0.440973,0 -0.881943,0 -1.322916,0 -0.440973,0 -0.881944,0 -1.322917,0 -0.251984,0 -0.507397,-0.04143 -0.755952,0 -0.51241,0.0854 -0.996439,0.313541 -1.511905,0.377975 -0.250037,0.03126 -0.505913,-0.03126 -0.755952,0 -0.257733,0.03222 -0.500404,0.142523 -0.755952,0.188987 -0.438266,0.07968 -0.886118,0.101629 -1.322916,0.188989 -0.390687,0.07814 -0.747403,0.281345 -1.13393,0.377976 -0.161031,0.04026 -0.400341,0 -0.566965,0"
       id="path1148"
       inkscape:connector-curvature="0" />
    <path
       style="fill:none;stroke:#000000;stroke-width:0.26458332px;stroke-linecap:butt;stroke-linejoin:miter;stroke-opacity:1"
       d="m 33.261905,38.08631 c 0.161907,0.539689 0.594046,0.972214 0.755952,1.511903 0.202383,0.674614 0.184486,1.401652 0.377976,2.078868 0.0387,0.135446 0.173432,0.237975 0.188989,0.377979 0.0487,0.438274 -0.09916,0.893236 0,1.322917 0.09502,0.411765 0.464471,0.723955 0.566963,1.133927 0.15355,0.614198 0.11046,1.261668 0.188989,1.889882 0.04753,0.38023 0.113837,0.758179 0.188986,1.133927 0.05094,0.254696 0.07283,0.523634 0.18899,0.755952 0.07968,0.159369 0.286303,0.225189 0.377975,0.377978 0.102495,0.17082 0.07849,0.401209 0.18899,0.566963 0.03494,0.05242 0.13264,-0.02817 0.188986,0 0.07968,0.03984 0.104471,0.160816 0.188989,0.188989 0.119526,0.03984 0.251984,0 0.377976,0 0.314981,0 0.636077,0.06177 0.944941,0 0.332655,-0.06653 0.613775,-0.304385 0.944941,-0.377976 0.264583,-0.0588 1.014235,0.0441 1.322917,0 0.257127,-0.03674 0.512749,-0.09779 0.755951,-0.188989 0.550783,-0.206545 0.759751,-0.473104 1.322917,-0.566965 0.186417,-0.03107 0.381645,0.03706 0.566965,0 0.76051,-0.152101 0.08683,-0.137909 0.566962,-0.377976 0.151191,-0.07559 0.415774,0.0756 0.566965,0 0.07968,-0.03984 0.114861,-0.13957 0.188989,-0.188987 0.117206,-0.07814 0.278371,-0.08938 0.377976,-0.188989 0.04455,-0.04454 -0.04454,-0.144444 0,-0.188986 0.0996,-0.09961 0.260771,-0.110853 0.377976,-0.18899 0.07413,-0.04942 0.114861,-0.13957 0.188989,-0.188989 -0.02154,-0.358024 0.440971,-0.125992 0.566963,-0.188987 0.07968,-0.03984 0.109304,-0.149145 0.188989,-0.188989 0.05635,-0.02817 0.144444,0.04455 0.188987,0 0.04455,-0.04454 -0.01992,-0.129225 0,-0.188986 0.04455,-0.133636 0.125991,-0.251984 0.188989,-0.377976 0.125992,-0.251987 0.251984,-0.503971 0.377976,-0.755954 0.063,-0.125992 0.154823,-0.241319 0.188989,-0.377976 0.03056,-0.12223 0,-0.251984 0,-0.377976 0,-0.377976 0,-0.755952 0,-1.133927 0,-0.314982 0,-0.629963 0,-0.944941 0,-0.125992 0,-0.251984 0,-0.377976 0,-0.063 0.01992,-0.129225 0,-0.188989 -0.04454,-0.133636 -0.144444,-0.244343 -0.188989,-0.377976 -0.01992,-0.05976 0.02817,-0.132644 0,-0.188989 -0.03984,-0.07969 -0.139571,-0.114861 -0.188987,-0.188987 -0.156276,-0.234413 -0.221702,-0.521541 -0.377978,-0.755954 -0.04942,-0.07413 -0.160814,-0.104468 -0.188987,-0.188987 -0.03984,-0.119528 0.03984,-0.25845 0,-0.377976 -0.05635,-0.169037 -0.298291,-0.218609 -0.377976,-0.377975 -0.167275,-0.334553 0.281107,-0.06458 -0.188989,-0.377979 -0.117205,-0.07814 -0.260771,-0.11085 -0.377976,-0.188986 -0.07413,-0.04942 -0.125992,-0.125992 -0.188989,-0.18899 -0.125992,-0.125992 -0.229722,-0.279138 -0.377976,-0.377975 -0.05241,-0.03494 -0.136573,0.03494 -0.188987,0 -0.148253,-0.09884 -0.225189,-0.286303 -0.377975,-0.377976 -0.170823,-0.102495 -0.377979,-0.125992 -0.566965,-0.188989 -0.377976,-0.125992 -0.764003,-0.230005 -1.13393,-0.377976 -0.85642,-0.342567 -0.02617,-0.01744 -0.566963,-0.377976 -0.117205,-0.07814 -0.251984,-0.125992 -0.377976,-0.188987 -0.125992,-0.063 -0.244342,-0.144444 -0.377978,-0.188989 -0.161896,-0.05397 -0.589222,0.04168 -0.755952,0 -0.136657,-0.03417 -0.241318,-0.154823 -0.377975,-0.188989 -0.328131,-0.08203 -0.8058,0.08203 -1.133928,0 -0.13666,-0.03416 -0.241318,-0.154824 -0.377978,-0.188987 -0.12223,-0.03056 -0.251984,0 -0.377976,0 -0.188987,-0.063 -0.3737,-0.140673 -0.566963,-0.188989 -0.06112,-0.01527 -0.125992,0 -0.188989,0 -0.125992,0 -0.251984,0 -0.377976,0 -0.251983,0 -0.503967,0 -0.755951,0 -0.063,0 -0.125992,0 -0.188989,0 -0.063,0 -0.132644,0.02817 -0.18899,0 -0.07968,-0.03984 -0.109302,-0.149146 -0.188986,-0.188987 -0.05752,-0.02876 -0.481851,0 -0.566965,0"
       id="path1150"
       inkscape:connector-curvature="0" />
    <path
       style="fill:none;stroke:#000000;stroke-width:0.26458332px;stroke-linecap:butt;stroke-linejoin:miter;stroke-opacity:1"
       d="m 54.806548,37.330356 c 0,0.440973 0.03662,0.883467 0,1.322916 -0.02668,0.320109 -0.153517,0.625687 -0.18899,0.944941 -0.02783,0.250444 0,0.503968 0,0.755952 0,0.251984 0,0.50397 0,0.755954 0,0.314979 0,0.62996 0,0.944941 0,0.188987 -0.02672,0.379875 0,0.566962 0.03673,0.25713 0.138049,0.501259 0.18899,0.755955 0.01236,0.06177 0,0.125992 0,0.188986 0,0.251984 -0.03564,0.5065 0,0.755952 0.02817,0.19721 0.149918,0.371623 0.188986,0.566965 0.04942,0.247092 -0.04942,0.508862 0,0.755951 0.03907,0.195345 0.140674,0.373703 0.188989,0.566965 0.01527,0.06112 0,0.125992 0,0.18899 0,0.188986 0,0.377975 0,0.566962 0,0.251984 0,0.50397 0,0.755954 0,0.125992 -0.03056,0.255747 0,0.377976 0.03416,0.136657 0.144444,0.24434 0.188987,0.377976 0.03473,0.104193 -0.0404,0.715547 0,0.755952 0.04454,0.04454 0.132644,-0.02817 0.188989,0 0.07968,0.03984 0.109305,0.149145 0.18899,0.188989 0.05634,0.02817 0.13264,-0.02817 0.188986,0 0.07968,0.03984 0.109305,0.149145 0.188989,0.188986 0.119227,0.05961 0.825712,-0.05961 0.944941,0 0.07968,0.03984 0.102558,0.167381 0.188987,0.18899 0.183345,0.04584 0.381645,-0.03706 0.566965,0 0.138128,0.02763 0.241318,0.154823 0.377976,0.188989 0.240606,0.06015 0.6995,-0.06136 0.94494,0 0.193263,0.04832 0.373701,0.140671 0.566965,0.188986 0.06111,0.01527 0.132641,-0.02817 0.188987,0 0.07968,0.03984 0.109305,0.149146 0.188989,0.18899 0.05635,0.02817 0.125992,0 0.188987,0 0.125992,0 0.25845,-0.03984 0.377976,0 0.08452,0.02817 0.114861,0.13957 0.188989,0.188986 -0.02151,0.358024 0.440973,0.125992 0.566965,0.188989 0.07968,0.03984 0.109302,0.149146 0.188987,0.188987 0.05635,0.02817 0.129225,-0.01992 0.188989,0 0.133635,0.04454 0.24434,0.144444 0.377976,0.188989 0.05976,0.01992 0.129225,-0.01992 0.188989,0 0.133633,0.04455 0.24434,0.144444 0.377976,0.188989 0.05976,0.01992 0.13264,-0.02817 0.188986,0 0.07968,0.03984 0.109305,0.149146 0.188989,0.188987 0.05635,0.02817 0.132644,-0.02817 0.188987,0 0.07968,0.03984 0.109305,0.149146 0.188989,0.188989 0.05751,0.02876 0.481851,0 0.566965,0 0.063,0 0.125992,0 0.188987,0 0.063,0 0.132643,0.02817 0.188989,0 0.07968,-0.03984 0.125992,-0.125992 0.188987,-0.188989 0.063,-0.063 0.149148,-0.109305 0.188989,-0.188987 0.02817,-0.05635 -0.02817,-0.132643 0,-0.188989 0.03984,-0.07968 0.149145,-0.109304 0.188989,-0.188989 0.02817,-0.05634 -0.02817,-0.132641 0,-0.188987 0.07968,-0.159369 0.32163,-0.208941 0.377976,-0.377975 0.03984,-0.119529 -0.03984,-0.258451 0,-0.377976 0.05635,-0.169037 0.279138,-0.229722 0.377976,-0.377979 0.217159,-0.325739 0.188986,-0.28567 0.188986,-0.566962 0,-0.063 -0.01992,-0.129225 0,-0.188989 0.04455,-0.133636 0.161364,-0.239848 0.18899,-0.377976 0.03992,-0.19957 0,-1.049605 0,-1.322917 0,-0.944941 0,-1.889881 0,-2.834822 0,-0.503968 0,-1.007936 0,-1.511903 0,-0.18899 0,-0.377976 0,-0.566965 0,-0.125992 0.02471,-0.254432 0,-0.377976 -0.03907,-0.195342 -0.149921,-0.371623 -0.18899,-0.566965 -0.04942,-0.247089 0.07968,-0.516898 0,-0.755952 -0.02817,-0.08452 -0.139567,-0.114861 -0.188986,-0.188989 -0.07814,-0.117205 -0.144444,-0.24434 -0.18899,-0.377976 -0.01992,-0.05976 0.04455,-0.144441 0,-0.188987 -0.04454,-0.04454 -0.144441,0.04455 -0.188986,0 -0.04454,-0.04454 0.04454,-0.144444 0,-0.188989 -0.04454,-0.04454 -0.125992,0 -0.188989,0 -0.063,-0.06299 -0.139571,-0.114861 -0.188987,-0.188986 -0.07814,-0.117208 -0.07178,-0.299842 -0.188989,-0.377979 -0.104831,-0.06989 -0.25845,0.03984 -0.377976,0 -0.08452,-0.02817 -0.125992,-0.125992 -0.188989,-0.188986 -0.125992,-0.063 -0.239848,-0.161364 -0.377976,-0.18899 -0.185317,-0.03706 -0.377976,0 -0.566965,0 -0.188987,0 -0.377976,0 -0.566962,0 -1.13393,0 -2.267858,0 -3.401788,0 -0.121613,0 -1.19502,0.03197 -1.322917,0 -0.273314,-0.06833 -0.494374,-0.273343 -0.755951,-0.377975 -0.184963,-0.07399 -0.396142,-0.08649 -0.566965,-0.188987 -0.152787,-0.09167 -0.225187,-0.286306 -0.377976,-0.377978 -0.508378,-0.305025 -2.322158,-0.510001 -2.83482,-0.566963 -0.03656,-0.0041 -0.74336,0.0042 -0.755954,0 -0.08452,-0.02817 -0.109302,-0.149145 -0.188987,-0.188989 -0.05635,-0.02817 -0.125992,0 -0.188989,0 -0.063,0 -0.125992,0 -0.188987,0"
       id="path1152"
       inkscape:connector-curvature="0" />
    <path
       style="fill:none;stroke:#000000;stroke-width:0.26458332px;stroke-linecap:butt;stroke-linejoin:miter;stroke-opacity:1"
       d="m 77.863093,41.110119 c 0.05939,0.62574 -0.08909,1.266251 0,1.889879 0.07347,0.514258 0.304512,0.997649 0.377979,1.511906 0.05345,0.374176 -0.02693,0.756912 0,1.133927 0.08956,1.253805 0.315946,2.146703 0.566962,3.401788 0.063,0.314979 0.140144,0.627457 0.188989,0.944941 0.07723,0.501983 0.08257,1.015288 0.188987,1.511903 0.623104,2.907821 0.128881,0.197652 0.566965,1.511906 0.613428,1.840285 -0.388924,-0.396224 0.755951,1.511903 0.03241,0.05402 -0.04454,0.144444 0,0.188989 0.04455,0.04455 0.144444,-0.04454 0.18899,0 0.04454,0.04455 -0.04455,0.144444 0,0.188987 0.04454,0.04454 0.132643,-0.02817 0.188989,0 0.07968,0.03984 0.109302,0.149148 0.188986,0.188989 0.05635,0.02817 0.144444,-0.04454 0.18899,0 0.04454,0.04454 -0.04455,0.144444 0,0.188989 0.125992,0.125992 0.852683,0.359524 0.944941,0.377976 0.123544,0.02471 0.253698,-0.02072 0.377975,0 0.256204,0.0427 0.498825,0.152255 0.755952,0.188987 0.187089,0.02673 0.377976,0 0.566965,0 0.44097,0 0.881944,0 1.322917,0 0.314978,0 0.629959,0 0.94494,0 0.251984,0 0.5065,0.03564 0.755952,0 0.197207,-0.02817 0.372496,-0.145772 0.566965,-0.188987 0.748128,-0.166251 1.524357,-0.192103 2.267855,-0.377976 0.386527,-0.09663 0.755954,-0.251986 1.13393,-0.377978 0.188987,-0.063 0.375417,-0.13426 0.566965,-0.188987 0.249746,-0.07136 0.523634,-0.07283 0.755952,-0.188989 0.159369,-0.07968 0.229722,-0.279138 0.377976,-0.377976 0.05242,-0.03494 0.144443,0.04455 0.188989,0 0.04454,-0.04454 -0.01992,-0.129225 0,-0.188986 0.04454,-0.133636 0.116514,-0.257188 0.188986,-0.377979 0.23372,-0.389532 0.552797,-0.727614 0.755952,-1.133927 0.151715,-0.30343 0.226264,-0.641511 0.377978,-0.944941 0.101577,-0.203155 0.276397,-0.363807 0.377976,-0.566965 0.08909,-0.178178 0.110514,-0.38386 0.188987,-0.566962 0.110979,-0.258948 0.288888,-0.488683 0.377976,-0.755955 0.03984,-0.119525 -0.02471,-0.254428 0,-0.377975 0.03907,-0.195342 0.140673,-0.373701 0.188989,-0.566963 0.01527,-0.06112 0,-0.125992 0,-0.188989 0,-0.188989 0.03706,-0.381646 0,-0.566965 -0.07775,-0.388734 -0.49239,-0.681376 -0.755952,-0.944941 -0.147616,-0.147614 -0.403886,-0.458245 -0.566965,-0.566962 -0.117205,-0.07814 -0.265284,-0.104471 -0.377976,-0.18899 -0.142544,-0.106907 -0.251984,-0.251983 -0.377975,-0.377975 -0.18899,-0.18899 -0.395865,-0.361643 -0.566965,-0.566965 -0.413264,-0.495914 -0.267219,-0.57839 -0.755952,-0.944941 -0.112691,-0.08452 -0.260771,-0.11085 -0.377976,-0.188987 C 91.321981,44.03509 91.240516,43.854787 91.09226,43.755952 90.857849,43.599679 90.588292,43.503969 90.336308,43.377977 90.084324,43.251982 89.841934,43.10463 89.580356,42.999998 89.395394,42.926015 89.184214,42.913503 89.013391,42.811012 88.860605,42.719339 88.78367,42.531871 88.635416,42.433036 88.2838,42.198623 87.879464,42.05506 87.501488,41.866071 86.78665,41.508653 85.20341,40.737557 84.666666,40.354165 c -0.362477,-0.258911 -0.62996,-0.62996 -0.944941,-0.944938 -0.125992,-0.125995 -0.251984,-0.251987 -0.377976,-0.377979 -0.063,-0.06299 -0.109305,-0.149145 -0.188989,-0.188986 -0.05634,-0.02817 -0.144442,0.04454 -0.188987,0 -0.04454,-0.04455 0.04454,-0.144444 0,-0.18899 -0.04454,-0.04454 -0.144444,0.04455 -0.188989,0 -0.04454,-0.04454 0.02817,-0.132641 0,-0.188986 -0.208931,-0.417865 -0.117293,-0.05865 -0.377976,-0.188989 -0.07968,-0.03984 -0.104471,-0.160817 -0.188986,-0.188987 -0.119529,-0.03984 -0.251984,0 -0.377979,0 -0.314978,0 -0.62996,0 -0.944938,0"
       id="path1154"
       inkscape:connector-curvature="0" />
  </g>
</svg>
